918	13	0.244346	0.139626
0	0	0	0	0	2.4511e-32	30	-0.00014844	0	0	0	0	0
3	-1.7894e-06	0	6.2832	0	-0.00022436	30	-0.00014844	0	-0.00010068	0	-0.0047481	0.1
6	-2.9687e-05	0	6.2832	0	-0.00094962	30	-0.00076816	0	-0.0003417	0	-0.010111	0.2
9	-0.00015542	0	6.2831	0	-0.0022466	30	-0.0023852	0	-0.00076913	0	-0.016132	0.3
12	-0.00050672	0	6.283	0	-0.0041761	30	-0.0055893	0	-0.0014028	0	-0.022711	0.4
15	-0.0012733	0	6.2828	0	-0.0067888	30	-0.011025	0	-0.0022595	0	-0.029748	0.5
18	-0.0027118	0	6.2826	0	-0.010126	30	-0.019383	0	-0.0033523	0	-0.037141	0.6
21	-0.0051498	0	6.2822	0	-0.014217	30	-0.031386	0	-0.0046916	0	-0.044789	0.7
24	-0.0089889	0	6.2816	0	-0.019083	30	-0.047785	0	-0.0062839	0	-0.05259	0.8
27	-0.014707	0	6.2809	0	-0.024735	30	-0.069346	0	-0.0081329	0	-0.060443	0.9
30	-0.022858	0	6.28	0	-0.031172	30	-0.09684	0	-0.010239	0	-0.068241	1
33	-0.034075	0	6.2789	0	-0.038383	30	-0.13103	0	-0.012599	0	-0.075882	1.1
36	-0.049065	0	6.2775	0	-0.046348	29.999	-0.17268	0	-0.015207	0	-0.08326	1.2
39	-0.068611	0	6.2758	0	-0.055035	29.999	-0.22251	0	-0.018052	0	-0.090269	1.3
42	-0.093567	0	6.2739	0	-0.064402	29.999	-0.28122	0	-0.021124	0	-0.096802	1.4
45	-0.12485	0	6.2716	0	-0.074396	29.998	-0.34945	0	-0.024404	0	-0.10276	1.5
47.999	-0.16346	0	6.269	0	-0.084953	29.997	-0.42782	0	-0.027875	0	-0.10802	1.6
50.999	-0.21042	0	6.266	0	-0.096	29.995	-0.51685	0	-0.031513	0	-0.1125	1.7
53.998	-0.26683	0	6.2627	0	-0.10745	29.994	-0.61701	0	-0.035292	0	-0.11609	1.8
56.998	-0.33382	0	6.259	0	-0.11922	29.991	-0.72867	0	-0.039184	0	-0.1187	1.9
59.997	-0.41256	0	6.2548	0	-0.13119	29.988	-0.85212	0	-0.043155	0	-0.12023	2
62.995	-0.50424	0	6.2503	0	-0.14326	29.984	-0.98754	0	-0.047171	0	-0.12059	2.1
65.993	-0.61007	0	6.2454	0	-0.15531	29.978	-1.135	0	-0.051193	0	-0.1197	2.2
68.991	-0.73124	0	6.2401	0	-0.1672	29.972	-1.2944	0	-0.055177	0	-0.11748	2.3
71.988	-0.86896	0	6.2344	0	-0.17881	29.964	-1.4657	0	-0.059079	0	-0.11387	2.4
74.984	-1.0244	0	6.2283	0	-0.18998	29.954	-1.6483	0	-0.06285	0	-0.10878	2.5
77.979	-1.1986	0	6.2218	0	-0.20056	29.943	-1.842	0	-0.066438	0	-0.10216	2.6
80.972	-1.3928	0	6.215	0	-0.21041	29.93	-2.046	0	-0.069788	0	-0.093928	2.7
83.965	-1.6078	0	6.2078	0	-0.21935	29.915	-2.2594	0	-0.07284	0	-0.084029	2.8
86.955	-1.8447	0	6.2004	0	-0.22721	29.897	-2.4814	0	-0.075534	0	-0.072387	2.9
89.944	-2.1041	0	6.1927	0	-0.23383	29.877	-2.7106	0	-0.077804	0	-0.058922	3
92.931	-2.3868	0	6.1849	0	-0.239	29.855	-2.9458	0	-0.079581	0	-0.043546	3.1
95.915	-2.6933	0	6.1768	0	-0.24253	29.83	-3.1853	0	-0.080795	0	-0.026153	3.2
98.897	-3.0238	0	6.1687	0	-0.24423	29.803	-3.4272	0	-0.081389	0	-0.0090562	3.3
101.88	-3.3787	0	6.1605	0	-0.24435	29.774	-3.6699	0	-0.081528	0	-0.00058697	3.4
104.85	-3.7578	0	6.1524	0	-0.24435	29.743	-3.9125	0	-0.08153	0	0	3.5
107.82	-4.1612	0	6.1442	0	-0.24435	29.711	-4.1549	0	-0.08153	0	0	3.6
110.79	-4.5888	0	6.1361	0	-0.24435	29.676	-4.397	0	-0.08153	0	0	3.7
113.76	-5.0406	0	6.1279	0	-0.24435	29.639	-4.6388	0	-0.08153	0	0	3.8
116.72	-5.5166	0	6.1198	0	-0.24435	29.6	-4.8803	0	-0.08153	0	0	3.9
119.68	-6.0167	0	6.1116	0	-0.24435	29.559	-5.1215	0	-0.08153	0	0	4
122.63	-6.5409	0	6.1035	0	-0.24435	29.517	-5.3623	0	-0.08153	0	0	4.1
125.58	-7.0891	0	6.0953	0	-0.24435	29.472	-5.6027	0	-0.08153	0	0	4.2
128.53	-7.6614	0	6.0872	0	-0.24435	29.425	-5.8428	0	-0.08153	0	0	4.3
131.47	-8.2577	0	6.079	0	-0.24435	29.377	-6.0826	0	-0.08153	0	0	4.4
134.4	-8.8779	0	6.0709	0	-0.24435	29.326	-6.3219	0	-0.08153	0	0	4.5
137.33	-9.5221	0	6.0627	0	-0.24435	29.273	-6.5607	0	-0.08153	0	0	4.6
140.26	-10.19	0	6.0546	0	-0.24435	29.219	-6.7992	0	-0.08153	0	0	4.7
143.18	-10.882	0	6.0464	0	-0.24435	29.163	-7.0372	0	-0.08153	0	0	4.8
146.09	-11.598	0	6.0383	0	-0.24435	29.104	-7.2747	0	-0.08153	0	0	4.9
149	-12.337	0	6.0301	0	-0.24435	29.044	-7.5118	0	-0.08153	0	0	5
151.9	-13.1	0	6.0219	0	-0.24435	28.982	-7.7483	0	-0.08153	0	0	5.1
154.79	-13.886	0	6.0138	0	-0.24435	28.918	-7.9843	0	-0.08153	0	0	5.2
157.68	-14.697	0	6.0056	0	-0.24435	28.852	-8.2198	0	-0.08153	0	0	5.3
160.56	-15.53	0	5.9975	0	-0.24435	28.784	-8.4548	0	-0.08153	0	0	5.4
163.44	-16.388	0	5.9893	0	-0.24435	28.714	-8.6892	0	-0.08153	0	0	5.5
166.31	-17.268	0	5.9812	0	-0.24435	28.642	-8.923	0	-0.08153	0	0	5.6
169.17	-18.172	0	5.973	0	-0.24435	28.568	-9.1562	0	-0.08153	0	0	5.7
172.02	-19.1	0	5.9649	0	-0.24435	28.493	-9.3888	0	-0.08153	0	0	5.8
174.87	-20.05	0	5.9567	0	-0.24435	28.415	-9.6208	0	-0.08153	0	0	5.9
177.7	-21.024	0	5.9486	0	-0.24435	28.336	-9.8521	0	-0.08153	0	0	6
180.53	-22.02	0	5.9404	0	-0.24435	28.254	-10.083	0	-0.08153	0	0	6.1
183.35	-23.04	0	5.9323	0	-0.24435	28.171	-10.313	0	-0.08153	0	0	6.2
186.17	-24.083	0	5.9241	0	-0.24435	28.086	-10.542	0	-0.08153	0	0	6.3
188.97	-25.149	0	5.916	0	-0.24435	27.999	-10.771	0	-0.08153	0	0	6.4
191.77	-26.237	0	5.9078	0	-0.24435	27.911	-10.999	0	-0.08153	0	0	6.5
194.55	-27.348	0	5.8996	0	-0.24435	27.82	-11.226	0	-0.08153	0	0	6.6
197.33	-28.482	0	5.8915	0	-0.24435	27.728	-11.452	0	-0.08153	0	0	6.7
200.1	-29.639	0	5.8833	0	-0.24435	27.633	-11.678	0	-0.08153	0	0	6.8
202.86	-30.818	0	5.8752	0	-0.24435	27.537	-11.903	0	-0.08153	0	0	6.9
205.61	-32.02	0	5.867	0	-0.24435	27.439	-12.127	0	-0.08153	0	0	7
208.35	-33.243	0	5.8589	0	-0.24435	27.339	-12.35	0	-0.08153	0	0	7.1
211.07	-34.49	0	5.8507	0	-0.24435	27.238	-12.573	0	-0.08153	0	0	7.2
213.79	-35.758	0	5.8426	0	-0.24435	27.134	-12.795	0	-0.08153	0	0	7.3
216.5	-37.048	0	5.8344	0	-0.24435	27.029	-13.015	0	-0.08153	0	0	7.4
219.2	-38.361	0	5.8263	0	-0.24435	26.922	-13.235	0	-0.08153	0	0	7.5
221.89	-39.696	0	5.8181	0	-0.24435	26.813	-13.454	0	-0.08153	0	0	7.6
224.56	-41.052	0	5.81	0	-0.24435	26.703	-13.672	0	-0.08153	0	0	7.7
227.23	-42.43	0	5.8018	0	-0.24435	26.591	-13.89	0	-0.08153	0	0	7.8
229.88	-43.83	0	5.7937	0	-0.24435	26.476	-14.106	0	-0.08153	0	0	7.9
232.52	-45.251	0	5.7855	0	-0.24435	26.361	-14.321	0	-0.08153	0	0	8
235.15	-46.694	0	5.7774	0	-0.24435	26.243	-14.536	0	-0.08153	0	0	8.1
237.77	-48.158	0	5.7692	0	-0.24435	26.123	-14.749	0	-0.08153	0	0	8.2
240.38	-49.644	0	5.761	0	-0.24435	26.002	-14.962	0	-0.08153	0	0	8.3
242.97	-51.151	0	5.7529	0	-0.24435	25.88	-15.173	0	-0.08153	0	0	8.4
245.55	-52.679	0	5.7447	0	-0.24435	25.755	-15.384	0	-0.08153	0	0	8.5
248.12	-54.228	0	5.7366	0	-0.24435	25.629	-15.593	0	-0.08153	0	0	8.6
250.68	-55.797	0	5.7284	0	-0.24435	25.501	-15.802	0	-0.08153	0	0	8.7
253.22	-57.388	0	5.7203	0	-0.24435	25.371	-16.009	0	-0.08153	0	0	8.8
255.75	-58.999	0	5.7121	0	-0.24435	25.24	-16.215	0	-0.08153	0	0	8.9
258.27	-60.631	0	5.704	0	-0.24435	25.107	-16.421	0	-0.08153	0	0	9
260.77	-62.283	0	5.6958	0	-0.24435	24.972	-16.625	0	-0.08153	0	0	9.1
263.26	-63.956	0	5.6877	0	-0.24435	24.836	-16.828	0	-0.08153	0	0	9.2
265.74	-65.649	0	5.6795	0	-0.24435	24.697	-17.03	0	-0.08153	0	0	9.3
268.2	-67.362	0	5.6714	0	-0.24435	24.558	-17.231	0	-0.08153	0	0	9.4
270.65	-69.095	0	5.6632	0	-0.24435	24.417	-17.43	0	-0.08153	0	0	9.5
273.09	-70.848	0	5.6551	0	-0.24435	24.274	-17.629	0	-0.08153	0	0	9.6
275.51	-72.621	0	5.6469	0	-0.24435	24.129	-17.826	0	-0.08153	0	0	9.7
277.91	-74.413	0	5.6388	0	-0.24435	23.983	-18.022	0	-0.08153	0	0	9.8
280.3	-76.225	0	5.6306	0	-0.24435	23.835	-18.217	0	-0.08153	0	0	9.9
282.68	-78.057	0	5.6224	0	-0.24435	23.686	-18.411	0	-0.08153	0	0	10
285.04	-79.907	0	5.6143	0	-0.24435	23.535	-18.603	0	-0.08153	0	0	10.1
287.39	-81.777	0	5.6061	0	-0.24435	23.383	-18.795	0	-0.08153	0	0	10.2
289.72	-83.666	0	5.598	0	-0.24435	23.229	-18.985	0	-0.08153	0	0	10.3
292.03	-85.574	0	5.5898	0	-0.24435	23.073	-19.173	0	-0.08153	0	0	10.4
294.33	-87.501	0	5.5817	0	-0.24435	22.916	-19.361	0	-0.08153	0	0	10.5
296.62	-89.446	0	5.5735	0	-0.24435	22.757	-19.547	0	-0.08153	0	0	10.6
298.88	-91.41	0	5.5654	0	-0.24435	22.597	-19.732	0	-0.08153	0	0	10.7
301.14	-93.393	0	5.5572	0	-0.24435	22.436	-19.915	0	-0.08153	0	0	10.8
303.37	-95.393	0	5.5491	0	-0.24435	22.272	-20.098	0	-0.08153	0	0	10.9
305.59	-97.412	0	5.5409	0	-0.24435	22.108	-20.279	0	-0.08153	0	0	11
307.79	-99.449	0	5.5328	0	-0.24435	21.942	-20.458	0	-0.08153	0	0	11.1
309.98	-101.5	0	5.5246	0	-0.24435	21.774	-20.636	0	-0.08153	0	0	11.2
312.15	-103.58	0	5.5165	0	-0.24435	21.605	-20.813	0	-0.08153	0	0	11.3
314.3	-105.67	0	5.5083	0	-0.24435	21.435	-20.989	0	-0.08153	0	0	11.4
316.43	-107.77	0	5.5002	0	-0.24435	21.263	-21.163	0	-0.08153	0	0	11.5
318.55	-109.9	0	5.492	0	-0.24435	21.09	-21.335	0	-0.08153	0	0	11.6
320.65	-112.04	0	5.4838	0	-0.24435	20.915	-21.507	0	-0.08153	0	0	11.7
322.74	-114.2	0	5.4757	0	-0.24435	20.739	-21.676	0	-0.08153	0	0	11.8
324.8	-116.38	0	5.4675	0	-0.24435	20.562	-21.845	0	-0.08153	0	0	11.9
326.85	-118.57	0	5.4594	0	-0.24435	20.383	-22.012	0	-0.08153	0	0	12
328.88	-120.78	0	5.4512	0	-0.24435	20.203	-22.177	0	-0.08153	0	0	12.1
330.89	-123	0	5.4431	0	-0.24435	20.021	-22.341	0	-0.08153	0	0	12.2
332.88	-125.25	0	5.4349	0	-0.24435	19.838	-22.504	0	-0.08153	0	0	12.3
334.86	-127.51	0	5.4268	0	-0.24435	19.654	-22.665	0	-0.08153	0	0	12.4
336.81	-129.78	0	5.4186	0	-0.24435	19.469	-22.824	0	-0.08153	0	0	12.5
338.75	-132.07	0	5.4105	0	-0.24435	19.282	-22.982	0	-0.08153	0	0	12.6
340.67	-134.38	0	5.4023	0	-0.24435	19.094	-23.139	0	-0.08153	0	0	12.7
342.57	-136.7	0	5.3942	0	-0.24435	18.905	-23.293	0	-0.08153	0	0	12.8
344.45	-139.04	0	5.386	0	-0.24435	18.714	-23.447	0	-0.08153	0	0	12.9
346.31	-141.39	0	5.3779	0	-0.24435	18.523	-23.599	0	-0.08153	0	0	13
348.15	-143.75	0	5.3697	0	-0.24435	18.33	-23.749	0	-0.08153	0	0	13.1
349.98	-146.14	0	5.3615	0	-0.24435	18.135	-23.897	0	-0.08153	0	0	13.2
351.78	-148.53	0	5.3534	0	-0.24435	17.94	-24.045	0	-0.08153	0	0	13.3
353.57	-150.95	0	5.3452	0	-0.24435	17.743	-24.19	0	-0.08153	0	0	13.4
355.33	-153.37	0	5.3371	0	-0.24435	17.545	-24.334	0	-0.08153	0	0	13.5
357.07	-155.81	0	5.3289	0	-0.24435	17.346	-24.476	0	-0.08153	0	0	13.6
358.8	-158.27	0	5.3208	0	-0.24435	17.146	-24.617	0	-0.08153	0	0	13.7
360.5	-160.74	0	5.3126	0	-0.24435	16.945	-24.756	0	-0.08153	0	0	13.8
362.19	-163.22	0	5.3045	0	-0.24435	16.743	-24.893	0	-0.08153	0	0	13.9
363.85	-165.71	0	5.2963	0	-0.24435	16.539	-25.029	0	-0.08153	0	0	14
365.5	-168.22	0	5.2882	0	-0.24435	16.335	-25.163	0	-0.08153	0	0	14.1
367.12	-170.75	0	5.28	0	-0.24435	16.129	-25.295	0	-0.08153	0	0	14.2
368.72	-173.28	0	5.2719	0	-0.24435	15.922	-25.426	0	-0.08153	0	0	14.3
370.3	-175.83	0	5.2637	0	-0.24435	15.714	-25.555	0	-0.08153	0	0	14.4
371.86	-178.39	0	5.2556	0	-0.24435	15.505	-25.682	0	-0.08153	0	0	14.5
373.4	-180.97	0	5.2474	0	-0.24435	15.296	-25.807	0	-0.08153	0	0	14.6
374.92	-183.56	0	5.2393	0	-0.24435	15.085	-25.931	0	-0.08153	0	0	14.7
376.42	-186.16	0	5.2311	0	-0.24435	14.873	-26.053	0	-0.08153	0	0	14.8
377.9	-188.77	0	5.2229	0	-0.24435	14.66	-26.174	0	-0.08153	0	0	14.9
379.35	-191.39	0	5.2148	0	-0.24435	14.446	-26.293	0	-0.08153	0	0	15
380.79	-194.03	0	5.2066	0	-0.24435	14.231	-26.409	0	-0.08153	0	0	15.1
382.2	-196.67	0	5.1985	0	-0.24435	14.015	-26.525	0	-0.08153	0	0	15.2
383.59	-199.33	0	5.1903	0	-0.24435	13.799	-26.638	0	-0.08153	0	0	15.3
384.96	-202	0	5.1822	0	-0.24435	13.581	-26.75	0	-0.08153	0	0	15.4
386.31	-204.68	0	5.174	0	-0.24435	13.362	-26.859	0	-0.08153	0	0	15.5
387.63	-207.37	0	5.1659	0	-0.24435	13.143	-26.967	0	-0.08153	0	0	15.6
388.94	-210.07	0	5.1577	0	-0.24435	12.923	-27.074	0	-0.08153	0	0	15.7
390.22	-212.79	0	5.1496	0	-0.24435	12.702	-27.178	0	-0.08153	0	0	15.8
391.48	-215.51	0	5.1414	0	-0.24435	12.479	-27.281	0	-0.08153	0	0	15.9
392.71	-218.24	0	5.1333	0	-0.24435	12.257	-27.382	0	-0.08153	0	0	16
393.93	-220.99	0	5.1251	0	-0.24435	12.033	-27.481	0	-0.08153	0	0	16.1
395.12	-223.74	0	5.117	0	-0.24435	11.809	-27.578	0	-0.08153	0	0	16.2
396.29	-226.5	0	5.1088	0	-0.24435	11.583	-27.673	0	-0.08153	0	0	16.3
397.44	-229.27	0	5.1007	0	-0.24435	11.357	-27.767	0	-0.08153	0	0	16.4
398.56	-232.05	0	5.0925	0	-0.24435	11.131	-27.858	0	-0.08153	0	0	16.5
399.66	-234.84	0	5.0843	0	-0.24435	10.903	-27.948	0	-0.08153	0	0	16.6
400.74	-237.64	0	5.0762	0	-0.24435	10.675	-28.036	0	-0.08153	0	0	16.7
401.8	-240.45	0	5.068	0	-0.24435	10.446	-28.122	0	-0.08153	0	0	16.8
402.83	-243.27	0	5.0599	0	-0.24435	10.216	-28.207	0	-0.08153	0	0	16.9
403.84	-246.09	0	5.0517	0	-0.24435	9.986	-28.289	0	-0.08153	0	0	17
404.83	-248.93	0	5.0436	0	-0.24435	9.755	-28.369	0	-0.08153	0	0	17.1
405.79	-251.77	0	5.0354	0	-0.24435	9.5234	-28.448	0	-0.08153	0	0	17.2
406.73	-254.62	0	5.0273	0	-0.24435	9.2912	-28.525	0	-0.08153	0	0	17.3
407.65	-257.47	0	5.0191	0	-0.24435	9.0583	-28.599	0	-0.08153	0	0	17.4
408.54	-260.34	0	5.011	0	-0.24435	8.8248	-28.672	0	-0.08153	0	0	17.5
409.41	-263.21	0	5.0028	0	-0.24435	8.5908	-28.743	0	-0.08153	0	0	17.6
410.26	-266.08	0	4.9947	0	-0.24435	8.3561	-28.812	0	-0.08153	0	0	17.7
411.09	-268.97	0	4.9865	0	-0.24435	8.1209	-28.88	0	-0.08153	0	0	17.8
411.89	-271.86	0	4.9784	0	-0.24435	7.8852	-28.945	0	-0.08153	0	0	17.9
412.66	-274.76	0	4.9702	0	-0.24435	7.649	-29.008	0	-0.08153	0	0	18
413.42	-277.66	0	4.9621	0	-0.24435	7.4122	-29.07	0	-0.08153	0	0	18.1
414.14	-280.57	0	4.9539	0	-0.24435	7.175	-29.129	0	-0.08153	0	0	18.2
414.85	-283.49	0	4.9457	0	-0.24435	6.9372	-29.187	0	-0.08153	0	0	18.3
415.53	-286.41	0	4.9376	0	-0.24435	6.6991	-29.242	0	-0.08153	0	0	18.4
416.19	-289.34	0	4.9294	0	-0.24435	6.4604	-29.296	0	-0.08153	0	0	18.5
416.82	-292.27	0	4.9213	0	-0.24435	6.2214	-29.347	0	-0.08153	0	0	18.6
417.43	-295.21	0	4.9131	0	-0.24435	5.9819	-29.397	0	-0.08153	0	0	18.7
418.02	-298.15	0	4.905	0	-0.24435	5.742	-29.445	0	-0.08153	0	0	18.8
418.58	-301.09	0	4.8968	0	-0.24435	5.5018	-29.491	0	-0.08153	0	0	18.9
419.12	-304.05	0	4.8887	0	-0.24435	5.2611	-29.535	0	-0.08153	0	0	19
419.64	-307	0	4.8805	0	-0.24435	5.0202	-29.577	0	-0.08153	0	0	19.1
420.13	-309.96	0	4.8724	0	-0.24435	4.7789	-29.617	0	-0.08153	0	0	19.2
420.59	-312.92	0	4.8642	0	-0.24435	4.5372	-29.655	0	-0.08153	0	0	19.3
421.03	-315.89	0	4.8561	0	-0.24435	4.2953	-29.691	0	-0.08153	0	0	19.4
421.45	-318.86	0	4.8479	0	-0.24435	4.0531	-29.725	0	-0.08153	0	0	19.5
421.84	-321.84	0	4.8398	0	-0.24435	3.8106	-29.757	0	-0.08153	0	0	19.6
422.21	-324.81	0	4.8316	0	-0.24435	3.5679	-29.787	0	-0.08153	0	0	19.7
422.56	-327.79	0	4.8234	0	-0.24435	3.3249	-29.815	0	-0.08153	0	0	19.8
422.88	-330.78	0	4.8153	0	-0.24435	3.0818	-29.841	0	-0.08153	0	0	19.9
423.17	-333.76	0	4.8071	0	-0.24435	2.8384	-29.865	0	-0.08153	0	0	20
423.44	-336.75	0	4.799	0	-0.24435	2.5948	-29.887	0	-0.08153	0	0	20.1
423.69	-339.74	0	4.7908	0	-0.24435	2.351	-29.907	0	-0.08153	0	0	20.2
423.91	-342.73	0	4.7827	0	-0.24435	2.1071	-29.926	0	-0.08153	0	0	20.3
424.11	-345.73	0	4.7745	0	-0.24435	1.8631	-29.942	0	-0.08153	0	0	20.4
424.29	-348.72	0	4.7664	0	-0.24435	1.6189	-29.956	0	-0.08153	0	0	20.5
424.44	-351.72	0	4.7582	0	-0.24435	1.3746	-29.968	0	-0.08153	0	0	20.6
424.56	-354.71	0	4.7501	0	-0.24435	1.1302	-29.978	0	-0.08153	0	0	20.7
424.66	-357.71	0	4.7419	0	-0.24435	0.88578	-29.987	0	-0.08153	0	0	20.8
424.74	-360.71	0	4.7338	0	-0.24435	0.64127	-29.993	0	-0.08153	0	0	20.9
424.79	-363.71	0	4.7256	0	-0.24435	0.39672	-29.997	0	-0.08153	0	0	21
424.82	-366.71	0	4.7175	0	-0.24435	0.15214	-29.999	0	-0.08153	0	0	21.1
424.82	-369.71	0	4.7093	0	-0.24435	-0.092448	-30	0	-0.08153	0	0	21.2
424.8	-372.71	0	4.7012	0	-0.24435	-0.33703	-29.998	0	-0.08153	0	0	21.3
424.75	-375.71	0	4.693	0	-0.24435	-0.58158	-29.994	0	-0.08153	0	0	21.4
424.68	-378.71	0	4.6848	0	-0.24435	-0.8261	-29.988	0	-0.08153	0	0	21.5
424.59	-381.71	0	4.6767	0	-0.24435	-1.0706	-29.981	0	-0.08153	0	0	21.6
424.47	-384.71	0	4.6685	0	-0.24435	-1.315	-29.971	0	-0.08153	0	0	21.7
424.33	-387.7	0	4.6604	0	-0.24435	-1.5593	-29.959	0	-0.08153	0	0	21.8
424.16	-390.7	0	4.6522	0	-0.24435	-1.8035	-29.945	0	-0.08153	0	0	21.9
423.97	-393.69	0	4.6441	0	-0.24435	-2.0476	-29.93	0	-0.08153	0	0	22
423.75	-396.68	0	4.6359	0	-0.24435	-2.2915	-29.912	0	-0.08153	0	0	22.1
423.51	-399.67	0	4.6278	0	-0.24435	-2.5353	-29.892	0	-0.08153	0	0	22.2
423.24	-402.66	0	4.6196	0	-0.24435	-2.7789	-29.871	0	-0.08153	0	0	22.3
422.95	-405.65	0	4.6115	0	-0.24435	-3.0224	-29.847	0	-0.08153	0	0	22.4
422.64	-408.63	0	4.6033	0	-0.24435	-3.2656	-29.821	0	-0.08153	0	0	22.5
422.3	-411.61	0	4.5952	0	-0.24435	-3.5086	-29.794	0	-0.08153	0	0	22.6
421.94	-414.59	0	4.587	0	-0.24435	-3.7514	-29.764	0	-0.08153	0	0	22.7
421.55	-417.56	0	4.5789	0	-0.24435	-3.994	-29.733	0	-0.08153	0	0	22.8
421.14	-420.54	0	4.5707	0	-0.24435	-4.2362	-29.699	0	-0.08153	0	0	22.9
420.7	-423.5	0	4.5626	0	-0.24435	-4.4782	-29.664	0	-0.08153	0	0	23
420.24	-426.47	0	4.5544	0	-0.24435	-4.7199	-29.626	0	-0.08153	0	0	23.1
419.76	-429.43	0	4.5462	0	-0.24435	-4.9613	-29.587	0	-0.08153	0	0	23.2
419.25	-432.39	0	4.5381	0	-0.24435	-5.2024	-29.545	0	-0.08153	0	0	23.3
418.72	-435.34	0	4.5299	0	-0.24435	-5.4431	-29.502	0	-0.08153	0	0	23.4
418.16	-438.29	0	4.5218	0	-0.24435	-5.6834	-29.456	0	-0.08153	0	0	23.5
417.58	-441.23	0	4.5136	0	-0.24435	-5.9234	-29.409	0	-0.08153	0	0	23.6
416.98	-444.17	0	4.5055	0	-0.24435	-6.1629	-29.36	0	-0.08153	0	0	23.7
416.35	-447.1	0	4.4973	0	-0.24435	-6.4021	-29.309	0	-0.08153	0	0	23.8
415.69	-450.03	0	4.4892	0	-0.24435	-6.6409	-29.255	0	-0.08153	0	0	23.9
415.02	-452.95	0	4.481	0	-0.24435	-6.8792	-29.2	0	-0.08153	0	0	24
414.32	-455.87	0	4.4729	0	-0.24435	-7.117	-29.143	0	-0.08153	0	0	24.1
413.6	-458.78	0	4.4647	0	-0.24435	-7.3544	-29.084	0	-0.08153	0	0	24.2
412.85	-461.69	0	4.4566	0	-0.24435	-7.5912	-29.023	0	-0.08153	0	0	24.3
412.08	-464.59	0	4.4484	0	-0.24435	-7.8276	-28.961	0	-0.08153	0	0	24.4
411.28	-467.48	0	4.4403	0	-0.24435	-8.0635	-28.896	0	-0.08153	0	0	24.5
410.46	-470.37	0	4.4321	0	-0.24435	-8.2988	-28.829	0	-0.08153	0	0	24.6
409.62	-473.24	0	4.424	0	-0.24435	-8.5335	-28.76	0	-0.08153	0	0	24.7
408.76	-476.12	0	4.4158	0	-0.24435	-8.7677	-28.69	0	-0.08153	0	0	24.8
407.87	-478.98	0	4.4076	0	-0.24435	-9.0014	-28.617	0	-0.08153	0	0	24.9
406.96	-481.84	0	4.3995	0	-0.24435	-9.2344	-28.543	0	-0.08153	0	0	25
406.02	-484.69	0	4.3913	0	-0.24435	-9.4668	-28.467	0	-0.08153	0	0	25.1
405.06	-487.53	0	4.3832	0	-0.24435	-9.6985	-28.389	0	-0.08153	0	0	25.2
404.08	-490.37	0	4.375	0	-0.24435	-9.9297	-28.309	0	-0.08153	0	0	25.3
403.08	-493.2	0	4.3669	0	-0.24435	-10.16	-28.227	0	-0.08153	0	0	25.4
402.05	-496.01	0	4.3587	0	-0.24435	-10.39	-28.143	0	-0.08153	0	0	25.5
401	-498.82	0	4.3506	0	-0.24435	-10.619	-28.057	0	-0.08153	0	0	25.6
399.93	-501.63	0	4.3424	0	-0.24435	-10.847	-27.97	0	-0.08153	0	0	25.7
398.83	-504.42	0	4.3343	0	-0.24435	-11.075	-27.88	0	-0.08153	0	0	25.8
397.71	-507.2	0	4.3261	0	-0.24435	-11.302	-27.789	0	-0.08153	0	0	25.9
396.57	-509.98	0	4.318	0	-0.24435	-11.528	-27.696	0	-0.08153	0	0	26
395.41	-512.74	0	4.3098	0	-0.24435	-11.754	-27.601	0	-0.08153	0	0	26.1
394.22	-515.5	0	4.3017	0	-0.24435	-11.978	-27.505	0	-0.08153	0	0	26.2
393.01	-518.24	0	4.2935	0	-0.24435	-12.202	-27.406	0	-0.08153	0	0	26.3
391.78	-520.98	0	4.2854	0	-0.24435	-12.425	-27.306	0	-0.08153	0	0	26.4
390.53	-523.7	0	4.2772	0	-0.24435	-12.647	-27.203	0	-0.08153	0	0	26.5
389.25	-526.42	0	4.269	0	-0.24435	-12.869	-27.099	0	-0.08153	0	0	26.6
387.95	-529.12	0	4.2609	0	-0.24435	-13.089	-26.994	0	-0.08153	0	0	26.7
386.63	-531.82	0	4.2527	0	-0.24435	-13.309	-26.886	0	-0.08153	0	0	26.8
385.29	-534.5	0	4.2446	0	-0.24435	-13.528	-26.777	0	-0.08153	0	0	26.9
383.93	-537.17	0	4.2364	0	-0.24435	-13.746	-26.665	0	-0.08153	0	0	27
382.54	-539.83	0	4.2283	0	-0.24435	-13.962	-26.552	0	-0.08153	0	0	27.1
381.13	-542.48	0	4.2201	0	-0.24435	-14.178	-26.438	0	-0.08153	0	0	27.2
379.71	-545.12	0	4.212	0	-0.24435	-14.394	-26.321	0	-0.08153	0	0	27.3
378.26	-547.75	0	4.2038	0	-0.24435	-14.608	-26.203	0	-0.08153	0	0	27.4
376.78	-550.36	0	4.1957	0	-0.24435	-14.821	-26.083	0	-0.08153	0	0	27.5
375.29	-552.96	0	4.1875	0	-0.24435	-15.033	-25.961	0	-0.08153	0	0	27.6
373.78	-555.55	0	4.1794	0	-0.24435	-15.244	-25.838	0	-0.08153	0	0	27.7
372.24	-558.13	0	4.1712	0	-0.24435	-15.454	-25.713	0	-0.08153	0	0	27.8
370.69	-560.7	0	4.1631	0	-0.24435	-15.663	-25.586	0	-0.08153	0	0	27.9
369.11	-563.25	0	4.1549	0	-0.24435	-15.871	-25.457	0	-0.08153	0	0	28
367.51	-565.79	0	4.1467	0	-0.24435	-16.079	-25.327	0	-0.08153	0	0	28.1
365.89	-568.31	0	4.1386	0	-0.24435	-16.284	-25.195	0	-0.08153	0	0	28.2
364.26	-570.83	0	4.1304	0	-0.24435	-16.489	-25.062	0	-0.08153	0	0	28.3
362.6	-573.33	0	4.1223	0	-0.24435	-16.693	-24.926	0	-0.08153	0	0	28.4
360.92	-575.81	0	4.1141	0	-0.24435	-16.896	-24.789	0	-0.08153	0	0	28.5
359.22	-578.28	0	4.106	0	-0.24435	-17.097	-24.651	0	-0.08153	0	0	28.6
357.5	-580.74	0	4.0978	0	-0.24435	-17.298	-24.511	0	-0.08153	0	0	28.7
355.76	-583.19	0	4.0897	0	-0.24435	-17.497	-24.369	0	-0.08153	0	0	28.8
354	-585.62	0	4.0815	0	-0.24435	-17.695	-24.225	0	-0.08153	0	0	28.9
352.22	-588.03	0	4.0734	0	-0.24435	-17.892	-24.08	0	-0.08153	0	0	29
350.42	-590.43	0	4.0652	0	-0.24435	-18.088	-23.934	0	-0.08153	0	0	29.1
348.6	-592.82	0	4.0571	0	-0.24435	-18.282	-23.785	0	-0.08153	0	0	29.2
346.76	-595.19	0	4.0489	0	-0.24435	-18.476	-23.635	0	-0.08153	0	0	29.3
344.91	-597.55	0	4.0408	0	-0.24435	-18.668	-23.484	0	-0.08153	0	0	29.4
343.03	-599.89	0	4.0326	0	-0.24435	-18.859	-23.331	0	-0.08153	0	0	29.5
341.13	-602.21	0	4.0245	0	-0.24435	-19.048	-23.176	0	-0.08153	0	0	29.6
339.22	-604.52	0	4.0163	0	-0.24435	-19.236	-23.02	0	-0.08153	0	0	29.7
337.29	-606.82	0	4.0081	0	-0.24435	-19.423	-22.863	0	-0.08153	0	0	29.8
335.33	-609.09	0	4	0	-0.24435	-19.609	-22.704	0	-0.08153	0	0	29.9
333.36	-611.36	0	3.9918	0	-0.24435	-19.794	-22.543	0	-0.08153	0	0	30
331.38	-613.6	0	3.9837	0	-0.24435	-19.977	-22.381	0	-0.08153	0	0	30.1
329.37	-615.83	0	3.9755	0	-0.24435	-20.159	-22.217	0	-0.08153	0	0	30.2
327.34	-618.05	0	3.9674	0	-0.24435	-20.339	-22.052	0	-0.08153	0	0	30.3
325.3	-620.24	0	3.9592	0	-0.24435	-20.518	-21.886	0	-0.08153	0	0	30.4
323.24	-622.42	0	3.9511	0	-0.24435	-20.696	-21.718	0	-0.08153	0	0	30.5
321.16	-624.59	0	3.9429	0	-0.24435	-20.872	-21.548	0	-0.08153	0	0	30.6
319.07	-626.73	0	3.9348	0	-0.24435	-21.047	-21.377	0	-0.08153	0	0	30.7
316.95	-628.86	0	3.9266	0	-0.24435	-21.221	-21.205	0	-0.08153	0	0	30.8
314.82	-630.97	0	3.9185	0	-0.24435	-21.393	-21.031	0	-0.08153	0	0	30.9
312.67	-633.07	0	3.9103	0	-0.24435	-21.564	-20.856	0	-0.08153	0	0	31
310.51	-635.15	0	3.9022	0	-0.24435	-21.733	-20.68	0	-0.08153	0	0	31.1
308.33	-637.2	0	3.894	0	-0.24435	-21.901	-20.502	0	-0.08153	0	0	31.2
306.13	-639.25	0	3.8859	0	-0.24435	-22.067	-20.323	0	-0.08153	0	0	31.3
303.91	-641.27	0	3.8777	0	-0.24435	-22.232	-20.142	0	-0.08153	0	0	31.4
301.68	-643.27	0	3.8695	0	-0.24435	-22.396	-19.96	0	-0.08153	0	0	31.5
299.44	-645.26	0	3.8614	0	-0.24435	-22.558	-19.777	0	-0.08153	0	0	31.6
297.17	-647.23	0	3.8532	0	-0.24435	-22.718	-19.592	0	-0.08153	0	0	31.7
294.89	-649.18	0	3.8451	0	-0.24435	-22.877	-19.406	0	-0.08153	0	0	31.8
292.6	-651.11	0	3.8369	0	-0.24435	-23.035	-19.219	0	-0.08153	0	0	31.9
290.28	-653.02	0	3.8288	0	-0.24435	-23.191	-19.031	0	-0.08153	0	0	32
287.96	-654.92	0	3.8206	0	-0.24435	-23.345	-18.841	0	-0.08153	0	0	32.1
285.62	-656.79	0	3.8125	0	-0.24435	-23.498	-18.65	0	-0.08153	0	0	32.2
283.26	-658.65	0	3.8043	0	-0.24435	-23.649	-18.458	0	-0.08153	0	0	32.3
280.89	-660.48	0	3.7962	0	-0.24435	-23.799	-18.264	0	-0.08153	0	0	32.4
278.5	-662.3	0	3.788	0	-0.24435	-23.947	-18.07	0	-0.08153	0	0	32.5
276.1	-664.1	0	3.7799	0	-0.24435	-24.094	-17.874	0	-0.08153	0	0	32.6
273.68	-665.87	0	3.7717	0	-0.24435	-24.238	-17.677	0	-0.08153	0	0	32.7
271.25	-667.63	0	3.7636	0	-0.24435	-24.382	-17.479	0	-0.08153	0	0	32.8
268.8	-669.37	0	3.7554	0	-0.24435	-24.523	-17.279	0	-0.08153	0	0	32.9
266.34	-671.09	0	3.7473	0	-0.24435	-24.664	-17.079	0	-0.08153	0	0	33
263.87	-672.79	0	3.7391	0	-0.24435	-24.802	-16.877	0	-0.08153	0	0	33.1
261.38	-674.46	0	3.7309	0	-0.24435	-24.939	-16.674	0	-0.08153	0	0	33.2
258.88	-676.12	0	3.7228	0	-0.24435	-25.074	-16.471	0	-0.08153	0	0	33.3
256.37	-677.76	0	3.7146	0	-0.24435	-25.207	-16.266	0	-0.08153	0	0	33.4
253.84	-679.37	0	3.7065	0	-0.24435	-25.339	-16.06	0	-0.08153	0	0	33.5
251.3	-680.97	0	3.6983	0	-0.24435	-25.469	-15.852	0	-0.08153	0	0	33.6
248.75	-682.54	0	3.6902	0	-0.24435	-25.598	-15.644	0	-0.08153	0	0	33.7
246.18	-684.1	0	3.682	0	-0.24435	-25.724	-15.435	0	-0.08153	0	0	33.8
243.6	-685.63	0	3.6739	0	-0.24435	-25.849	-15.225	0	-0.08153	0	0	33.9
241.01	-687.14	0	3.6657	0	-0.24435	-25.973	-15.014	0	-0.08153	0	0	34
238.41	-688.63	0	3.6576	0	-0.24435	-26.094	-14.801	0	-0.08153	0	0	34.1
235.79	-690.1	0	3.6494	0	-0.24435	-26.214	-14.588	0	-0.08153	0	0	34.2
233.17	-691.55	0	3.6413	0	-0.24435	-26.332	-14.374	0	-0.08153	0	0	34.3
230.53	-692.98	0	3.6331	0	-0.24435	-26.448	-14.159	0	-0.08153	0	0	34.4
227.88	-694.38	0	3.625	0	-0.24435	-26.563	-13.943	0	-0.08153	0	0	34.5
225.21	-695.77	0	3.6168	0	-0.24435	-26.676	-13.726	0	-0.08153	0	0	34.6
222.54	-697.13	0	3.6086	0	-0.24435	-26.787	-13.508	0	-0.08153	0	0	34.7
219.86	-698.47	0	3.6005	0	-0.24435	-26.896	-13.289	0	-0.08153	0	0	34.8
217.16	-699.79	0	3.5923	0	-0.24435	-27.003	-13.069	0	-0.08153	0	0	34.9
214.46	-701.08	0	3.5842	0	-0.24435	-27.109	-12.848	0	-0.08153	0	0	35
211.74	-702.36	0	3.576	0	-0.24435	-27.213	-12.627	0	-0.08153	0	0	35.1
209.01	-703.61	0	3.5679	0	-0.24435	-27.315	-12.405	0	-0.08153	0	0	35.2
206.28	-704.84	0	3.5597	0	-0.24435	-27.415	-12.182	0	-0.08153	0	0	35.3
203.53	-706.04	0	3.5516	0	-0.24435	-27.513	-11.958	0	-0.08153	0	0	35.4
200.77	-707.23	0	3.5434	0	-0.24435	-27.61	-11.733	0	-0.08153	0	0	35.5
198.01	-708.39	0	3.5353	0	-0.24435	-27.705	-11.508	0	-0.08153	0	0	35.6
195.23	-709.53	0	3.5271	0	-0.24435	-27.798	-11.281	0	-0.08153	0	0	35.7
192.45	-710.65	0	3.519	0	-0.24435	-27.889	-11.054	0	-0.08153	0	0	35.8
189.66	-711.74	0	3.5108	0	-0.24435	-27.978	-10.827	0	-0.08153	0	0	35.9
186.85	-712.81	0	3.5027	0	-0.24435	-28.065	-10.598	0	-0.08153	0	0	36
184.04	-713.86	0	3.4945	0	-0.24435	-28.151	-10.369	0	-0.08153	0	0	36.1
181.22	-714.89	0	3.4864	0	-0.24435	-28.234	-10.139	0	-0.08153	0	0	36.2
178.4	-715.89	0	3.4782	0	-0.24435	-28.316	-9.9085	0	-0.08153	0	0	36.3
175.56	-716.87	0	3.47	0	-0.24435	-28.396	-9.6773	0	-0.08153	0	0	36.4
172.72	-717.82	0	3.4619	0	-0.24435	-28.474	-9.4455	0	-0.08153	0	0	36.5
169.86	-718.76	0	3.4537	0	-0.24435	-28.55	-9.213	0	-0.08153	0	0	36.6
167.01	-719.67	0	3.4456	0	-0.24435	-28.624	-8.9799	0	-0.08153	0	0	36.7
164.14	-720.55	0	3.4374	0	-0.24435	-28.696	-8.7463	0	-0.08153	0	0	36.8
161.27	-721.42	0	3.4293	0	-0.24435	-28.767	-8.512	0	-0.08153	0	0	36.9
158.39	-722.26	0	3.4211	0	-0.24435	-28.835	-8.2772	0	-0.08153	0	0	37
155.5	-723.07	0	3.413	0	-0.24435	-28.902	-8.0418	0	-0.08153	0	0	37.1
152.61	-723.86	0	3.4048	0	-0.24435	-28.966	-7.8059	0	-0.08153	0	0	37.2
149.71	-724.63	0	3.3967	0	-0.24435	-29.029	-7.5695	0	-0.08153	0	0	37.3
146.8	-725.38	0	3.3885	0	-0.24435	-29.09	-7.3326	0	-0.08153	0	0	37.4
143.89	-726.1	0	3.3804	0	-0.24435	-29.149	-7.0952	0	-0.08153	0	0	37.5
140.97	-726.8	0	3.3722	0	-0.24435	-29.205	-6.8573	0	-0.08153	0	0	37.6
138.05	-727.47	0	3.3641	0	-0.24435	-29.26	-6.619	0	-0.08153	0	0	37.7
135.12	-728.12	0	3.3559	0	-0.24435	-29.313	-6.3802	0	-0.08153	0	0	37.8
132.18	-728.75	0	3.3478	0	-0.24435	-29.364	-6.141	0	-0.08153	0	0	37.9
129.25	-729.35	0	3.3396	0	-0.24435	-29.413	-5.9014	0	-0.08153	0	0	38
126.3	-729.93	0	3.3314	0	-0.24435	-29.461	-5.6614	0	-0.08153	0	0	38.1
123.35	-730.48	0	3.3233	0	-0.24435	-29.506	-5.421	0	-0.08153	0	0	38.2
120.4	-731.01	0	3.3151	0	-0.24435	-29.549	-5.1803	0	-0.08153	0	0	38.3
117.44	-731.52	0	3.307	0	-0.24435	-29.59	-4.9392	0	-0.08153	0	0	38.4
114.48	-732	0	3.2988	0	-0.24435	-29.63	-4.6978	0	-0.081527	0	0.00046684	38.5
111.52	-732.46	0	3.2907	0	-0.24425	-29.667	-4.4562	0	-0.081472	0	0.0030679	38.6
108.55	-732.89	0	3.2825	0	-0.24373	-29.702	-4.2145	0	-0.081287	0	0.0077916	38.7
105.58	-733.3	0	3.2744	0	-0.24269	-29.735	-3.9735	0	-0.080923	0	0.013277	38.8
102.6	-733.68	0	3.2664	0	-0.24108	-29.766	-3.7335	0	-0.080359	0	0.01933	38.9
99.624	-734.05	0	3.2584	0	-0.23883	-29.795	-3.4953	0	-0.079578	0	0.025865	39
96.643	-734.38	0	3.2504	0	-0.2359	-29.822	-3.2595	0	-0.078564	0	0.032793	39.1
93.66	-734.7	0	3.2426	0	-0.23227	-29.847	-3.0269	0	-0.077306	0	0.04003	39.2
90.674	-734.99	0	3.235	0	-0.2279	-29.869	-2.7983	0	-0.075798	0	0.047488	39.3
87.686	-735.26	0	3.2275	0	-0.22277	-29.889	-2.5744	0	-0.074033	0	0.055079	39.4
84.696	-735.5	0	3.2202	0	-0.21688	-29.907	-2.356	0	-0.072011	0	0.062715	39.5
81.705	-735.73	0	3.2131	0	-0.21023	-29.923	-2.1439	0	-0.069734	0	0.070304	39.6
78.711	-735.93	0	3.2062	0	-0.20282	-29.937	-1.9389	0	-0.067207	0	0.077753	39.7
75.717	-736.12	0	3.1996	0	-0.19468	-29.949	-1.7417	0	-0.064438	0	0.084966	39.8
72.722	-736.28	0	3.1933	0	-0.18583	-29.96	-1.5531	0	-0.061439	0	0.091841	39.9
69.725	-736.43	0	3.1873	0	-0.17631	-29.968	-1.3738	0	-0.058225	0	0.098277	40
66.728	-736.56	0	3.1817	0	-0.16617	-29.976	-1.2044	0	-0.054815	0	0.10417	40.1
63.73	-736.67	0	3.1764	0	-0.15548	-29.982	-1.0454	0	-0.051229	0	0.1094	40.2
60.732	-736.76	0	3.1714	0	-0.14429	-29.986	-0.89734	0	-0.047493	0	0.11387	40.3
57.733	-736.85	0	3.1669	0	-0.1327	-29.99	-0.76066	0	-0.043635	0	0.11745	40.4
54.734	-736.92	0	3.1627	0	-0.1208	-29.993	-0.63569	0	-0.039686	0	0.12005	40.5
51.734	-736.97	0	3.1589	0	-0.10869	-29.995	-0.52271	0	-0.03568	0	0.12153	40.6
48.735	-737.02	0	3.1556	0	-0.096496	-29.997	-0.42167	0	-0.031656	0	0.12178	40.7
45.735	-737.06	0	3.1526	0	-0.084337	-29.998	-0.3327	0	-0.027655	0	0.12071	40.8
42.735	-737.09	0	3.1501	0	-0.072355	-29.999	-0.25575	0	-0.023721	0	0.11818	40.9
39.735	-737.11	0	3.1479	0	-0.0607	-29.999	-0.19035	0	-0.019901	0	0.11411	41
36.735	-737.13	0	3.1461	0	-0.049533	-30	-0.13609	0	-0.016247	0	0.10839	41.1
33.735	-737.14	0	3.1446	0	-0.039022	-30	-0.092624	0	-0.012813	0	0.10092	41.2
30.735	-737.14	0	3.1435	0	-0.029349	-30	-0.059085	0	-0.0096562	0	0.091599	41.3
27.735	-737.15	0	3.1427	0	-0.020703	-30	-0.034361	0	-0.0068376	0	0.080342	41.4
24.735	-737.15	0	3.1421	0	-0.013281	-30	-0.017524	0	-0.0044212	0	0.067057	41.5
21.735	-737.15	0	3.1418	0	-0.0072912	-30	-0.0074119	0	-0.0024741	0	0.05165	41.6
18.735	-737.15	0	3.1416	0	-0.0029507	-30	-0.0022846	0	-0.0010671	0	0.034028	41.7
15.735	-737.15	0	3.1416	0	-0.00048559	-30	-0.00034442	0	-0.00027141	0	0.014754	41.8
12.735	-737.15	0	3.1416	0	0	-30	-6.3715e-06	0	-1.762e-05	0	0.0024279	41.9
9.7351	-737.15	0	3.1416	0	0	-30	-9.3558e-05	0	0	0	0	42
6.7351	-737.15	0	3.1416	0	0	-30	-7.3003e-05	0	0	0	0	42.1
3.7351	-737.15	0	3.1416	0	0	-30	-1.7609e-05	0	0	0	0	42.2
0.73507	-737.15	0	3.1416	0	0	-30	-5.3387e-05	0	0	0	0	42.3
-2.2649	-737.15	0	3.1416	0	0	-30	-7.5555e-05	0	0	0	0	42.4
-5.2649	-737.15	0	3.1416	0	0	-30	-4.8778e-05	0	0	0	0	42.5
-8.2649	-737.15	0	3.1416	0	0	-30	-4.223e-05	0	0	0	0	42.6
-11.265	-737.15	0	3.1416	0	0	-30	-5.8444e-05	0	0	0	0	42.7
-14.265	-737.15	0	3.1416	0	0	-30	0.00014954	0	0	0	0	42.8
-17.265	-737.15	0	3.1416	0	0	-30	0.00017637	0	0	0	0	42.9
-20.265	-737.15	0	3.1416	0	0	-30	-8.8016e-06	0	0	0	0	43
-23.265	-737.15	0	3.1416	0	0	-30	-7.8222e-06	0	0	0	0	43.1
-26.265	-737.15	0	3.1416	0	0	-30	-5.9237e-06	0	0	0	0	43.2
-29.265	-737.15	0	3.1416	0	0	-30	-1.652e-05	0	0	0	0	43.3
-32.265	-737.15	0	3.1416	0	0	-30	2.7312e-05	0	0	0	0	43.4
-35.265	-737.15	0	3.1416	0	0	-30	7.4738e-06	0	0	0	0	43.5
-38.265	-737.15	0	3.1416	0	0	-30	1.2294e-05	0	0	0	0	43.6
-41.265	-737.15	0	3.1416	0	0	-30	4.9204e-05	0	0	0	0	43.7
-44.265	-737.15	0	3.1416	0	0	-30	-4.0853e-05	0	0	0	0	43.8
-47.265	-737.15	0	3.1416	0	0	-30	4.9303e-05	0	0	0	0	43.9
-50.265	-737.15	0	3.1416	0	0	-30	2.274e-05	0	0	0	0	44
-53.265	-737.15	0	3.1416	0	0	-30	-1.1883e-05	0	0	0	0	44.1
-56.265	-737.15	0	3.1416	0	0	-30	3.3554e-07	0	0	0	0	44.2
-59.265	-737.15	0	3.1416	0	0	-30	-4.5551e-05	0	0	0	0	44.3
-62.265	-737.15	0	3.1416	0	0	-30	-9.3346e-07	0	0	0	0	44.4
-65.265	-737.15	0	3.1416	0	0	-30	-5.5357e-06	0	0	0	0	44.5
-68.265	-737.15	0	3.1416	0	0	-30	1.5514e-05	0	0	0	0	44.6
-71.265	-737.15	0	3.1416	0	0	-30	-1.0272e-05	0	0	0	0	44.7
-74.265	-737.15	0	3.1416	0	0	-30	1.0193e-06	0	0	0	0	44.8
-77.265	-737.15	0	3.1416	0	0	-30	1.0342e-05	0	0	0	0	44.9
-80.265	-737.15	0	3.1416	0	0	-30	-1.7664e-05	0	0	0	0	45
-83.265	-737.15	0	3.1416	0	0	-30	0.00023871	0	0	0	0	45.1
-86.265	-737.15	0	3.1416	0	0	-30	-8.331e-06	0	0	0	0	45.2
-89.265	-737.15	0	3.1416	0	0	-30	-5.7418e-05	0	0	0	0	45.3
-92.265	-737.15	0	3.1416	0	0	-30	5.9218e-06	0	0	0	0	45.4
-95.265	-737.15	0	3.1416	0	0	-30	-0.00021788	0	0	0	0	45.5
-98.265	-737.15	0	3.1416	0	0	-30	0.00029562	0	0	0	0	45.6
-101.26	-737.15	0	3.1416	0	0	-30	0.00026856	0	0	0	0	45.7
-104.26	-737.15	0	3.1416	0	0	-30	-3.1096e-06	0	-4.5143e-07	0	-0.00012313	45.8
-107.26	-737.15	0	3.1416	0	-2.4626e-05	-30	0.00037265	0	-2.9307e-05	0	-0.0020493	45.9
-110.26	-737.15	0	3.1416	0	-0.00040986	-30	0.00029331	0	-0.00016271	0	-0.0064822	46
-113.26	-737.15	0	3.1416	0	-0.0013211	-30	0.00056694	0	-0.00046435	0	-0.012079	46.1
-116.26	-737.15	0	3.1415	0	-0.0028257	-30	0.0029411	0	-0.00095949	0	-0.0183	46.2
-119.26	-737.15	0	3.1414	0	-0.0049811	-30	0.0071202	0	-0.0016669	0	-0.025045	46.3
-122.26	-737.15	0	3.1412	0	-0.0078347	-30	0.013512	0	-0.0026021	0	-0.032213	46.4
-125.26	-737.15	0	3.1408	0	-0.011424	-30	0.02302	0	-0.0037773	0	-0.039704	46.5
-128.26	-737.15	0	3.1404	0	-0.015775	-30	0.0364	0	-0.0052016	0	-0.047416	46.6
-131.26	-737.14	0	3.1398	0	-0.020907	-30	0.054496	0	-0.0068805	0	-0.055246	46.7
-134.26	-737.14	0	3.139	0	-0.026825	-30	0.077927	0	-0.0088166	0	-0.063092	46.8
-137.26	-737.13	0	3.138	0	-0.033525	-30	0.1076	0	-0.011009	0	-0.070849	46.9
-140.26	-737.11	0	3.1368	0	-0.040994	-30	0.14429	0	-0.013454	0	-0.078413	47
-143.26	-737.1	0	3.1354	0	-0.049208	-29.999	0.1886	0	-0.016143	0	-0.085677	47.1
-146.26	-737.08	0	3.1336	0	-0.05813	-29.999	0.24129	0	-0.019067	0	-0.092537	47.2
-149.26	-737.05	0	3.1315	0	-0.067715	-29.998	0.30322	0	-0.022211	0	-0.098886	47.3
-152.26	-737.02	0	3.1292	0	-0.077907	-29.998	0.3748	0	-0.025558	0	-0.10462	47.4
-155.26	-736.97	0	3.1264	0	-0.088639	-29.996	0.45671	0	-0.029088	0	-0.10963	47.5
-158.26	-736.92	0	3.1233	0	-0.099833	-29.995	0.54946	0	-0.032776	0	-0.11382	47.6
-161.26	-736.86	0	3.1199	0	-0.1114	-29.993	0.65341	0	-0.036597	0	-0.11709	47.7
-164.26	-736.79	0	3.116	0	-0.12325	-29.99	0.76916	0	-0.04052	0	-0.11934	47.8
-167.26	-736.71	0	3.1118	0	-0.13527	-29.987	0.89658	0	-0.044511	0	-0.12048	47.9
-170.26	-736.61	0	3.1071	0	-0.14735	-29.982	1.0359	0	-0.048533	0	-0.12043	48
-173.26	-736.5	0	3.1021	0	-0.15936	-29.976	1.1876	0	-0.052547	0	-0.1191	48.1
-176.25	-736.38	0	3.0966	0	-0.17117	-29.969	1.3511	0	-0.056509	0	-0.11642	48.2
-179.25	-736.23	0	3.0908	0	-0.18264	-29.961	1.5261	0	-0.060372	0	-0.11231	48.3
-182.25	-736.07	0	3.0845	0	-0.19363	-29.951	1.7127	0	-0.064087	0	-0.10671	48.4
-185.24	-735.89	0	3.0779	0	-0.20398	-29.939	1.9099	0	-0.067601	0	-0.099555	48.5
-188.23	-735.69	0	3.071	0	-0.21354	-29.925	2.117	0	-0.070856	0	-0.09077	48.6
-191.23	-735.47	0	3.0638	0	-0.22214	-29.909	2.3337	0	-0.073795	0	-0.08029	48.7
-194.22	-735.22	0	3.0563	0	-0.2296	-29.89	2.5582	0	-0.076352	0	-0.068041	48.8
-197.2	-734.96	0	3.0485	0	-0.23575	-29.87	2.7895	0	-0.078464	0	-0.05394	48.9
-200.19	-734.67	0	3.0406	0	-0.24039	-29.847	3.0264	0	-0.080059	0	-0.037894	49
-203.17	-734.35	0	3.0325	0	-0.24332	-29.821	3.2669	0	-0.081065	0	-0.019793	49.1
-206.15	-734.01	0	3.0243	0	-0.24435	-29.794	3.5093	0	-0.081471	0	-0.0051069	49.2
-209.13	-733.65	0	3.0162	0	-0.24435	-29.764	3.752	0	-0.08153	0	0	49.3
-212.11	-733.26	0	3.008	0	-0.24435	-29.733	3.9945	0	-0.08153	0	0	49.4
-215.08	-732.85	0	2.9999	0	-0.24435	-29.699	4.2368	0	-0.08153	0	0	49.5
-218.05	-732.41	0	2.9917	0	-0.24435	-29.663	4.4789	0	-0.08153	0	0	49.6
-221.01	-731.95	0	2.9836	0	-0.24435	-29.626	4.7205	0	-0.08153	0	0	49.7
-223.97	-731.47	0	2.9754	0	-0.24435	-29.586	4.9619	0	-0.08153	0	0	49.8
-226.93	-730.96	0	2.9673	0	-0.24435	-29.545	5.2029	0	-0.08153	0	0	49.9
-229.88	-730.43	0	2.9591	0	-0.24435	-29.502	5.4436	0	-0.08153	0	0	50
-232.83	-729.87	0	2.951	0	-0.24435	-29.456	5.6841	0	-0.08153	0	0	50.1
-235.77	-729.29	0	2.9428	0	-0.24435	-29.409	5.9239	0	-0.08153	0	0	50.2
-238.71	-728.69	0	2.9347	0	-0.24435	-29.36	6.1636	0	-0.08153	0	0	50.3
-241.64	-728.06	0	2.9265	0	-0.24435	-29.308	6.4029	0	-0.08153	0	0	50.4
-244.57	-727.41	0	2.9184	0	-0.24435	-29.255	6.6413	0	-0.08153	0	0	50.5
-247.5	-726.73	0	2.9102	0	-0.24435	-29.2	6.8796	0	-0.08153	0	0	50.6
-250.41	-726.03	0	2.9021	0	-0.24435	-29.143	7.1177	0	-0.08153	0	0	50.7
-253.32	-725.31	0	2.8939	0	-0.24435	-29.084	7.355	0	-0.08153	0	0	50.8
-256.23	-724.56	0	2.8857	0	-0.24435	-29.023	7.5917	0	-0.08153	0	0	50.9
-259.13	-723.79	0	2.8776	0	-0.24435	-28.96	7.8282	0	-0.08153	0	0	51
-262.02	-723	0	2.8694	0	-0.24435	-28.896	8.0642	0	-0.08153	0	0	51.1
-264.91	-722.18	0	2.8613	0	-0.24435	-28.829	8.2992	0	-0.08153	0	0	51.2
-267.79	-721.34	0	2.8531	0	-0.24435	-28.76	8.534	0	-0.08153	0	0	51.3
-270.66	-720.47	0	2.845	0	-0.24435	-28.69	8.7684	0	-0.08153	0	0	51.4
-273.53	-719.58	0	2.8368	0	-0.24435	-28.617	9.0021	0	-0.08153	0	0	51.5
-276.38	-718.67	0	2.8287	0	-0.24435	-28.543	9.2348	0	-0.08153	0	0	51.6
-279.23	-717.73	0	2.8205	0	-0.24435	-28.467	9.4672	0	-0.08153	0	0	51.7
-282.08	-716.78	0	2.8124	0	-0.24435	-28.389	9.6992	0	-0.08153	0	0	51.8
-284.91	-715.79	0	2.8042	0	-0.24435	-28.308	9.9308	0	-0.08153	0	0	51.9
-287.74	-714.79	0	2.7961	0	-0.24435	-28.227	10.161	0	-0.08153	0	0	52
-290.56	-713.76	0	2.7879	0	-0.24435	-28.143	10.39	0	-0.08153	0	0	52.1
-293.37	-712.71	0	2.7798	0	-0.24435	-28.057	10.619	0	-0.08153	0	0	52.2
-296.17	-711.64	0	2.7716	0	-0.24435	-27.97	10.848	0	-0.08153	0	0	52.3
-298.96	-710.54	0	2.7635	0	-0.24435	-27.88	11.076	0	-0.08153	0	0	52.4
-301.74	-709.42	0	2.7553	0	-0.24435	-27.789	11.302	0	-0.08153	0	0	52.5
-304.52	-708.28	0	2.7471	0	-0.24435	-27.696	11.529	0	-0.08153	0	0	52.6
-307.28	-707.12	0	2.739	0	-0.24435	-27.601	11.754	0	-0.08153	0	0	52.7
-310.04	-705.93	0	2.7308	0	-0.24435	-27.504	11.979	0	-0.08153	0	0	52.8
-312.78	-704.72	0	2.7227	0	-0.24435	-27.406	12.203	0	-0.08153	0	0	52.9
-315.52	-703.49	0	2.7145	0	-0.24435	-27.306	12.426	0	-0.08153	0	0	53
-318.25	-702.24	0	2.7064	0	-0.24435	-27.203	12.648	0	-0.08153	0	0	53.1
-320.96	-700.96	0	2.6982	0	-0.24435	-27.099	12.869	0	-0.08153	0	0	53.2
-323.67	-699.66	0	2.6901	0	-0.24435	-26.993	13.09	0	-0.08153	0	0	53.3
-326.36	-698.34	0	2.6819	0	-0.24435	-26.886	13.309	0	-0.08153	0	0	53.4
-329.04	-697	0	2.6738	0	-0.24435	-26.776	13.528	0	-0.08153	0	0	53.5
-331.71	-695.64	0	2.6656	0	-0.24435	-26.665	13.746	0	-0.08153	0	0	53.6
-334.38	-694.25	0	2.6575	0	-0.24435	-26.552	13.963	0	-0.08153	0	0	53.7
-337.03	-692.84	0	2.6493	0	-0.24435	-26.437	14.179	0	-0.08153	0	0	53.8
-339.66	-691.42	0	2.6412	0	-0.24435	-26.321	14.394	0	-0.08153	0	0	53.9
-342.29	-689.97	0	2.633	0	-0.24435	-26.203	14.608	0	-0.08153	0	0	54
-344.9	-688.49	0	2.6249	0	-0.24435	-26.083	14.821	0	-0.08153	0	0	54.1
-347.51	-687	0	2.6167	0	-0.24435	-25.961	15.033	0	-0.08153	0	0	54.2
-350.1	-685.49	0	2.6085	0	-0.24435	-25.837	15.245	0	-0.08153	0	0	54.3
-352.67	-683.95	0	2.6004	0	-0.24435	-25.712	15.455	0	-0.08153	0	0	54.4
-355.24	-682.4	0	2.5922	0	-0.24435	-25.586	15.664	0	-0.08153	0	0	54.5
-357.79	-680.82	0	2.5841	0	-0.24435	-25.457	15.872	0	-0.08153	0	0	54.6
-360.33	-679.22	0	2.5759	0	-0.24435	-25.327	16.079	0	-0.08153	0	0	54.7
-362.86	-677.6	0	2.5678	0	-0.24435	-25.195	16.285	0	-0.08153	0	0	54.8
-365.37	-675.97	0	2.5596	0	-0.24435	-25.061	16.49	0	-0.08153	0	0	54.9
-367.87	-674.31	0	2.5515	0	-0.24435	-24.926	16.693	0	-0.08153	0	0	55
-370.35	-672.63	0	2.5433	0	-0.24435	-24.789	16.896	0	-0.08153	0	0	55.1
-372.83	-670.93	0	2.5352	0	-0.24435	-24.65	17.098	0	-0.08153	0	0	55.2
-375.28	-669.21	0	2.527	0	-0.24435	-24.51	17.299	0	-0.08153	0	0	55.3
-377.73	-667.47	0	2.5189	0	-0.24435	-24.368	17.498	0	-0.08153	0	0	55.4
-380.16	-665.71	0	2.5107	0	-0.24435	-24.225	17.695	0	-0.08153	0	0	55.5
-382.57	-663.93	0	2.5026	0	-0.24435	-24.08	17.892	0	-0.08153	0	0	55.6
-384.97	-662.13	0	2.4944	0	-0.24435	-23.933	18.088	0	-0.08153	0	0	55.7
-387.36	-660.31	0	2.4862	0	-0.24435	-23.785	18.283	0	-0.08153	0	0	55.8
-389.73	-658.47	0	2.4781	0	-0.24435	-23.635	18.476	0	-0.08153	0	0	55.9
-392.09	-656.62	0	2.4699	0	-0.24435	-23.484	18.668	0	-0.08153	0	0	56
-394.43	-654.74	0	2.4618	0	-0.24435	-23.331	18.859	0	-0.08153	0	0	56.1
-396.75	-652.84	0	2.4536	0	-0.24435	-23.176	19.049	0	-0.08153	0	0	56.2
-399.06	-650.93	0	2.4455	0	-0.24435	-23.02	19.237	0	-0.08153	0	0	56.3
-401.36	-649	0	2.4373	0	-0.24435	-22.862	19.424	0	-0.08153	0	0	56.4
-403.64	-647.04	0	2.4292	0	-0.24435	-22.703	19.61	0	-0.08153	0	0	56.5
-405.9	-645.07	0	2.421	0	-0.24435	-22.543	19.794	0	-0.08153	0	0	56.6
-408.14	-643.09	0	2.4129	0	-0.24435	-22.38	19.977	0	-0.08153	0	0	56.7
-410.37	-641.08	0	2.4047	0	-0.24435	-22.217	20.159	0	-0.08153	0	0	56.8
-412.59	-639.05	0	2.3966	0	-0.24435	-22.052	20.339	0	-0.08153	0	0	56.9
-414.78	-637.01	0	2.3884	0	-0.24435	-21.885	20.519	0	-0.08153	0	0	57
-416.96	-634.95	0	2.3803	0	-0.24435	-21.717	20.696	0	-0.08153	0	0	57.1
-419.13	-632.87	0	2.3721	0	-0.24435	-21.548	20.873	0	-0.08153	0	0	57.2
-421.27	-630.78	0	2.364	0	-0.24435	-21.377	21.048	0	-0.08153	0	0	57.3
-423.4	-628.66	0	2.3558	0	-0.24435	-21.205	21.221	0	-0.08153	0	0	57.4
-425.51	-626.53	0	2.3476	0	-0.24435	-21.031	21.393	0	-0.08153	0	0	57.5
-427.61	-624.38	0	2.3395	0	-0.24435	-20.856	21.564	0	-0.08153	0	0	57.6
-429.69	-622.22	0	2.3313	0	-0.24435	-20.679	21.734	0	-0.08153	0	0	57.7
-431.74	-620.04	0	2.3232	0	-0.24435	-20.501	21.902	0	-0.08153	0	0	57.8
-433.79	-617.84	0	2.315	0	-0.24435	-20.322	22.068	0	-0.08153	0	0	57.9
-435.81	-615.62	0	2.3069	0	-0.24435	-20.142	22.233	0	-0.08153	0	0	58
-437.81	-613.39	0	2.2987	0	-0.24435	-19.96	22.396	0	-0.08153	0	0	58.1
-439.8	-611.14	0	2.2906	0	-0.24435	-19.776	22.558	0	-0.08153	0	0	58.2
-441.77	-608.88	0	2.2824	0	-0.24435	-19.592	22.719	0	-0.08153	0	0	58.3
-443.72	-606.6	0	2.2743	0	-0.24435	-19.406	22.878	0	-0.08153	0	0	58.4
-445.65	-604.3	0	2.2661	0	-0.24435	-19.219	23.035	0	-0.08153	0	0	58.5
-447.56	-601.99	0	2.258	0	-0.24435	-19.03	23.191	0	-0.08153	0	0	58.6
-449.46	-599.67	0	2.2498	0	-0.24435	-18.841	23.346	0	-0.08153	0	0	58.7
-451.33	-597.32	0	2.2417	0	-0.24435	-18.65	23.498	0	-0.08153	0	0	58.8
-453.19	-594.97	0	2.2335	0	-0.24435	-18.457	23.649	0	-0.08153	0	0	58.9
-455.02	-592.59	0	2.2254	0	-0.24435	-18.264	23.799	0	-0.08153	0	0	59
-456.84	-590.21	0	2.2172	0	-0.24435	-18.069	23.948	0	-0.08153	0	0	59.1
-458.64	-587.8	0	2.209	0	-0.24435	-17.874	24.094	0	-0.08153	0	0	59.2
-460.41	-585.39	0	2.2009	0	-0.24435	-17.677	24.239	0	-0.08153	0	0	59.3
-462.17	-582.96	0	2.1927	0	-0.24435	-17.478	24.382	0	-0.08153	0	0	59.4
-463.91	-580.51	0	2.1846	0	-0.24435	-17.279	24.524	0	-0.08153	0	0	59.5
-465.63	-578.05	0	2.1764	0	-0.24435	-17.078	24.664	0	-0.08153	0	0	59.6
-467.33	-575.58	0	2.1683	0	-0.24435	-16.877	24.802	0	-0.08153	0	0	59.7
-469	-573.09	0	2.1601	0	-0.24435	-16.674	24.94	0	-0.08153	0	0	59.8
-470.66	-570.59	0	2.152	0	-0.24435	-16.47	25.074	0	-0.08153	0	0	59.9
-472.3	-568.08	0	2.1438	0	-0.24435	-16.265	25.207	0	-0.08153	0	0	60
-473.91	-565.55	0	2.1357	0	-0.24435	-16.059	25.339	0	-0.08153	0	0	60.1
-475.51	-563.01	0	2.1275	0	-0.24435	-15.852	25.47	0	-0.08153	0	0	60.2
-477.08	-560.46	0	2.1194	0	-0.24435	-15.644	25.598	0	-0.08153	0	0	60.3
-478.64	-557.89	0	2.1112	0	-0.24435	-15.435	25.725	0	-0.08153	0	0	60.4
-480.17	-555.31	0	2.1031	0	-0.24435	-15.224	25.85	0	-0.08153	0	0	60.5
-481.68	-552.72	0	2.0949	0	-0.24435	-15.013	25.973	0	-0.08153	0	0	60.6
-483.17	-550.12	0	2.0868	0	-0.24435	-14.801	26.094	0	-0.08153	0	0	60.7
-484.64	-547.5	0	2.0786	0	-0.24435	-14.588	26.214	0	-0.08153	0	0	60.8
-486.09	-544.87	0	2.0704	0	-0.24435	-14.373	26.332	0	-0.08153	0	0	60.9
-487.52	-542.23	0	2.0623	0	-0.24435	-14.158	26.449	0	-0.08153	0	0	61
-488.92	-539.58	0	2.0541	0	-0.24435	-13.942	26.563	0	-0.08153	0	0	61.1
-490.31	-536.92	0	2.046	0	-0.24435	-13.725	26.676	0	-0.08153	0	0	61.2
-491.67	-534.25	0	2.0378	0	-0.24435	-13.507	26.787	0	-0.08153	0	0	61.3
-493.01	-531.56	0	2.0297	0	-0.24435	-13.288	26.896	0	-0.08153	0	0	61.4
-494.33	-528.87	0	2.0215	0	-0.24435	-13.069	27.003	0	-0.08153	0	0	61.5
-495.62	-526.16	0	2.0134	0	-0.24435	-12.848	27.109	0	-0.08153	0	0	61.6
-496.89	-523.45	0	2.0052	0	-0.24435	-12.627	27.213	0	-0.08153	0	0	61.7
-498.15	-520.72	0	1.9971	0	-0.24435	-12.404	27.315	0	-0.08153	0	0	61.8
-499.38	-517.98	0	1.9889	0	-0.24435	-12.181	27.415	0	-0.08153	0	0	61.9
-500.58	-515.24	0	1.9808	0	-0.24435	-11.957	27.514	0	-0.08153	0	0	62
-501.77	-512.48	0	1.9726	0	-0.24435	-11.732	27.61	0	-0.08153	0	0	62.1
-502.93	-509.72	0	1.9645	0	-0.24435	-11.507	27.705	0	-0.08153	0	0	62.2
-504.07	-506.94	0	1.9563	0	-0.24435	-11.281	27.798	0	-0.08153	0	0	62.3
-505.19	-504.16	0	1.9481	0	-0.24435	-11.054	27.889	0	-0.08153	0	0	62.4
-506.28	-501.36	0	1.94	0	-0.24435	-10.826	27.978	0	-0.08153	0	0	62.5
-507.35	-498.56	0	1.9318	0	-0.24435	-10.598	28.066	0	-0.08153	0	0	62.6
-508.4	-495.75	0	1.9237	0	-0.24435	-10.369	28.151	0	-0.08153	0	0	62.7
-509.42	-492.93	0	1.9155	0	-0.24435	-10.138	28.234	0	-0.08153	0	0	62.8
-510.43	-490.1	0	1.9074	0	-0.24435	-9.9077	28.316	0	-0.08153	0	0	62.9
-511.41	-487.27	0	1.8992	0	-0.24435	-9.6768	28.396	0	-0.08153	0	0	63
-512.36	-484.42	0	1.8911	0	-0.24435	-9.445	28.474	0	-0.08153	0	0	63.1
-513.29	-481.57	0	1.8829	0	-0.24435	-9.2125	28.55	0	-0.08153	0	0	63.2
-514.2	-478.71	0	1.8748	0	-0.24435	-8.9794	28.624	0	-0.08153	0	0	63.3
-515.09	-475.85	0	1.8666	0	-0.24435	-8.7457	28.697	0	-0.08153	0	0	63.4
-515.95	-472.97	0	1.8585	0	-0.24435	-8.5115	28.767	0	-0.08153	0	0	63.5
-516.79	-470.09	0	1.8503	0	-0.24435	-8.2767	28.835	0	-0.08153	0	0	63.6
-517.61	-467.21	0	1.8422	0	-0.24435	-8.0412	28.902	0	-0.08153	0	0	63.7
-518.4	-464.31	0	1.834	0	-0.24435	-7.8054	28.966	0	-0.08153	0	0	63.8
-519.17	-461.41	0	1.8259	0	-0.24435	-7.569	29.029	0	-0.08153	0	0	63.9
-519.91	-458.51	0	1.8177	0	-0.24435	-7.3321	29.09	0	-0.08153	0	0	64
-520.64	-455.6	0	1.8095	0	-0.24435	-7.0946	29.149	0	-0.08153	0	0	64.1
-521.33	-452.68	0	1.8014	0	-0.24435	-6.8567	29.206	0	-0.08153	0	0	64.2
-522.01	-449.75	0	1.7932	0	-0.24435	-6.6184	29.261	0	-0.08153	0	0	64.3
-522.66	-446.83	0	1.7851	0	-0.24435	-6.3797	29.313	0	-0.08153	0	0	64.4
-523.28	-443.89	0	1.7769	0	-0.24435	-6.1405	29.365	0	-0.08153	0	0	64.5
-523.89	-440.95	0	1.7688	0	-0.24435	-5.9008	29.414	0	-0.08153	0	0	64.6
-524.46	-438.01	0	1.7606	0	-0.24435	-5.6607	29.461	0	-0.08153	0	0	64.7
-525.02	-435.06	0	1.7525	0	-0.24435	-5.4204	29.506	0	-0.08153	0	0	64.8
-525.55	-432.11	0	1.7443	0	-0.24435	-5.1797	29.549	0	-0.08153	0	0	64.9
-526.05	-429.15	0	1.7362	0	-0.24435	-4.9387	29.59	0	-0.08153	0	0	65
-526.54	-426.19	0	1.728	0	-0.24435	-4.6972	29.63	0	-0.08153	0	0	65.1
-526.99	-423.22	0	1.7199	0	-0.24435	-4.4554	29.667	0	-0.08153	0	0	65.2
-527.43	-420.26	0	1.7117	0	-0.24435	-4.2133	29.702	0	-0.08153	0	0	65.3
-527.84	-417.28	0	1.7036	0	-0.24435	-3.9711	29.736	0	-0.08153	0	0	65.4
-528.22	-414.31	0	1.6954	0	-0.24435	-3.7286	29.767	0	-0.08153	0	0	65.5
-528.58	-411.33	0	1.6873	0	-0.24435	-3.4859	29.797	0	-0.08153	0	0	65.6
-528.92	-408.35	0	1.6791	0	-0.24435	-3.2428	29.824	0	-0.08153	0	0	65.7
-529.23	-405.37	0	1.6709	0	-0.24435	-2.9998	29.849	0	-0.08153	0	0	65.8
-529.52	-402.38	0	1.6628	0	-0.24435	-2.7559	29.873	0	-0.08153	0	0	65.9
-529.78	-399.39	0	1.6546	0	-0.24435	-2.5119	29.894	0	-0.08153	0	0	66
-530.02	-396.4	0	1.6465	0	-0.24435	-2.2686	29.914	0	-0.08153	0	0	66.1
-530.24	-393.41	0	1.6383	0	-0.24435	-2.0247	29.931	0	-0.08153	0	0	66.2
-530.43	-390.42	0	1.6302	0	-0.24435	-1.7806	29.947	0	-0.08153	0	0	66.3
-530.59	-387.42	0	1.622	0	-0.24435	-1.5363	29.96	0	-0.08153	0	0	66.4
-530.73	-384.42	0	1.6139	0	-0.24435	-1.2919	29.972	0	-0.08153	0	0	66.5
-530.85	-381.43	0	1.6057	0	-0.24435	-1.0475	29.981	0	-0.08153	0	0	66.6
-530.94	-378.43	0	1.5976	0	-0.24435	-0.80312	29.989	0	-0.08153	0	0	66.7
-531.01	-375.43	0	1.5894	0	-0.24435	-0.55865	29.994	0	-0.08153	0	0	66.8
-531.05	-372.43	0	1.5813	0	-0.24435	-0.31404	29.998	0	-0.08153	0	0	66.9
-531.07	-369.43	0	1.5731	0	-0.24435	-0.069381	30	0	-0.08153	0	0	67
-531.07	-366.43	0	1.565	0	-0.24435	0.17524	29.999	0	-0.08153	0	0	67.1
-531.04	-363.43	0	1.5568	0	-0.24435	0.41976	29.997	0	-0.08153	0	0	67.2
-530.98	-360.43	0	1.5487	0	-0.24435	0.66424	29.992	0	-0.08153	0	0	67.3
-530.91	-357.43	0	1.5405	0	-0.24435	0.90876	29.986	0	-0.08153	0	0	67.4
-530.8	-354.43	0	1.5323	0	-0.24435	1.1533	29.977	0	-0.08153	0	0	67.5
-530.67	-351.43	0	1.5242	0	-0.24435	1.3976	29.967	0	-0.08153	0	0	67.6
-530.52	-348.44	0	1.516	0	-0.24435	1.6414	29.955	0	-0.08153	0	0	67.7
-530.35	-345.44	0	1.5079	0	-0.24435	1.886	29.94	0	-0.08153	0	0	67.8
-530.15	-342.45	0	1.4997	0	-0.24435	2.1306	29.924	0	-0.08153	0	0	67.9
-529.92	-339.46	0	1.4916	0	-0.24435	2.374	29.906	0	-0.08153	0	0	68
-529.67	-336.47	0	1.4834	0	-0.24435	2.6177	29.885	0	-0.08153	0	0	68.1
-529.4	-333.48	0	1.4753	0	-0.24435	2.8613	29.863	0	-0.08153	0	0	68.2
-529.1	-330.5	0	1.4671	0	-0.24435	3.1046	29.839	0	-0.08153	0	0	68.3
-528.78	-327.51	0	1.459	0	-0.24435	3.3478	29.812	0	-0.08153	0	0	68.4
-528.43	-324.53	0	1.4508	0	-0.24435	3.5908	29.784	0	-0.08153	0	0	68.5
-528.06	-321.56	0	1.4427	0	-0.24435	3.8335	29.754	0	-0.08153	0	0	68.6
-527.66	-318.58	0	1.4345	0	-0.24435	4.076	29.721	0	-0.08153	0	0	68.7
-527.24	-315.61	0	1.4264	0	-0.24435	4.3181	29.687	0	-0.08153	0	0	68.8
-526.8	-312.65	0	1.4182	0	-0.24435	4.56	29.651	0	-0.08153	0	0	68.9
-526.33	-309.68	0	1.41	0	-0.24435	4.8016	29.613	0	-0.08153	0	0	69
-525.84	-306.72	0	1.4019	0	-0.24435	5.0428	29.573	0	-0.08153	0	0	69.1
-525.32	-303.77	0	1.3937	0	-0.24435	5.2838	29.531	0	-0.08153	0	0	69.2
-524.78	-300.82	0	1.3856	0	-0.24435	5.5244	29.487	0	-0.08153	0	0	69.3
-524.22	-297.87	0	1.3774	0	-0.24435	5.7646	29.441	0	-0.08153	0	0	69.4
-523.63	-294.93	0	1.3693	0	-0.24435	6.0044	29.393	0	-0.08153	0	0	69.5
-523.02	-291.99	0	1.3611	0	-0.24435	6.2439	29.343	0	-0.08153	0	0	69.6
-522.38	-289.06	0	1.353	0	-0.24435	6.483	29.291	0	-0.08153	0	0	69.7
-521.72	-286.13	0	1.3448	0	-0.24435	6.7215	29.237	0	-0.08153	0	0	69.8
-521.04	-283.21	0	1.3367	0	-0.24435	6.9596	29.181	0	-0.08153	0	0	69.9
-520.33	-280.3	0	1.3285	0	-0.24435	7.1972	29.123	0	-0.08153	0	0	70
-519.6	-277.39	0	1.3204	0	-0.24435	7.4345	29.064	0	-0.08153	0	0	70.1
-518.84	-274.48	0	1.3122	0	-0.24435	7.6713	29.002	0	-0.08153	0	0	70.2
-518.06	-271.59	0	1.3041	0	-0.24435	7.9075	28.939	0	-0.08153	0	0	70.3
-517.26	-268.7	0	1.2959	0	-0.24435	8.1433	28.873	0	-0.08153	0	0	70.4
-516.43	-265.81	0	1.2878	0	-0.24435	8.3782	28.806	0	-0.08153	0	0	70.5
-515.58	-262.94	0	1.2796	0	-0.24435	8.6127	28.737	0	-0.08153	0	0	70.6
-514.71	-260.07	0	1.2714	0	-0.24435	8.8468	28.666	0	-0.08153	0	0	70.7
-513.81	-257.2	0	1.2633	0	-0.24435	9.0801	28.592	0	-0.08153	0	0	70.8
-512.89	-254.35	0	1.2551	0	-0.24435	9.313	28.517	0	-0.08153	0	0	70.9
-511.95	-251.5	0	1.247	0	-0.24435	9.5453	28.441	0	-0.08153	0	0	71
-510.99	-248.66	0	1.2388	0	-0.24435	9.7769	28.362	0	-0.08153	0	0	71.1
-510	-245.83	0	1.2307	0	-0.24435	10.008	28.281	0	-0.08153	0	0	71.2
-508.98	-243	0	1.2225	0	-0.24435	10.238	28.199	0	-0.08153	0	0	71.3
-507.95	-240.19	0	1.2144	0	-0.24435	10.468	28.114	0	-0.08153	0	0	71.4
-506.89	-237.38	0	1.2062	0	-0.24435	10.696	28.028	0	-0.08153	0	0	71.5
-505.81	-234.58	0	1.1981	0	-0.24435	10.924	27.94	0	-0.08153	0	0	71.6
-504.71	-231.79	0	1.1899	0	-0.24435	11.152	27.85	0	-0.08153	0	0	71.7
-503.58	-229.01	0	1.1818	0	-0.24435	11.379	27.758	0	-0.08153	0	0	71.8
-502.43	-226.24	0	1.1736	0	-0.24435	11.605	27.664	0	-0.08153	0	0	71.9
-501.26	-223.48	0	1.1655	0	-0.24435	11.83	27.569	0	-0.08153	0	0	72
-500.06	-220.73	0	1.1573	0	-0.24435	12.054	27.471	0	-0.08153	0	0	72.1
-498.85	-217.98	0	1.1492	0	-0.24435	12.278	27.372	0	-0.08153	0	0	72.2
-497.61	-215.25	0	1.141	0	-0.24435	12.5	27.271	0	-0.08153	0	0	72.3
-496.35	-212.53	0	1.1328	0	-0.24435	12.722	27.168	0	-0.08153	0	0	72.4
-495.06	-209.82	0	1.1247	0	-0.24435	12.944	27.064	0	-0.08153	0	0	72.5
-493.76	-207.12	0	1.1165	0	-0.24435	13.164	26.957	0	-0.08153	0	0	72.6
-492.43	-204.43	0	1.1084	0	-0.24435	13.383	26.849	0	-0.08153	0	0	72.7
-491.08	-201.75	0	1.1002	0	-0.24435	13.601	26.739	0	-0.08153	0	0	72.8
-489.71	-199.08	0	1.0921	0	-0.24435	13.819	26.627	0	-0.08153	0	0	72.9
-488.32	-196.42	0	1.0839	0	-0.24435	14.036	26.514	0	-0.08153	0	0	73
-486.9	-193.78	0	1.0758	0	-0.24435	14.251	26.398	0	-0.08153	0	0	73.1
-485.47	-191.14	0	1.0676	0	-0.24435	14.466	26.281	0	-0.08153	0	0	73.2
-484.01	-188.52	0	1.0595	0	-0.24435	14.68	26.163	0	-0.08153	0	0	73.3
-482.53	-185.91	0	1.0513	0	-0.24435	14.893	26.042	0	-0.08153	0	0	73.4
-481.03	-183.31	0	1.0432	0	-0.24435	15.105	25.92	0	-0.08153	0	0	73.5
-479.51	-180.73	0	1.035	0	-0.24435	15.315	25.796	0	-0.08153	0	0	73.6
-477.97	-178.15	0	1.0269	0	-0.24435	15.525	25.67	0	-0.08153	0	0	73.7
-476.41	-175.59	0	1.0187	0	-0.24435	15.734	25.543	0	-0.08153	0	0	73.8
-474.82	-173.04	0	1.0106	0	-0.24435	15.942	25.413	0	-0.08153	0	0	73.9
-473.22	-170.51	0	1.0024	0	-0.24435	16.148	25.283	0	-0.08153	0	0	74
-471.59	-167.99	0	0.99425	0	-0.24435	16.354	25.15	0	-0.08153	0	0	74.1
-469.95	-165.48	0	0.98609	0	-0.24435	16.558	25.016	0	-0.08153	0	0	74.2
-468.28	-162.98	0	0.97794	0	-0.24435	16.762	24.88	0	-0.08153	0	0	74.3
-466.59	-160.5	0	0.96979	0	-0.24435	16.964	24.743	0	-0.08153	0	0	74.4
-464.89	-158.04	0	0.96163	0	-0.24435	17.165	24.603	0	-0.08153	0	0	74.5
-463.16	-155.58	0	0.95348	0	-0.24435	17.365	24.463	0	-0.08153	0	0	74.6
-461.41	-153.14	0	0.94533	0	-0.24435	17.564	24.321	0	-0.08153	0	0	74.7
-459.65	-150.72	0	0.93717	0	-0.24435	17.762	24.176	0	-0.08153	0	0	74.8
-457.86	-148.31	0	0.92902	0	-0.24435	17.958	24.031	0	-0.08153	0	0	74.9
-456.06	-145.91	0	0.92087	0	-0.24435	18.154	23.883	0	-0.08153	0	0	75
-454.23	-143.53	0	0.91272	0	-0.24435	18.348	23.735	0	-0.08153	0	0	75.1
-452.39	-141.17	0	0.90456	0	-0.24435	18.541	23.584	0	-0.08153	0	0	75.2
-450.52	-138.81	0	0.89641	0	-0.24435	18.732	23.432	0	-0.08153	0	0	75.3
-448.64	-136.48	0	0.88826	0	-0.24435	18.923	23.279	0	-0.08153	0	0	75.4
-446.74	-134.16	0	0.8801	0	-0.24435	19.112	23.124	0	-0.08153	0	0	75.5
-444.82	-131.85	0	0.87195	0	-0.24435	19.3	22.967	0	-0.08153	0	0	75.6
-442.88	-129.57	0	0.8638	0	-0.24435	19.486	22.809	0	-0.08153	0	0	75.7
-440.92	-127.29	0	0.85564	0	-0.24435	19.672	22.65	0	-0.08153	0	0	75.8
-438.94	-125.04	0	0.84749	0	-0.24435	19.856	22.488	0	-0.08153	0	0	75.9
-436.95	-122.79	0	0.83934	0	-0.24435	20.038	22.326	0	-0.08153	0	0	76
-434.94	-120.57	0	0.83118	0	-0.24435	20.22	22.162	0	-0.08153	0	0	76.1
-432.91	-118.36	0	0.82303	0	-0.24435	20.4	21.996	0	-0.08153	0	0	76.2
-430.86	-116.17	0	0.81488	0	-0.24435	20.578	21.829	0	-0.08153	0	0	76.3
-428.79	-114	0	0.80673	0	-0.24435	20.756	21.661	0	-0.08153	0	0	76.4
-426.71	-111.84	0	0.79857	0	-0.24435	20.932	21.491	0	-0.08153	0	0	76.5
-424.6	-109.7	0	0.79042	0	-0.24435	21.106	21.319	0	-0.08153	0	0	76.6
-422.48	-107.57	0	0.78227	0	-0.24435	21.279	21.146	0	-0.08153	0	0	76.7
-420.35	-105.47	0	0.77411	0	-0.24435	21.451	20.972	0	-0.08153	0	0	76.8
-418.19	-103.38	0	0.76596	0	-0.24435	21.621	20.797	0	-0.08153	0	0	76.9
-416.02	-101.31	0	0.75781	0	-0.24435	21.79	20.62	0	-0.08153	0	0	77
-413.84	-99.256	0	0.74965	0	-0.24435	21.957	20.441	0	-0.08153	0	0	77.1
-411.63	-97.221	0	0.7415	0	-0.24435	22.123	20.262	0	-0.08153	0	0	77.2
-409.41	-95.204	0	0.73335	0	-0.24435	22.288	20.081	0	-0.08153	0	0	77.3
-407.17	-93.205	0	0.7252	0	-0.24435	22.451	19.898	0	-0.08153	0	0	77.4
-404.92	-91.225	0	0.71704	0	-0.24435	22.612	19.715	0	-0.08153	0	0	77.5
-402.65	-89.262	0	0.70889	0	-0.24435	22.772	19.53	0	-0.08153	0	0	77.6
-400.37	-87.319	0	0.70074	0	-0.24435	22.931	19.343	0	-0.08153	0	0	77.7
-398.07	-85.394	0	0.69258	0	-0.24435	23.088	19.156	0	-0.08153	0	0	77.8
-395.75	-83.487	0	0.68443	0	-0.24435	23.243	18.967	0	-0.08153	0	0	77.9
-393.42	-81.6	0	0.67628	0	-0.24435	23.397	18.777	0	-0.08153	0	0	78
-391.07	-79.732	0	0.66812	0	-0.24435	23.549	18.585	0	-0.08153	0	0	78.1
-388.71	-77.883	0	0.65997	0	-0.24435	23.7	18.393	0	-0.08153	0	0	78.2
-386.33	-76.054	0	0.65182	0	-0.24435	23.849	18.199	0	-0.08153	0	0	78.3
-383.94	-74.243	0	0.64367	0	-0.24435	23.997	18.004	0	-0.08153	0	0	78.4
-381.53	-72.453	0	0.63551	0	-0.24435	24.143	17.808	0	-0.08153	0	0	78.5
-379.11	-70.682	0	0.62736	0	-0.24435	24.287	17.61	0	-0.08153	0	0	78.6
-376.67	-68.931	0	0.61921	0	-0.24435	24.43	17.411	0	-0.08153	0	0	78.7
-374.22	-67.2	0	0.61105	0	-0.24435	24.571	17.212	0	-0.08153	0	0	78.8
-371.76	-65.489	0	0.6029	0	-0.24435	24.711	17.011	0	-0.08153	0	0	78.9
-369.28	-63.798	0	0.59475	0	-0.24435	24.848	16.809	0	-0.08153	0	0	79
-366.79	-62.127	0	0.58659	0	-0.24435	24.985	16.606	0	-0.08153	0	0	79.1
-364.28	-60.476	0	0.57844	0	-0.24435	25.119	16.401	0	-0.08153	0	0	79.2
-361.77	-58.846	0	0.57029	0	-0.24435	25.252	16.196	0	-0.08153	0	0	79.3
-359.23	-57.237	0	0.56214	0	-0.24435	25.383	15.99	0	-0.08153	0	0	79.4
-356.69	-55.649	0	0.55398	0	-0.24435	25.513	15.782	0	-0.08153	0	0	79.5
-354.13	-54.081	0	0.54583	0	-0.24435	25.641	15.574	0	-0.08153	0	0	79.6
-351.56	-52.534	0	0.53768	0	-0.24435	25.767	15.364	0	-0.08153	0	0	79.7
-348.98	-51.008	0	0.52952	0	-0.24435	25.891	15.153	0	-0.08153	0	0	79.8
-346.38	-49.503	0	0.52137	0	-0.24435	26.014	14.942	0	-0.08153	0	0	79.9
-343.77	-48.02	0	0.51322	0	-0.24435	26.135	14.729	0	-0.08153	0	0	80
-341.16	-46.557	0	0.50506	0	-0.24435	26.254	14.516	0	-0.08153	0	0	80.1
-338.52	-45.116	0	0.49691	0	-0.24435	26.371	14.301	0	-0.08153	0	0	80.2
-335.88	-43.697	0	0.48876	0	-0.24435	26.487	14.086	0	-0.08153	0	0	80.3
-333.23	-42.299	0	0.4806	0	-0.24435	26.601	13.869	0	-0.08153	0	0	80.4
-330.56	-40.923	0	0.47245	0	-0.24435	26.713	13.652	0	-0.08153	0	0	80.5
-327.88	-39.569	0	0.4643	0	-0.24435	26.824	13.434	0	-0.08153	0	0	80.6
-325.2	-38.236	0	0.45615	0	-0.24435	26.932	13.215	0	-0.08153	0	0	80.7
-322.5	-36.926	0	0.44799	0	-0.24435	27.039	12.995	0	-0.08153	0	0	80.8
-319.79	-35.638	0	0.43984	0	-0.24435	27.144	12.774	0	-0.08153	0	0	80.9
-317.07	-34.371	0	0.43169	0	-0.24435	27.248	12.552	0	-0.08153	0	0	81
-314.34	-33.127	0	0.42353	0	-0.24435	27.349	12.329	0	-0.08153	0	0	81.1
-311.6	-31.905	0	0.41538	0	-0.24435	27.449	12.106	0	-0.08153	0	0	81.2
-308.85	-30.706	0	0.40723	0	-0.24435	27.547	11.882	0	-0.08153	0	0	81.3
-306.09	-29.529	0	0.39907	0	-0.24435	27.642	11.657	0	-0.08153	0	0	81.4
-303.32	-28.375	0	0.39092	0	-0.24435	27.736	11.431	0	-0.08153	0	0	81.5
-300.54	-27.243	0	0.38277	0	-0.24435	27.829	11.205	0	-0.08153	0	0	81.6
-297.75	-26.134	0	0.37462	0	-0.24435	27.919	10.977	0	-0.08153	0	0	81.7
-294.96	-25.047	0	0.36646	0	-0.24435	28.008	10.749	0	-0.08153	0	0	81.8
-292.15	-23.984	0	0.35831	0	-0.24435	28.094	10.521	0	-0.08153	0	0	81.9
-289.34	-22.943	0	0.35016	0	-0.24435	28.179	10.291	0	-0.08153	0	0	82
-286.52	-21.926	0	0.342	0	-0.24435	28.262	10.061	0	-0.08153	0	0	82.1
-283.69	-20.931	0	0.33385	0	-0.24435	28.343	9.8304	0	-0.08153	0	0	82.2
-280.85	-19.959	0	0.3257	0	-0.24435	28.423	9.599	0	-0.08153	0	0	82.3
-278	-19.011	0	0.31754	0	-0.24435	28.5	9.3669	0	-0.08153	0	0	82.4
-275.15	-18.086	0	0.30939	0	-0.24435	28.575	9.1343	0	-0.08153	0	0	82.5
-272.29	-17.184	0	0.30124	0	-0.24435	28.649	8.901	0	-0.08153	0	0	82.6
-269.42	-16.306	0	0.29309	0	-0.24435	28.72	8.6671	0	-0.08153	0	0	82.7
-266.54	-15.451	0	0.28493	0	-0.24435	28.79	8.4327	0	-0.08153	0	0	82.8
-263.66	-14.619	0	0.27678	0	-0.24435	28.858	8.1977	0	-0.08153	0	0	82.9
-260.77	-13.811	0	0.26863	0	-0.24435	28.924	7.9621	0	-0.08153	0	0	83
-257.88	-13.027	0	0.26047	0	-0.24435	28.988	7.726	0	-0.08153	0	0	83.1
-254.97	-12.266	0	0.25232	0	-0.24435	29.05	7.4895	0	-0.08153	0	0	83.2
-252.07	-11.529	0	0.24417	0	-0.24435	29.11	7.2524	0	-0.08153	0	0	83.3
-249.15	-10.816	0	0.23601	0	-0.24435	29.168	7.0148	0	-0.08153	0	0	83.4
-246.23	-10.126	0	0.22786	0	-0.24435	29.224	6.7768	0	-0.08153	0	0	83.5
-243.31	-9.4603	0	0.21971	0	-0.24435	29.278	6.5383	0	-0.08153	0	0	83.6
-240.38	-8.8184	0	0.21155	0	-0.24435	29.331	6.2993	0	-0.08153	0	0	83.7
-237.44	-8.2004	0	0.2034	0	-0.24435	29.381	6.06	0	-0.08153	0	0	83.8
-234.5	-7.6064	0	0.19525	0	-0.24435	29.43	5.8203	0	-0.08153	0	0	83.9
-231.56	-7.0364	0	0.1871	0	-0.24435	29.476	5.5801	0	-0.08153	0	0	84
-228.61	-6.4904	0	0.17894	0	-0.24435	29.521	5.3396	0	-0.08153	0	0	84.1
-225.65	-5.9684	0	0.17079	0	-0.24435	29.563	5.0988	0	-0.08153	0	0	84.2
-222.69	-5.4706	0	0.16264	0	-0.24435	29.604	4.8576	0	-0.08153	0	9.5044e-08	84.3
-219.73	-4.9969	0	0.15448	0	-0.24435	29.642	4.6161	0	-0.081518	0	0.0010776	84.4
-216.76	-4.5474	0	0.14633	0	-0.24413	29.679	4.3744	0	-0.081428	0	0.0045174	84.5
-213.79	-4.1221	0	0.1382	0	-0.24344	29.714	4.1329	0	-0.081185	0	0.0095777	84.6
-210.82	-3.7208	0	0.1301	0	-0.24222	29.746	3.8921	0	-0.080756	0	0.015265	84.7
-207.85	-3.3436	0	0.12205	0	-0.24039	29.776	3.6527	0	-0.08012	0	0.021491	84.8
-204.87	-2.9903	0	0.11407	0	-0.23792	29.805	3.4152	0	-0.079261	0	0.028168	84.9
-201.88	-2.6606	0	0.10619	0	-0.23476	29.831	3.1804	0	-0.078166	0	0.035211	85
-198.9	-2.3542	0	0.098439	0	-0.23087	29.854	2.9491	0	-0.076824	0	0.042532	85.1
-195.91	-2.0708	0	0.09083	0	-0.22625	29.876	2.722	0	-0.075229	0	0.050045	85.2
-192.93	-1.8098	0	0.083393	0	-0.22087	29.895	2.4999	0	-0.073378	0	0.057661	85.3
-189.93	-1.5708	0	0.076154	0	-0.21472	29.913	2.2835	0	-0.071269	0	0.065292	85.4
-186.94	-1.3531	0	0.069139	0	-0.20781	29.928	2.0737	0	-0.068907	0	0.072844	85.5
-183.95	-1.1561	0	0.062373	0	-0.20015	29.941	1.8713	0	-0.066297	0	0.080224	85.6
-180.95	-0.97885	0	0.05588	0	-0.19176	29.953	1.677	0	-0.063449	0	0.087334	85.7
-177.96	-0.82065	0	0.049683	0	-0.18268	29.963	1.4915	0	-0.060375	0	0.094073	85.8
-174.96	-0.68055	0	0.043805	0	-0.17295	29.971	1.3154	0	-0.057093	0	0.10034	85.9
-171.96	-0.55757	0	0.038265	0	-0.16261	29.978	1.1494	0	-0.053621	0	0.10602	86
-168.97	-0.45067	0	0.033081	0	-0.15174	29.983	0.99409	0	-0.049981	0	0.111	86.1
-165.97	-0.35875	0	0.028268	0	-0.14041	29.988	0.84985	0	-0.046201	0	0.11519	86.2
-162.97	-0.2807	0	0.02384	0	-0.12871	29.991	0.71711	0	-0.042308	0	0.11845	86.3
-159.97	-0.21533	0	0.019807	0	-0.11672	29.994	0.59616	0	-0.038336	0	0.12068	86.4
-156.97	-0.16147	0	0.016173	0	-0.10457	29.996	0.48719	0	-0.034319	0	0.12176	86.5
-153.97	-0.11789	0	0.012943	0	-0.092373	29.997	0.39028	0	-0.030298	0	0.12157	86.6
-150.97	-0.08341	0	0.010114	0	-0.080257	29.998	0.30538	0	-0.026314	0	0.12002	86.7
-147.97	-0.056817	0	0.0076799	0	-0.068369	29.999	0.23232	0	-0.022413	0	0.11699	86.8
-144.97	-0.036946	0	0.005631	0	-0.05686	29.999	0.17077	0	-0.018644	0	0.11237	86.9
-141.97	-0.022662	0	0.0039512	0	-0.045895	30	0.12028	0	-0.015058	0	0.10606	87
-138.97	-0.01289	0	0.0026194	0	-0.035648	30	0.080189	0	-0.011711	0	0.097976	87.1
-135.97	-0.0066245	0	0.0016089	0	-0.0263	30	0.049711	0	-0.0086619	0	0.088013	87.2
-132.97	-0.0029482	0	0.000887	0	-0.018045	30	0.027858	0	-0.005972	0	0.076081	87.3
-129.97	-0.0010528	0	0.00041452	0	-0.011084	30	0.013455	0	-0.0037066	0	0.062088	87.4
-126.97	-0.00025718	0	0.00014568	0	-0.0056275	30	0.0051258	0	-0.0019342	0	0.045942	87.5
-123.97	-2.7682e-05	0	2.7683e-05	0	-0.0018955	30	0.0012854	0	-0.00072631	0	0.02755	87.6
-120.97	-1.0104e-07	0	4.1565e-07	0	-0.00011751	30	0.00013841	0	-0.00013842	0	0.0094776	87.7
-117.97	1.4278e-12	0	0	0	0	30	5.0521e-07	0	-2.0782e-06	0	0.00058757	87.8
-114.97	4.1221e-13	0	0	0	0	30	-1.8371e-11	0	0	0	0	87.9
-111.97	-2.2463e-12	0	0	0	0	30	-1.9221e-12	0	0	0	0	88
-108.97	2.7783e-14	0	0	0	0	30	1.9269e-11	0	0	0	0	88.1
-105.97	1.6075e-12	0	0	0	0	30	8.6125e-12	0	0	0	0	88.2
-102.97	1.7503e-12	0	0	0	0	30	8.9068e-13	0	0	0	0	88.3
-99.971	1.7856e-12	0	0	0	0	30	-6.9428e-12	0	0	0	0	88.4
-96.971	3.6171e-13	0	0	0	0	30	-1.9973e-11	0	0	0	0	88.5
-93.971	-2.2089e-12	0	0	0	0	30	-4.3018e-12	0	0	0	0	88.6
-90.971	-4.9865e-13	0	0	0	0	30	1.7559e-11	0	0	0	0	88.7
-87.971	1.3029e-12	0	0	0	0	30	-6.1486e-12	0	0	0	0	88.8
-84.971	-1.7284e-12	0	0	0	0	30	-2.7397e-12	0	0	0	0	88.9
-81.971	7.55e-13	0	0	0	0	30	2.5188e-11	0	0	0	0	89
-78.971	3.3093e-12	0	0	0	0	30	2.7554e-12	0	0	0	0	89.1
-75.971	1.3061e-12	0	0	0	0	30	-1.4252e-11	0	0	0	0	89.2
-72.971	4.5887e-13	0	0	0	0	30	-6.238e-12	0	0	0	0	89.3
-69.971	5.8495e-14	0	0	0	0	30	-8.9798e-13	0	0	0	0	89.4
-66.971	2.7928e-13	0	0	0	0	30	-1.8958e-11	0	0	0	0	89.5
-63.971	-3.7331e-12	0	0	0	0	30	-1.6759e-12	0	0	0	0	89.6
-60.971	-5.5903e-14	0	0	0	0	30	5.6585e-12	0	0	0	0	89.7
-57.971	-2.6014e-12	0	0	0	0	30	1.6369e-12	0	0	0	0	89.8
-54.971	2.7148e-13	0	0	0	0	30	1.1667e-11	0	0	0	0	89.9
-51.971	-2.6803e-13	0	0	0	0	30	1.5895e-11	0	0	0	0	90
-48.971	3.4505e-12	0	0	0	0	30	8.0257e-13	0	0	0	0	90.1
-45.971	-1.0751e-13	0	0	0	0	30	-1.6216e-11	0	0	0	0	90.2
-42.971	2.0742e-13	0	0	0	0	30	1.0346e-11	0	0	0	0	90.3
-39.971	1.9617e-12	0	0	0	0	30	1.1681e-09	0	0	0	0	90.4
-36.971	2.3384e-10	0	0	0	0	30	4.6985e-11	0	0	0	0	90.5
-33.971	1.1359e-11	0	0	0	0	30	-1.1696e-09	0	0	0	0	90.6
-30.971	-8.2161e-14	0	0	0	0	30	-5.6563e-11	0	0	0	0	90.7
-27.971	4.6087e-14	0	0	0	0	30	7.4769e-12	0	0	0	0	90.8
-24.971	1.4132e-12	0	0	0	0	30	-1.7608e-11	0	0	0	0	90.9
-21.971	-3.4755e-12	0	0	0	0	30	-1.5954e-11	0	0	0	0	91
-18.971	-1.7776e-12	0	0	0	0	30	1.5628e-11	0	0	0	0	91.1
-15.971	-3.4985e-13	0	0	0	0	30	1.1982e-11	0	0	0	0	91.2
-12.971	6.1878e-13	0	0	0	0	30	2.4604e-11	0	0	0	0	91.3
-9.9706	4.571e-12	0	0	0	0	30	-3.4799e-12	0	0	0	0	91.4
-6.9706	-7.7206e-14	0	0	0	0	30	-2.2471e-11	0	0	0	0	91.5
-3.9706	7.6763e-14	0	0	0	0	30	1.4169e-11	0	0	0	0	91.6
-0.97063	2.7567e-12	0	0	0	0	30	1.4169e-11	0	0	0	0	91.7
