891	13	0.244346	0.279253
0	0	0	0	0	7.7421e-32	30	-0.0016065	0	0	0	0	0
3	-2.0736e-05	0	6.2832	0	-0.0024827	30	-0.0016065	0	-0.0010537	0	-0.047023	0.1
6	-0.0003213	0	6.283	0	-0.0094045	30	-0.0077692	0	-0.0032761	0	-0.087627	0.2
9	-0.0015746	0	6.2825	0	-0.020008	30	-0.022469	0	-0.0067055	0	-0.12086	0.3
12	-0.0048152	0	6.2816	0	-0.033577	30	-0.048976	0	-0.01111	0	-0.14714	0.4
15	-0.01137	0	6.2803	0	-0.049436	30	-0.089883	0	-0.016271	0	-0.16686	0.5
18	-0.022792	0	6.2784	0	-0.06695	30	-0.14715	0	-0.021986	0	-0.18044	0.6
21	-0.040801	0	6.2759	0	-0.085525	29.999	-0.22216	0	-0.028067	0	-0.18832	0.7
24	-0.067224	0	6.2728	0	-0.10461	29.998	-0.31574	0	-0.034339	0	-0.19098	0.8
27	-0.10395	0	6.269	0	-0.12372	29.997	-0.42822	0	-0.040645	0	-0.1889	0.9
29.999	-0.15287	0	6.2646	0	-0.14239	29.995	-0.55947	0	-0.04684	0	-0.18262	1
32.999	-0.21584	0	6.2596	0	-0.16024	29.991	-0.70896	0	-0.052793	0	-0.17268	1.1
35.997	-0.29466	0	6.2541	0	-0.17693	29.987	-0.87578	0	-0.058391	0	-0.15961	1.2
38.996	-0.391	0	6.248	0	-0.19217	29.981	-1.0587	0	-0.063532	0	-0.14393	1.3
41.994	-0.5064	0	6.2414	0	-0.20572	29.973	-1.2562	0	-0.068132	0	-0.12617	1.4
44.991	-0.64223	0	6.2343	0	-0.2174	29.964	-1.4665	0	-0.072119	0	-0.10678	1.5
47.986	-0.7997	0	6.2269	0	-0.22707	29.952	-1.6877	0	-0.075437	0	-0.086217	1.6
50.981	-0.97977	0	6.2193	0	-0.23464	29.938	-1.9177	0	-0.078044	0	-0.06489	1.7
53.974	-1.1832	0	6.2113	0	-0.24005	29.922	-2.1543	0	-0.079915	0	-0.043187	1.8
56.965	-1.4106	0	6.2033	0	-0.24328	29.904	-2.3952	0	-0.081035	0	-0.021477	1.9
59.955	-1.6623	0	6.1951	0	-0.24435	29.883	-2.6382	0	-0.081469	0	-0.0053326	2
62.942	-1.9383	0	6.187	0	-0.24435	29.861	-2.8817	0	-0.08153	0	0	2.1
65.927	-2.2386	0	6.1788	0	-0.24435	29.836	-3.1251	0	-0.08153	0	0	2.2
68.909	-2.5633	0	6.1707	0	-0.24435	29.81	-3.3682	0	-0.08153	0	0	2.3
71.889	-2.9122	0	6.1625	0	-0.24435	29.782	-3.6111	0	-0.08153	0	0	2.4
74.866	-3.2855	0	6.1544	0	-0.24435	29.751	-3.8538	0	-0.08153	0	0	2.5
77.839	-3.683	0	6.1462	0	-0.24435	29.719	-4.0963	0	-0.08153	0	0	2.6
80.81	-4.1048	0	6.1381	0	-0.24435	29.684	-4.3384	0	-0.08153	0	0	2.7
83.776	-4.5507	0	6.1299	0	-0.24435	29.648	-4.5803	0	-0.08153	0	0	2.8
86.739	-5.0208	0	6.1218	0	-0.24435	29.61	-4.8219	0	-0.08153	0	0	2.9
89.698	-5.5151	0	6.1136	0	-0.24435	29.569	-5.0631	0	-0.08153	0	0	3
92.653	-6.0334	0	6.1054	0	-0.24435	29.527	-5.304	0	-0.08153	0	0	3.1
95.604	-6.5759	0	6.0973	0	-0.24435	29.483	-5.5446	0	-0.08153	0	0	3.2
98.55	-7.1423	0	6.0891	0	-0.24435	29.437	-5.7847	0	-0.08153	0	0	3.3
101.49	-7.7328	0	6.081	0	-0.24435	29.389	-6.0245	0	-0.08153	0	0	3.4
104.43	-8.3473	0	6.0728	0	-0.24435	29.338	-6.264	0	-0.08153	0	0	3.5
107.36	-8.9856	0	6.0647	0	-0.24435	29.286	-6.5029	0	-0.08153	0	0	3.6
110.28	-9.6478	0	6.0565	0	-0.24435	29.232	-6.7415	0	-0.08153	0	0	3.7
113.21	-10.334	0	6.0484	0	-0.24435	29.176	-6.9796	0	-0.08153	0	0	3.8
116.12	-11.044	0	6.0402	0	-0.24435	29.119	-7.2172	0	-0.08153	0	0	3.9
119.03	-11.777	0	6.0321	0	-0.24435	29.059	-7.4544	0	-0.08153	0	0	4
121.93	-12.535	0	6.0239	0	-0.24435	28.997	-7.6911	0	-0.08153	0	0	4.1
124.83	-13.316	0	6.0158	0	-0.24435	28.933	-7.9272	0	-0.08153	0	0	4.2
127.72	-14.12	0	6.0076	0	-0.24435	28.868	-8.1629	0	-0.08153	0	0	4.3
130.6	-14.948	0	5.9995	0	-0.24435	28.8	-8.3979	0	-0.08153	0	0	4.4
133.48	-15.8	0	5.9913	0	-0.24435	28.731	-8.6325	0	-0.08153	0	0	4.5
136.35	-16.675	0	5.9832	0	-0.24435	28.659	-8.8664	0	-0.08153	0	0	4.6
139.21	-17.573	0	5.975	0	-0.24435	28.586	-9.0998	0	-0.08153	0	0	4.7
142.07	-18.495	0	5.9668	0	-0.24435	28.511	-9.3325	0	-0.08153	0	0	4.8
144.91	-19.439	0	5.9587	0	-0.24435	28.434	-9.5647	0	-0.08153	0	0	4.9
147.75	-20.408	0	5.9505	0	-0.24435	28.355	-9.7962	0	-0.08153	0	0	5
150.58	-21.399	0	5.9424	0	-0.24435	28.274	-10.027	0	-0.08153	0	0	5.1
153.41	-22.413	0	5.9342	0	-0.24435	28.192	-10.257	0	-0.08153	0	0	5.2
156.22	-23.45	0	5.9261	0	-0.24435	28.107	-10.487	0	-0.08153	0	0	5.3
159.03	-24.51	0	5.9179	0	-0.24435	28.021	-10.716	0	-0.08153	0	0	5.4
161.83	-25.593	0	5.9098	0	-0.24435	27.932	-10.944	0	-0.08153	0	0	5.5
164.61	-26.699	0	5.9016	0	-0.24435	27.842	-11.171	0	-0.08153	0	0	5.6
167.39	-27.827	0	5.8935	0	-0.24435	27.75	-11.398	0	-0.08153	0	0	5.7
170.16	-28.979	0	5.8853	0	-0.24435	27.656	-11.623	0	-0.08153	0	0	5.8
172.93	-30.152	0	5.8772	0	-0.24435	27.561	-11.849	0	-0.08153	0	0	5.9
175.68	-31.348	0	5.869	0	-0.24435	27.463	-12.073	0	-0.08153	0	0	6
178.42	-32.567	0	5.8609	0	-0.24435	27.364	-12.296	0	-0.08153	0	0	6.1
181.15	-33.808	0	5.8527	0	-0.24435	27.263	-12.519	0	-0.08153	0	0	6.2
183.87	-35.071	0	5.8446	0	-0.24435	27.16	-12.741	0	-0.08153	0	0	6.3
186.58	-36.356	0	5.8364	0	-0.24435	27.055	-12.962	0	-0.08153	0	0	6.4
189.28	-37.663	0	5.8282	0	-0.24435	26.948	-13.182	0	-0.08153	0	0	6.5
191.97	-38.992	0	5.8201	0	-0.24435	26.84	-13.401	0	-0.08153	0	0	6.6
194.65	-40.343	0	5.8119	0	-0.24435	26.73	-13.62	0	-0.08153	0	0	6.7
197.32	-41.716	0	5.8038	0	-0.24435	26.618	-13.837	0	-0.08153	0	0	6.8
199.97	-43.111	0	5.7956	0	-0.24435	26.504	-14.054	0	-0.08153	0	0	6.9
202.62	-44.527	0	5.7875	0	-0.24435	26.389	-14.269	0	-0.08153	0	0	7
205.25	-45.965	0	5.7793	0	-0.24435	26.272	-14.484	0	-0.08153	0	0	7.1
207.87	-47.424	0	5.7712	0	-0.24435	26.153	-14.698	0	-0.08153	0	0	7.2
210.48	-48.904	0	5.763	0	-0.24435	26.032	-14.91	0	-0.08153	0	0	7.3
213.08	-50.406	0	5.7549	0	-0.24435	25.909	-15.122	0	-0.08153	0	0	7.4
215.66	-51.929	0	5.7467	0	-0.24435	25.785	-15.333	0	-0.08153	0	0	7.5
218.24	-53.472	0	5.7386	0	-0.24435	25.659	-15.543	0	-0.08153	0	0	7.6
220.8	-55.037	0	5.7304	0	-0.24435	25.532	-15.751	0	-0.08153	0	0	7.7
223.34	-56.623	0	5.7223	0	-0.24435	25.403	-15.959	0	-0.08153	0	0	7.8
225.88	-58.229	0	5.7141	0	-0.24435	25.272	-16.166	0	-0.08153	0	0	7.9
228.4	-59.856	0	5.706	0	-0.24435	25.139	-16.371	0	-0.08153	0	0	8
230.9	-61.503	0	5.6978	0	-0.24435	25.005	-16.575	0	-0.08153	0	0	8.1
233.4	-63.171	0	5.6896	0	-0.24435	24.869	-16.779	0	-0.08153	0	0	8.2
235.88	-64.859	0	5.6815	0	-0.24435	24.731	-16.981	0	-0.08153	0	0	8.3
238.34	-66.567	0	5.6733	0	-0.24435	24.592	-17.182	0	-0.08153	0	0	8.4
240.8	-68.295	0	5.6652	0	-0.24435	24.451	-17.382	0	-0.08153	0	0	8.5
243.23	-70.043	0	5.657	0	-0.24435	24.308	-17.581	0	-0.08153	0	0	8.6
245.66	-71.811	0	5.6489	0	-0.24435	24.164	-17.778	0	-0.08153	0	0	8.7
248.07	-73.599	0	5.6407	0	-0.24435	24.018	-17.975	0	-0.08153	0	0	8.8
250.46	-75.406	0	5.6326	0	-0.24435	23.871	-18.17	0	-0.08153	0	0	8.9
252.84	-77.233	0	5.6244	0	-0.24435	23.722	-18.364	0	-0.08153	0	0	9
255.21	-79.079	0	5.6163	0	-0.24435	23.572	-18.557	0	-0.08153	0	0	9.1
257.56	-80.944	0	5.6081	0	-0.24435	23.42	-18.748	0	-0.08153	0	0	9.2
259.89	-82.829	0	5.6	0	-0.24435	23.266	-18.939	0	-0.08153	0	0	9.3
262.21	-84.732	0	5.5918	0	-0.24435	23.111	-19.128	0	-0.08153	0	0	9.4
264.51	-86.654	0	5.5837	0	-0.24435	22.954	-19.316	0	-0.08153	0	0	9.5
266.8	-88.595	0	5.5755	0	-0.24435	22.796	-19.502	0	-0.08153	0	0	9.6
269.07	-90.555	0	5.5673	0	-0.24435	22.636	-19.687	0	-0.08153	0	0	9.7
271.33	-92.533	0	5.5592	0	-0.24435	22.475	-19.871	0	-0.08153	0	0	9.8
273.57	-94.529	0	5.551	0	-0.24435	22.312	-20.054	0	-0.08153	0	0	9.9
275.79	-96.543	0	5.5429	0	-0.24435	22.148	-20.235	0	-0.08153	0	0	10
278	-98.576	0	5.5347	0	-0.24435	21.982	-20.415	0	-0.08153	0	0	10.1
280.19	-100.63	0	5.5266	0	-0.24435	21.815	-20.593	0	-0.08153	0	0	10.2
282.36	-102.69	0	5.5184	0	-0.24435	21.646	-20.771	0	-0.08153	0	0	10.3
284.51	-104.78	0	5.5103	0	-0.24435	21.476	-20.946	0	-0.08153	0	0	10.4
286.65	-106.88	0	5.5021	0	-0.24435	21.305	-21.121	0	-0.08153	0	0	10.5
288.78	-109	0	5.494	0	-0.24435	21.132	-21.294	0	-0.08153	0	0	10.6
290.88	-111.14	0	5.4858	0	-0.24435	20.958	-21.465	0	-0.08153	0	0	10.7
292.97	-113.3	0	5.4777	0	-0.24435	20.782	-21.635	0	-0.08153	0	0	10.8
295.04	-115.47	0	5.4695	0	-0.24435	20.605	-21.804	0	-0.08153	0	0	10.9
297.09	-117.66	0	5.4614	0	-0.24435	20.426	-21.971	0	-0.08153	0	0	11
299.12	-119.86	0	5.4532	0	-0.24435	20.247	-22.137	0	-0.08153	0	0	11.1
301.14	-122.09	0	5.4451	0	-0.24435	20.065	-22.302	0	-0.08153	0	0	11.2
303.13	-124.32	0	5.4369	0	-0.24435	19.883	-22.464	0	-0.08153	0	0	11.3
305.11	-126.58	0	5.4287	0	-0.24435	19.699	-22.626	0	-0.08153	0	0	11.4
307.07	-128.85	0	5.4206	0	-0.24435	19.514	-22.786	0	-0.08153	0	0	11.5
309.02	-131.14	0	5.4124	0	-0.24435	19.328	-22.944	0	-0.08153	0	0	11.6
310.94	-133.44	0	5.4043	0	-0.24435	19.14	-23.101	0	-0.08153	0	0	11.7
312.84	-135.76	0	5.3961	0	-0.24435	18.951	-23.256	0	-0.08153	0	0	11.8
314.73	-138.09	0	5.388	0	-0.24435	18.761	-23.41	0	-0.08153	0	0	11.9
316.6	-140.44	0	5.3798	0	-0.24435	18.569	-23.562	0	-0.08153	0	0	12
318.44	-142.8	0	5.3717	0	-0.24435	18.376	-23.713	0	-0.08153	0	0	12.1
320.27	-145.18	0	5.3635	0	-0.24435	18.182	-23.862	0	-0.08153	0	0	12.2
322.08	-147.57	0	5.3554	0	-0.24435	17.987	-24.009	0	-0.08153	0	0	12.3
323.87	-149.98	0	5.3472	0	-0.24435	17.791	-24.155	0	-0.08153	0	0	12.4
325.64	-152.41	0	5.3391	0	-0.24435	17.593	-24.299	0	-0.08153	0	0	12.5
327.39	-154.84	0	5.3309	0	-0.24435	17.395	-24.442	0	-0.08153	0	0	12.6
329.12	-157.29	0	5.3228	0	-0.24435	17.195	-24.583	0	-0.08153	0	0	12.7
330.83	-159.76	0	5.3146	0	-0.24435	16.994	-24.722	0	-0.08153	0	0	12.8
332.52	-162.24	0	5.3065	0	-0.24435	16.792	-24.86	0	-0.08153	0	0	12.9
334.19	-164.73	0	5.2983	0	-0.24435	16.589	-24.996	0	-0.08153	0	0	13
335.83	-167.24	0	5.2901	0	-0.24435	16.384	-25.13	0	-0.08153	0	0	13.1
337.46	-169.76	0	5.282	0	-0.24435	16.179	-25.263	0	-0.08153	0	0	13.2
339.07	-172.29	0	5.2738	0	-0.24435	15.972	-25.394	0	-0.08153	0	0	13.3
340.66	-174.84	0	5.2657	0	-0.24435	15.765	-25.524	0	-0.08153	0	0	13.4
342.22	-177.39	0	5.2575	0	-0.24435	15.556	-25.651	0	-0.08153	0	0	13.5
343.77	-179.97	0	5.2494	0	-0.24435	15.346	-25.777	0	-0.08153	0	0	13.6
345.29	-182.55	0	5.2412	0	-0.24435	15.136	-25.902	0	-0.08153	0	0	13.7
346.8	-185.15	0	5.2331	0	-0.24435	14.924	-26.024	0	-0.08153	0	0	13.8
348.28	-187.75	0	5.2249	0	-0.24435	14.711	-26.145	0	-0.08153	0	0	13.9
349.74	-190.38	0	5.2168	0	-0.24435	14.498	-26.264	0	-0.08153	0	0	14
351.18	-193.01	0	5.2086	0	-0.24435	14.283	-26.381	0	-0.08153	0	0	14.1
352.59	-195.65	0	5.2005	0	-0.24435	14.068	-26.497	0	-0.08153	0	0	14.2
353.99	-198.31	0	5.1923	0	-0.24435	13.851	-26.611	0	-0.08153	0	0	14.3
355.36	-200.97	0	5.1842	0	-0.24435	13.634	-26.723	0	-0.08153	0	0	14.4
356.72	-203.65	0	5.176	0	-0.24435	13.415	-26.833	0	-0.08153	0	0	14.5
358.05	-206.34	0	5.1679	0	-0.24435	13.196	-26.941	0	-0.08153	0	0	14.6
359.36	-209.04	0	5.1597	0	-0.24435	12.976	-27.048	0	-0.08153	0	0	14.7
360.64	-211.75	0	5.1515	0	-0.24435	12.755	-27.153	0	-0.08153	0	0	14.8
361.91	-214.47	0	5.1434	0	-0.24435	12.533	-27.256	0	-0.08153	0	0	14.9
363.15	-217.2	0	5.1352	0	-0.24435	12.311	-27.357	0	-0.08153	0	0	15
364.37	-219.94	0	5.1271	0	-0.24435	12.087	-27.457	0	-0.08153	0	0	15.1
365.57	-222.69	0	5.1189	0	-0.24435	11.863	-27.554	0	-0.08153	0	0	15.2
366.74	-225.45	0	5.1108	0	-0.24435	11.638	-27.65	0	-0.08153	0	0	15.3
367.89	-228.22	0	5.1026	0	-0.24435	11.412	-27.744	0	-0.08153	0	0	15.4
369.02	-231	0	5.0945	0	-0.24435	11.186	-27.836	0	-0.08153	0	0	15.5
370.13	-233.79	0	5.0863	0	-0.24435	10.958	-27.927	0	-0.08153	0	0	15.6
371.22	-236.59	0	5.0782	0	-0.24435	10.73	-28.015	0	-0.08153	0	0	15.7
372.28	-239.39	0	5.07	0	-0.24435	10.501	-28.102	0	-0.08153	0	0	15.8
373.32	-242.21	0	5.0619	0	-0.24435	10.272	-28.186	0	-0.08153	0	0	15.9
374.33	-245.03	0	5.0537	0	-0.24435	10.042	-28.269	0	-0.08153	0	0	16
375.32	-247.86	0	5.0456	0	-0.24435	9.811	-28.35	0	-0.08153	0	0	16.1
376.29	-250.7	0	5.0374	0	-0.24435	9.5795	-28.429	0	-0.08153	0	0	16.2
377.24	-253.55	0	5.0292	0	-0.24435	9.3474	-28.506	0	-0.08153	0	0	16.3
378.16	-256.4	0	5.0211	0	-0.24435	9.1147	-28.581	0	-0.08153	0	0	16.4
379.06	-259.26	0	5.0129	0	-0.24435	8.8814	-28.655	0	-0.08153	0	0	16.5
379.94	-262.13	0	5.0048	0	-0.24435	8.6475	-28.726	0	-0.08153	0	0	16.6
380.79	-265.01	0	4.9966	0	-0.24435	8.413	-28.796	0	-0.08153	0	0	16.7
381.62	-267.89	0	4.9885	0	-0.24435	8.1779	-28.863	0	-0.08153	0	0	16.8
382.43	-270.78	0	4.9803	0	-0.24435	7.9423	-28.929	0	-0.08153	0	0	16.9
383.21	-273.68	0	4.9722	0	-0.24435	7.7062	-28.993	0	-0.08153	0	0	17
383.97	-276.58	0	4.964	0	-0.24435	7.4696	-29.055	0	-0.08153	0	0	17.1
384.7	-279.49	0	4.9559	0	-0.24435	7.2325	-29.115	0	-0.08153	0	0	17.2
385.42	-282.4	0	4.9477	0	-0.24435	6.9948	-29.173	0	-0.08153	0	0	17.3
386.1	-285.32	0	4.9396	0	-0.24435	6.7568	-29.229	0	-0.08153	0	0	17.4
386.77	-288.25	0	4.9314	0	-0.24435	6.5182	-29.283	0	-0.08153	0	0	17.5
387.41	-291.18	0	4.9233	0	-0.24435	6.2793	-29.335	0	-0.08153	0	0	17.6
388.02	-294.12	0	4.9151	0	-0.24435	6.0399	-29.385	0	-0.08153	0	0	17.7
388.62	-297.06	0	4.907	0	-0.24435	5.8001	-29.434	0	-0.08153	0	0	17.8
389.18	-300	0	4.8988	0	-0.24435	5.56	-29.48	0	-0.08153	0	0	17.9
389.73	-302.95	0	4.8906	0	-0.24435	5.3194	-29.524	0	-0.08153	0	0	18
390.25	-305.91	0	4.8825	0	-0.24435	5.0786	-29.567	0	-0.08153	0	0	18.1
390.74	-308.87	0	4.8743	0	-0.24435	4.8373	-29.607	0	-0.08153	0	0	18.2
391.21	-311.83	0	4.8662	0	-0.24435	4.5958	-29.646	0	-0.08153	0	0	18.3
391.66	-314.8	0	4.858	0	-0.24435	4.3539	-29.682	0	-0.08153	0	0	18.4
392.09	-317.77	0	4.8499	0	-0.24435	4.1118	-29.717	0	-0.08153	0	0	18.5
392.48	-320.74	0	4.8417	0	-0.24435	3.8694	-29.749	0	-0.08153	0	0	18.6
392.86	-323.71	0	4.8336	0	-0.24435	3.6267	-29.78	0	-0.08153	0	0	18.7
393.21	-326.69	0	4.8254	0	-0.24435	3.3838	-29.808	0	-0.08153	0	0	18.8
393.54	-329.68	0	4.8173	0	-0.24435	3.1407	-29.835	0	-0.08153	0	0	18.9
393.84	-332.66	0	4.8091	0	-0.24435	2.8973	-29.859	0	-0.08153	0	0	19
394.12	-335.65	0	4.801	0	-0.24435	2.6538	-29.882	0	-0.08153	0	0	19.1
394.37	-338.64	0	4.7928	0	-0.24435	2.4101	-29.903	0	-0.08153	0	0	19.2
394.6	-341.63	0	4.7847	0	-0.24435	2.1662	-29.921	0	-0.08153	0	0	19.3
394.8	-344.62	0	4.7765	0	-0.24435	1.9222	-29.938	0	-0.08153	0	0	19.4
394.98	-347.62	0	4.7684	0	-0.24435	1.678	-29.953	0	-0.08153	0	0	19.5
395.14	-350.61	0	4.7602	0	-0.24435	1.4338	-29.965	0	-0.08153	0	0	19.6
395.27	-353.61	0	4.752	0	-0.24435	1.1894	-29.976	0	-0.08153	0	0	19.7
395.38	-356.61	0	4.7439	0	-0.24435	0.94497	-29.985	0	-0.08153	0	0	19.8
395.46	-359.61	0	4.7357	0	-0.24435	0.70048	-29.991	0	-0.08153	0	0	19.9
395.52	-362.61	0	4.7276	0	-0.24435	0.45594	-29.996	0	-0.08153	0	0	20
395.55	-365.61	0	4.7194	0	-0.24435	0.21136	-29.999	0	-0.08153	0	0	20.1
395.56	-368.61	0	4.7113	0	-0.24435	-0.033224	-30	0	-0.08153	0	0	20.2
395.54	-371.61	0	4.7031	0	-0.24435	-0.27781	-29.998	0	-0.08153	0	0	20.3
395.5	-374.61	0	4.695	0	-0.24435	-0.52237	-29.995	0	-0.08153	0	0	20.4
395.44	-377.6	0	4.6868	0	-0.24435	-0.7669	-29.99	0	-0.08153	0	0	20.5
395.35	-380.6	0	4.6787	0	-0.24435	-1.0114	-29.983	0	-0.08153	0	0	20.6
395.24	-383.6	0	4.6705	0	-0.24435	-1.2558	-29.973	0	-0.08153	0	0	20.7
395.1	-386.6	0	4.6624	0	-0.24435	-1.5001	-29.962	0	-0.08153	0	0	20.8
394.94	-389.59	0	4.6542	0	-0.24435	-1.7444	-29.949	0	-0.08153	0	0	20.9
394.75	-392.59	0	4.6461	0	-0.24435	-1.9885	-29.934	0	-0.08153	0	0	21
394.54	-395.58	0	4.6379	0	-0.24435	-2.2325	-29.916	0	-0.08153	0	0	21.1
394.3	-398.57	0	4.6298	0	-0.24435	-2.4763	-29.897	0	-0.08153	0	0	21.2
394.04	-401.56	0	4.6216	0	-0.24435	-2.72	-29.876	0	-0.08153	0	0	21.3
393.76	-404.55	0	4.6134	0	-0.24435	-2.9634	-29.853	0	-0.08153	0	0	21.4
393.45	-407.53	0	4.6053	0	-0.24435	-3.2067	-29.828	0	-0.08153	0	0	21.5
393.12	-410.51	0	4.5971	0	-0.24435	-3.4498	-29.801	0	-0.08153	0	0	21.6
392.76	-413.49	0	4.589	0	-0.24435	-3.6927	-29.772	0	-0.08153	0	0	21.7
392.38	-416.47	0	4.5808	0	-0.24435	-3.9353	-29.74	0	-0.08153	0	0	21.8
391.97	-419.44	0	4.5727	0	-0.24435	-4.1776	-29.707	0	-0.08153	0	0	21.9
391.54	-422.41	0	4.5645	0	-0.24435	-4.4197	-29.672	0	-0.08153	0	0	22
391.09	-425.37	0	4.5564	0	-0.24435	-4.6614	-29.635	0	-0.08153	0	0	22.1
390.61	-428.33	0	4.5482	0	-0.24435	-4.9029	-29.596	0	-0.08153	0	0	22.2
390.11	-431.29	0	4.5401	0	-0.24435	-5.144	-29.555	0	-0.08153	0	0	22.3
389.58	-434.25	0	4.5319	0	-0.24435	-5.3848	-29.512	0	-0.08153	0	0	22.4
389.03	-437.19	0	4.5238	0	-0.24435	-5.6253	-29.468	0	-0.08153	0	0	22.5
388.46	-440.14	0	4.5156	0	-0.24435	-5.8653	-29.421	0	-0.08153	0	0	22.6
387.86	-443.08	0	4.5075	0	-0.24435	-6.105	-29.372	0	-0.08153	0	0	22.7
387.24	-446.01	0	4.4993	0	-0.24435	-6.3442	-29.321	0	-0.08153	0	0	22.8
386.59	-448.94	0	4.4911	0	-0.24435	-6.5831	-29.268	0	-0.08153	0	0	22.9
385.92	-451.87	0	4.483	0	-0.24435	-6.8215	-29.214	0	-0.08153	0	0	23
385.23	-454.79	0	4.4748	0	-0.24435	-7.0594	-29.157	0	-0.08153	0	0	23.1
384.51	-457.7	0	4.4667	0	-0.24435	-7.2969	-29.099	0	-0.08153	0	0	23.2
383.77	-460.61	0	4.4585	0	-0.24435	-7.5339	-29.038	0	-0.08153	0	0	23.3
383	-463.51	0	4.4504	0	-0.24435	-7.7704	-28.976	0	-0.08153	0	0	23.4
382.21	-466.4	0	4.4422	0	-0.24435	-8.0064	-28.912	0	-0.08153	0	0	23.5
381.4	-469.29	0	4.4341	0	-0.24435	-8.2419	-28.845	0	-0.08153	0	0	23.6
380.56	-472.17	0	4.4259	0	-0.24435	-8.4768	-28.777	0	-0.08153	0	0	23.7
379.7	-475.04	0	4.4178	0	-0.24435	-8.7111	-28.707	0	-0.08153	0	0	23.8
378.82	-477.91	0	4.4096	0	-0.24435	-8.9448	-28.635	0	-0.08153	0	0	23.9
377.92	-480.77	0	4.4015	0	-0.24435	-9.178	-28.561	0	-0.08153	0	0	24
376.99	-483.62	0	4.3933	0	-0.24435	-9.4106	-28.485	0	-0.08153	0	0	24.1
376.03	-486.47	0	4.3852	0	-0.24435	-9.6425	-28.408	0	-0.08153	0	0	24.2
375.06	-489.31	0	4.377	0	-0.24435	-9.8738	-28.328	0	-0.08153	0	0	24.3
374.06	-492.13	0	4.3689	0	-0.24435	-10.104	-28.247	0	-0.08153	0	0	24.4
373.04	-494.95	0	4.3607	0	-0.24435	-10.334	-28.163	0	-0.08153	0	0	24.5
371.99	-497.77	0	4.3525	0	-0.24435	-10.564	-28.078	0	-0.08153	0	0	24.6
370.92	-500.57	0	4.3444	0	-0.24435	-10.792	-27.991	0	-0.08153	0	0	24.7
369.83	-503.36	0	4.3362	0	-0.24435	-11.02	-27.902	0	-0.08153	0	0	24.8
368.72	-506.15	0	4.3281	0	-0.24435	-11.247	-27.812	0	-0.08153	0	0	24.9
367.58	-508.93	0	4.3199	0	-0.24435	-11.474	-27.719	0	-0.08153	0	0	25
366.42	-511.69	0	4.3118	0	-0.24435	-11.699	-27.624	0	-0.08153	0	0	25.1
365.24	-514.45	0	4.3036	0	-0.24435	-11.924	-27.528	0	-0.08153	0	0	25.2
364.04	-517.2	0	4.2955	0	-0.24435	-12.148	-27.43	0	-0.08153	0	0	25.3
362.81	-519.94	0	4.2873	0	-0.24435	-12.371	-27.33	0	-0.08153	0	0	25.4
361.57	-522.67	0	4.2792	0	-0.24435	-12.594	-27.228	0	-0.08153	0	0	25.5
360.3	-525.38	0	4.271	0	-0.24435	-12.815	-27.125	0	-0.08153	0	0	25.6
359	-528.09	0	4.2629	0	-0.24435	-13.036	-27.019	0	-0.08153	0	0	25.7
357.69	-530.79	0	4.2547	0	-0.24435	-13.256	-26.912	0	-0.08153	0	0	25.8
356.35	-533.47	0	4.2466	0	-0.24435	-13.475	-26.803	0	-0.08153	0	0	25.9
354.99	-536.15	0	4.2384	0	-0.24435	-13.693	-26.692	0	-0.08153	0	0	26
353.61	-538.81	0	4.2303	0	-0.24435	-13.91	-26.58	0	-0.08153	0	0	26.1
352.21	-541.46	0	4.2221	0	-0.24435	-14.126	-26.466	0	-0.08153	0	0	26.2
350.79	-544.11	0	4.2139	0	-0.24435	-14.342	-26.35	0	-0.08153	0	0	26.3
349.34	-546.73	0	4.2058	0	-0.24435	-14.556	-26.232	0	-0.08153	0	0	26.4
347.88	-549.35	0	4.1976	0	-0.24435	-14.769	-26.112	0	-0.08153	0	0	26.5
346.39	-551.96	0	4.1895	0	-0.24435	-14.982	-25.991	0	-0.08153	0	0	26.6
344.88	-554.55	0	4.1813	0	-0.24435	-15.193	-25.868	0	-0.08153	0	0	26.7
343.35	-557.13	0	4.1732	0	-0.24435	-15.404	-25.743	0	-0.08153	0	0	26.8
341.8	-559.7	0	4.165	0	-0.24435	-15.613	-25.617	0	-0.08153	0	0	26.9
340.23	-562.25	0	4.1569	0	-0.24435	-15.821	-25.489	0	-0.08153	0	0	27
338.64	-564.8	0	4.1487	0	-0.24435	-16.028	-25.359	0	-0.08153	0	0	27.1
337.02	-567.33	0	4.1406	0	-0.24435	-16.235	-25.227	0	-0.08153	0	0	27.2
335.39	-569.84	0	4.1324	0	-0.24435	-16.44	-25.094	0	-0.08153	0	0	27.3
333.73	-572.34	0	4.1243	0	-0.24435	-16.644	-24.959	0	-0.08153	0	0	27.4
332.06	-574.83	0	4.1161	0	-0.24435	-16.847	-24.823	0	-0.08153	0	0	27.5
330.36	-577.31	0	4.108	0	-0.24435	-17.049	-24.684	0	-0.08153	0	0	27.6
328.65	-579.77	0	4.0998	0	-0.24435	-17.249	-24.545	0	-0.08153	0	0	27.7
326.91	-582.22	0	4.0917	0	-0.24435	-17.449	-24.403	0	-0.08153	0	0	27.8
325.16	-584.65	0	4.0835	0	-0.24435	-17.647	-24.26	0	-0.08153	0	0	27.9
323.39	-587.07	0	4.0753	0	-0.24435	-17.844	-24.115	0	-0.08153	0	0	28
321.59	-589.47	0	4.0672	0	-0.24435	-18.04	-23.969	0	-0.08153	0	0	28.1
319.78	-591.86	0	4.059	0	-0.24435	-18.235	-23.821	0	-0.08153	0	0	28.2
317.94	-594.24	0	4.0509	0	-0.24435	-18.429	-23.672	0	-0.08153	0	0	28.3
316.09	-596.6	0	4.0427	0	-0.24435	-18.621	-23.521	0	-0.08153	0	0	28.4
314.22	-598.94	0	4.0346	0	-0.24435	-18.812	-23.368	0	-0.08153	0	0	28.5
312.33	-601.27	0	4.0264	0	-0.24435	-19.002	-23.214	0	-0.08153	0	0	28.6
310.42	-603.59	0	4.0183	0	-0.24435	-19.191	-23.058	0	-0.08153	0	0	28.7
308.49	-605.88	0	4.0101	0	-0.24435	-19.378	-22.901	0	-0.08153	0	0	28.8
306.54	-608.17	0	4.002	0	-0.24435	-19.564	-22.742	0	-0.08153	0	0	28.9
304.58	-610.43	0	3.9938	0	-0.24435	-19.749	-22.582	0	-0.08153	0	0	29
302.59	-612.68	0	3.9857	0	-0.24435	-19.933	-22.42	0	-0.08153	0	0	29.1
300.59	-614.92	0	3.9775	0	-0.24435	-20.115	-22.257	0	-0.08153	0	0	29.2
298.57	-617.13	0	3.9694	0	-0.24435	-20.296	-22.092	0	-0.08153	0	0	29.3
296.53	-619.33	0	3.9612	0	-0.24435	-20.475	-21.926	0	-0.08153	0	0	29.4
294.48	-621.52	0	3.9531	0	-0.24435	-20.653	-21.758	0	-0.08153	0	0	29.5
292.4	-623.69	0	3.9449	0	-0.24435	-20.83	-21.589	0	-0.08153	0	0	29.6
290.31	-625.84	0	3.9367	0	-0.24435	-21.005	-21.419	0	-0.08153	0	0	29.7
288.2	-627.97	0	3.9286	0	-0.24435	-21.179	-21.247	0	-0.08153	0	0	29.8
286.07	-630.09	0	3.9204	0	-0.24435	-21.352	-21.073	0	-0.08153	0	0	29.9
283.93	-632.18	0	3.9123	0	-0.24435	-21.523	-20.899	0	-0.08153	0	0	30
281.77	-634.27	0	3.9041	0	-0.24435	-21.692	-20.723	0	-0.08153	0	0	30.1
279.59	-636.33	0	3.896	0	-0.24435	-21.861	-20.545	0	-0.08153	0	0	30.2
277.4	-638.37	0	3.8878	0	-0.24435	-22.027	-20.366	0	-0.08153	0	0	30.3
275.19	-640.4	0	3.8797	0	-0.24435	-22.193	-20.186	0	-0.08153	0	0	30.4
272.96	-642.41	0	3.8715	0	-0.24435	-22.356	-20.004	0	-0.08153	0	0	30.5
270.72	-644.4	0	3.8634	0	-0.24435	-22.519	-19.821	0	-0.08153	0	0	30.6
268.46	-646.38	0	3.8552	0	-0.24435	-22.68	-19.637	0	-0.08153	0	0	30.7
266.18	-648.33	0	3.8471	0	-0.24435	-22.839	-19.451	0	-0.08153	0	0	30.8
263.89	-650.27	0	3.8389	0	-0.24435	-22.997	-19.265	0	-0.08153	0	0	30.9
261.58	-652.18	0	3.8308	0	-0.24435	-23.153	-19.077	0	-0.08153	0	0	31
259.26	-654.08	0	3.8226	0	-0.24435	-23.308	-18.887	0	-0.08153	0	0	31.1
256.92	-655.96	0	3.8144	0	-0.24435	-23.461	-18.696	0	-0.08153	0	0	31.2
254.56	-657.82	0	3.8063	0	-0.24435	-23.613	-18.505	0	-0.08153	0	0	31.3
252.2	-659.66	0	3.7981	0	-0.24435	-23.763	-18.311	0	-0.08153	0	0	31.4
249.81	-661.48	0	3.79	0	-0.24435	-23.911	-18.117	0	-0.08153	0	0	31.5
247.41	-663.29	0	3.7818	0	-0.24435	-24.058	-17.922	0	-0.08153	0	0	31.6
245	-665.07	0	3.7737	0	-0.24435	-24.204	-17.725	0	-0.08153	0	0	31.7
242.57	-666.83	0	3.7655	0	-0.24435	-24.347	-17.527	0	-0.08153	0	0	31.8
240.13	-668.57	0	3.7574	0	-0.24435	-24.489	-17.328	0	-0.08153	0	0	31.9
237.67	-670.3	0	3.7492	0	-0.24435	-24.63	-17.128	0	-0.08153	0	0	32
235.21	-672	0	3.7411	0	-0.24435	-24.769	-16.926	0	-0.08153	0	0	32.1
232.72	-673.68	0	3.7329	0	-0.24435	-24.906	-16.724	0	-0.08153	0	0	32.2
230.22	-675.34	0	3.7248	0	-0.24435	-25.041	-16.52	0	-0.08153	0	0	32.3
227.71	-676.98	0	3.7166	0	-0.24435	-25.175	-16.315	0	-0.08153	0	0	32.4
225.19	-678.61	0	3.7085	0	-0.24435	-25.307	-16.11	0	-0.08153	0	0	32.5
222.65	-680.21	0	3.7003	0	-0.24435	-25.438	-15.903	0	-0.08153	0	0	32.6
220.1	-681.79	0	3.6922	0	-0.24435	-25.567	-15.695	0	-0.08153	0	0	32.7
217.54	-683.35	0	3.684	0	-0.24435	-25.694	-15.486	0	-0.08153	0	0	32.8
214.96	-684.88	0	3.6758	0	-0.24435	-25.819	-15.276	0	-0.08153	0	0	32.9
212.37	-686.4	0	3.6677	0	-0.24435	-25.943	-15.065	0	-0.08153	0	0	33
209.77	-687.9	0	3.6595	0	-0.24435	-26.065	-14.853	0	-0.08153	0	0	33.1
207.16	-689.37	0	3.6514	0	-0.24435	-26.185	-14.64	0	-0.08153	0	0	33.2
204.54	-690.82	0	3.6432	0	-0.24435	-26.304	-14.426	0	-0.08153	0	0	33.3
201.9	-692.26	0	3.6351	0	-0.24435	-26.42	-14.211	0	-0.08153	0	0	33.4
199.25	-693.67	0	3.6269	0	-0.24435	-26.535	-13.995	0	-0.08153	0	0	33.5
196.59	-695.06	0	3.6188	0	-0.24435	-26.648	-13.778	0	-0.08153	0	0	33.6
193.92	-696.42	0	3.6106	0	-0.24435	-26.76	-13.56	0	-0.08153	0	0	33.7
191.24	-697.77	0	3.6025	0	-0.24435	-26.87	-13.342	0	-0.08153	0	0	33.8
188.55	-699.09	0	3.5943	0	-0.24435	-26.977	-13.122	0	-0.08153	0	0	33.9
185.85	-700.39	0	3.5862	0	-0.24435	-27.084	-12.902	0	-0.08153	0	0	34
183.13	-701.67	0	3.578	0	-0.24435	-27.188	-12.681	0	-0.08153	0	0	34.1
180.41	-702.93	0	3.5699	0	-0.24435	-27.29	-12.459	0	-0.08153	0	0	34.2
177.67	-704.16	0	3.5617	0	-0.24435	-27.391	-12.236	0	-0.08153	0	0	34.3
174.93	-705.38	0	3.5536	0	-0.24435	-27.49	-12.012	0	-0.08153	0	0	34.4
172.18	-706.57	0	3.5454	0	-0.24435	-27.587	-11.787	0	-0.08153	0	0	34.5
169.41	-707.73	0	3.5372	0	-0.24435	-27.682	-11.562	0	-0.08153	0	0	34.6
166.64	-708.88	0	3.5291	0	-0.24435	-27.775	-11.336	0	-0.08153	0	0	34.7
163.86	-710	0	3.5209	0	-0.24435	-27.867	-11.109	0	-0.08153	0	0	34.8
161.07	-711.1	0	3.5128	0	-0.24435	-27.957	-10.882	0	-0.08153	0	0	34.9
158.27	-712.18	0	3.5046	0	-0.24435	-28.044	-10.653	0	-0.08153	0	0	35
155.46	-713.23	0	3.4965	0	-0.24435	-28.13	-10.424	0	-0.08153	0	0	35.1
152.64	-714.26	0	3.4883	0	-0.24435	-28.214	-10.195	0	-0.08153	0	0	35.2
149.82	-715.27	0	3.4802	0	-0.24435	-28.296	-9.9644	0	-0.08153	0	0	35.3
146.98	-716.25	0	3.472	0	-0.24435	-28.377	-9.7334	0	-0.08153	0	0	35.4
144.14	-717.22	0	3.4639	0	-0.24435	-28.455	-9.5017	0	-0.08153	0	0	35.5
141.29	-718.15	0	3.4557	0	-0.24435	-28.532	-9.2694	0	-0.08153	0	0	35.6
138.43	-719.07	0	3.4476	0	-0.24435	-28.606	-9.0365	0	-0.08153	0	0	35.7
135.57	-719.96	0	3.4394	0	-0.24435	-28.679	-8.8029	0	-0.08153	0	0	35.8
132.7	-720.83	0	3.4313	0	-0.24435	-28.75	-8.5688	0	-0.08153	0	0	35.9
129.82	-721.68	0	3.4231	0	-0.24435	-28.819	-8.3341	0	-0.08153	0	0	36
126.93	-722.5	0	3.415	0	-0.24435	-28.886	-8.0989	0	-0.08153	0	0	36.1
124.04	-723.3	0	3.4068	0	-0.24435	-28.951	-7.8631	0	-0.08153	0	0	36.2
121.14	-724.07	0	3.3986	0	-0.24435	-29.014	-7.6268	0	-0.08153	0	0	36.3
118.24	-724.82	0	3.3905	0	-0.24435	-29.075	-7.39	0	-0.08153	0	0	36.4
115.33	-725.55	0	3.3823	0	-0.24435	-29.134	-7.1527	0	-0.08153	0	0	36.5
112.41	-726.25	0	3.3742	0	-0.24435	-29.192	-6.915	0	-0.08153	0	0	36.6
109.49	-726.93	0	3.366	0	-0.24435	-29.247	-6.6767	0	-0.08153	0	0	36.7
106.56	-727.59	0	3.3579	0	-0.24435	-29.301	-6.4381	0	-0.08153	0	0	36.8
103.63	-728.22	0	3.3497	0	-0.24435	-29.352	-6.199	0	-0.08153	0	0	36.9
100.69	-728.83	0	3.3416	0	-0.24435	-29.402	-5.9595	0	-0.08153	0	0	37
97.75	-729.41	0	3.3334	0	-0.24435	-29.449	-5.7196	0	-0.08153	0	0	37.1
94.802	-729.97	0	3.3253	0	-0.24435	-29.495	-5.4793	0	-0.08153	0	0	37.2
91.851	-730.51	0	3.3171	0	-0.24435	-29.539	-5.2386	0	-0.08153	0	0	37.3
88.895	-731.02	0	3.309	0	-0.24435	-29.58	-4.9976	0	-0.08153	0	0	37.4
85.935	-731.51	0	3.3008	0	-0.24435	-29.62	-4.7563	0	-0.08153	0	0	37.5
82.971	-731.97	0	3.2927	0	-0.24435	-29.658	-4.5146	0	-0.08153	0	0	37.6
80.003	-732.41	0	3.2845	0	-0.24435	-29.694	-4.2727	0	-0.08153	0	0	37.7
77.032	-732.82	0	3.2763	0	-0.24435	-29.728	-4.0304	0	-0.08153	0	0	37.8
74.057	-733.21	0	3.2682	0	-0.24435	-29.76	-3.7879	0	-0.08153	0	0	37.9
71.08	-733.58	0	3.26	0	-0.24435	-29.789	-3.5452	0	-0.08153	0	0	38
68.1	-733.92	0	3.2519	0	-0.24435	-29.817	-3.3022	0	-0.08153	0	0	38.1
65.116	-734.24	0	3.2437	0	-0.24435	-29.843	-3.059	0	-0.08153	0	0	38.2
62.131	-734.54	0	3.2356	0	-0.24435	-29.867	-2.8155	0	-0.08153	0	0	38.3
59.143	-734.81	0	3.2274	0	-0.24435	-29.889	-2.5719	0	-0.08153	0	0	38.4
56.153	-735.05	0	3.2193	0	-0.24435	-29.909	-2.3282	0	-0.081488	0	0.0053657	38.5
53.161	-735.27	0	3.2111	0	-0.24327	-29.927	-2.085	0	-0.080907	0	0.031537	38.6
50.168	-735.47	0	3.2031	0	-0.23804	-29.943	-1.8452	0	-0.079129	0	0.071016	38.7
47.173	-735.64	0	3.1953	0	-0.22907	-29.956	-1.6125	0	-0.07607	0	0.10513	38.8
44.176	-735.79	0	3.1879	0	-0.21701	-29.967	-1.3904	0	-0.071961	0	0.13299	38.9
41.179	-735.92	0	3.1809	0	-0.20247	-29.976	-1.182	0	-0.067025	0	0.15494	39
38.181	-736.03	0	3.1745	0	-0.18602	-29.983	-0.98926	0	-0.061471	0	0.17129	39.1
35.182	-736.12	0	3.1686	0	-0.16821	-29.989	-0.81378	0	-0.05549	0	0.18229	39.2
32.183	-736.19	0	3.1634	0	-0.14956	-29.993	-0.65669	0	-0.049262	0	0.18824	39.3
29.184	-736.25	0	3.1588	0	-0.13057	-29.995	-0.51841	0	-0.042951	0	0.18944	39.4
26.184	-736.29	0	3.1548	0	-0.11168	-29.997	-0.39896	0	-0.036705	0	0.18622	39.5
23.184	-736.33	0	3.1514	0	-0.093321	-29.998	-0.29799	0	-0.030658	0	0.17898	39.6
20.184	-736.35	0	3.1487	0	-0.075881	-29.999	-0.21471	0	-0.024932	0	0.16811	39.7
17.185	-736.37	0	3.1464	0	-0.059698	-30	-0.14798	0	-0.019631	0	0.15409	39.8
14.185	-736.38	0	3.1447	0	-0.045063	-30	-0.096375	0	-0.014845	0	0.13738	39.9
11.185	-736.39	0	3.1435	0	-0.032222	-30	-0.05835	0	-0.010649	0	0.11846	40
8.1846	-736.39	0	3.1426	0	-0.021371	-30	-0.031859	0	-0.0071064	0	0.097816	40.1
5.1846	-736.4	0	3.1421	0	-0.012659	-30	-0.014913	0	-0.0042619	0	0.075932	40.2
2.1846	-736.4	0	3.1417	0	-0.006185	-30	-0.0057412	0	-0.0021476	0	0.053278	40.3
-0.81543	-736.4	0	3.1416	0	-0.0020033	-30	-0.0012371	0	-0.00078052	0	0.030318	40.4
-3.8154	-736.4	0	3.1416	0	-0.00012144	-30	-7.13e-05	0	-0.00014468	0	0.010017	40.5
-6.8154	-736.4	0	3.1416	0	0	-30	-0.00025781	0	-2.172e-06	0	0.00060722	40.6
-9.8154	-736.4	0	3.1416	0	0	-30	0.00030484	0	0	0	0	40.7
-12.815	-736.4	0	3.1416	0	0	-30	9.4562e-05	0	0	0	0	40.8
-15.815	-736.4	0	3.1416	0	0	-30	-0.00022648	0	0	0	0	40.9
-18.815	-736.4	0	3.1416	0	0	-30	-1.6626e-05	0	0	0	0	41
-21.815	-736.4	0	3.1416	0	0	-30	0.0004118	0	0	0	0	41.1
-24.815	-736.4	0	3.1416	0	0	-30	2.765e-06	0	0	0	0	41.2
-27.815	-736.4	0	3.1416	0	0	-30	-0.00044226	0	0	0	0	41.3
-30.815	-736.4	0	3.1416	0	0	-30	0.00020413	0	0	0	0	41.4
-33.815	-736.4	0	3.1416	0	0	-30	0.00037211	0	0	0	0	41.5
-36.815	-736.4	0	3.1416	0	0	-30	-0.0002545	0	0	0	0	41.6
-39.815	-736.4	0	3.1416	0	0	-30	-0.00039295	0	0	0	0	41.7
-42.815	-736.4	0	3.1416	0	0	-30	0.00032313	0	0	0	0	41.8
-45.815	-736.4	0	3.1416	0	0	-30	0.00014609	0	0	0	0	41.9
-48.815	-736.4	0	3.1416	0	0	-30	-0.00034992	0	0	0	0	42
-51.815	-736.4	0	3.1416	0	0	-30	-0.00017431	0	0	0	0	42.1
-54.815	-736.4	0	3.1416	0	0	-30	0.00025102	0	0	0	0	42.2
-57.815	-736.4	0	3.1416	0	0	-30	-1.2697e-06	0	0	0	0	42.3
-60.815	-736.4	0	3.1416	0	0	-30	-0.00025309	0	0	0	0	42.4
-63.815	-736.4	0	3.1416	0	0	-30	0.00014587	0	0	0	0	42.5
-66.815	-736.4	0	3.1416	0	0	-30	-8.0971e-05	0	0	0	0	42.6
-69.815	-736.4	0	3.1416	0	0	-30	-0.0001493	0	0	0	0	42.7
-72.815	-736.4	0	3.1416	0	0	-30	8.5222e-05	0	0	0	0	42.8
-75.815	-736.4	0	3.1416	0	0	-30	7.2337e-05	0	0	0	0	42.9
-78.815	-736.4	0	3.1416	0	0	-30	-1.0465e-05	0	0	0	0	43
-81.815	-736.4	0	3.1416	0	0	-30	-7.0764e-05	0	0	0	0	43.1
-84.815	-736.4	0	3.1416	0	0	-30	3.1892e-05	0	0	0	0	43.2
-87.815	-736.4	0	3.1416	0	0	-30	1.6998e-05	0	0	0	0	43.3
-90.815	-736.4	0	3.1416	0	0	-30	-6.3992e-05	0	0	0	0	43.4
-93.815	-736.4	0	3.1416	0	0	-30	3.6879e-05	0	0	0	0	43.5
-96.815	-736.4	0	3.1416	0	0	-30	0.00026676	0	0	0	0	43.6
-99.815	-736.4	0	3.1416	0	0	-30	1.1793e-05	0	0	0	0	43.7
-102.82	-736.4	0	3.1416	0	0	-30	-0.0002367	0	0	0	0	43.8
-105.82	-736.4	0	3.1416	0	0	-30	-0.00010957	0	0	0	0	43.9
-108.82	-736.4	0	3.1416	0	0	-30	9.8237e-05	0	0	0	0	44
-111.82	-736.4	0	3.1416	0	0	-30	3.1035e-06	0	0	0	0	44.1
-114.82	-736.4	0	3.1416	0	0	-30	-0.00011251	0	0	0	0	44.2
-117.82	-736.4	0	3.1416	0	0	-30	0.00016207	0	0	0	0	44.3
-120.82	-736.4	0	3.1416	0	0	-30	-6.5055e-05	0	0	0	0	44.4
-123.82	-736.4	0	3.1416	0	0	-30	-7.3731e-05	0	-4.2082e-05	0	-0.0056977	44.5
-126.82	-736.4	0	3.1416	0	-0.0011395	-30	0.00097173	0	-0.00062343	0	-0.033445	44.6
-129.82	-736.4	0	3.1415	0	-0.006689	-30	0.0048586	0	-0.0024013	0	-0.075124	44.7
-132.82	-736.4	0	3.1411	0	-0.016164	-30	0.016431	0	-0.0054606	0	-0.11073	44.8
-135.82	-736.39	0	3.1404	0	-0.028836	-30	0.038932	0	-0.0095693	0	-0.13925	44.9
-138.82	-736.39	0	3.1392	0	-0.044015	-30	0.074654	0	-0.014505	0	-0.16108	45
-141.82	-736.38	0	3.1375	0	-0.061053	-30	0.12645	0	-0.02006	0	-0.17663	45.1
-144.82	-736.36	0	3.1352	0	-0.079342	-29.999	0.19552	0	-0.02604	0	-0.18634	45.2
-147.82	-736.34	0	3.1323	0	-0.09832	-29.999	0.28289	0	-0.032268	0	-0.19065	45.3
-150.82	-736.31	0	3.1287	0	-0.11747	-29.997	0.38924	0	-0.03858	0	-0.19007	45.4
-153.81	-736.26	0	3.1246	0	-0.13633	-29.995	0.5143	0	-0.044826	0	-0.18511	45.5
-156.81	-736.2	0	3.1198	0	-0.15449	-29.993	0.65788	0	-0.050872	0	-0.17631	45.6
-159.81	-736.13	0	3.1144	0	-0.1716	-29.989	0.81916	0	-0.056598	0	-0.16421	45.7
-162.81	-736.04	0	3.1084	0	-0.18734	-29.983	0.99694	0	-0.0619	0	-0.14934	45.8
-165.81	-735.93	0	3.102	0	-0.20146	-29.976	1.1898	0	-0.066686	0	-0.1322	45.9
-168.81	-735.8	0	3.0951	0	-0.21378	-29.967	1.3961	0	-0.070881	0	-0.1133	46
-171.8	-735.65	0	3.0878	0	-0.22412	-29.956	1.614	0	-0.074424	0	-0.093075	46.1
-174.8	-735.48	0	3.0802	0	-0.23239	-29.943	1.8412	0	-0.077268	0	-0.071954	46.2
-177.79	-735.28	0	3.0724	0	-0.23851	-29.928	2.0761	0	-0.079383	0	-0.050333	46.3
-180.78	-735.06	0	3.0643	0	-0.24246	-29.91	2.3158	0	-0.08075	0	-0.028586	46.4
-183.77	-734.82	0	3.0562	0	-0.24423	-29.89	2.558	0	-0.081386	0	-0.0094348	46.5
-186.76	-734.55	0	3.0481	0	-0.24435	-29.869	2.8019	0	-0.081528	0	-0.0005717	46.6
-189.75	-734.26	0	3.0399	0	-0.24435	-29.845	3.0454	0	-0.08153	0	0	46.7
-192.73	-733.94	0	3.0318	0	-0.24435	-29.819	3.2882	0	-0.08153	0	0	46.8
-195.71	-733.6	0	3.0236	0	-0.24435	-29.791	3.5313	0	-0.08153	0	0	46.9
-198.69	-733.24	0	3.0155	0	-0.24435	-29.761	3.7743	0	-0.08153	0	0	47
-201.66	-732.85	0	3.0073	0	-0.24435	-29.73	4.0167	0	-0.08153	0	0	47.1
-204.64	-732.43	0	2.9991	0	-0.24435	-29.696	4.2588	0	-0.08153	0	0	47.2
-207.6	-731.99	0	2.991	0	-0.24435	-29.66	4.501	0	-0.08153	0	0	47.3
-210.57	-731.53	0	2.9828	0	-0.24435	-29.622	4.7428	0	-0.08153	0	0	47.4
-213.53	-731.05	0	2.9747	0	-0.24435	-29.583	4.9838	0	-0.08153	0	0	47.5
-216.48	-730.54	0	2.9665	0	-0.24435	-29.541	5.2247	0	-0.08153	0	0	47.6
-219.44	-730	0	2.9584	0	-0.24435	-29.498	5.4658	0	-0.08153	0	0	47.7
-222.38	-729.44	0	2.9502	0	-0.24435	-29.452	5.706	0	-0.08153	0	0	47.8
-225.33	-728.86	0	2.9421	0	-0.24435	-29.404	5.9456	0	-0.08153	0	0	47.9
-228.26	-728.25	0	2.9339	0	-0.24435	-29.355	6.1852	0	-0.08153	0	0	48
-231.2	-727.62	0	2.9258	0	-0.24435	-29.304	6.4247	0	-0.08153	0	0	48.1
-234.12	-726.97	0	2.9176	0	-0.24435	-29.25	6.6632	0	-0.08153	0	0	48.2
-237.05	-726.29	0	2.9095	0	-0.24435	-29.195	6.9011	0	-0.08153	0	0	48.3
-239.96	-725.59	0	2.9013	0	-0.24435	-29.138	7.1394	0	-0.08153	0	0	48.4
-242.87	-724.86	0	2.8932	0	-0.24435	-29.079	7.3766	0	-0.08153	0	0	48.5
-245.78	-724.11	0	2.885	0	-0.24435	-29.017	7.6133	0	-0.08153	0	0	48.6
-248.68	-723.34	0	2.8769	0	-0.24435	-28.954	7.8498	0	-0.08153	0	0	48.7
-251.57	-722.54	0	2.8687	0	-0.24435	-28.89	8.085	0	-0.08153	0	0	48.8
-254.46	-721.72	0	2.8605	0	-0.24435	-28.823	8.3207	0	-0.08153	0	0	48.9
-257.34	-720.88	0	2.8524	0	-0.24435	-28.754	8.5578	0	-0.08153	0	0	49
-260.21	-720.01	0	2.8442	0	-0.24435	-28.683	8.7897	0	-0.08153	0	0	49.1
-263.07	-719.12	0	2.8361	0	-0.24435	-28.611	9.0211	0	-0.08153	0	0	49.2
-265.93	-718.21	0	2.8279	0	-0.24435	-28.536	9.2561	0	-0.08153	0	0	49.3
-268.78	-717.27	0	2.8198	0	-0.24435	-28.46	9.489	0	-0.08153	0	0	49.4
-271.62	-716.31	0	2.8116	0	-0.24435	-28.381	9.7204	0	-0.08153	0	0	49.5
-274.46	-715.33	0	2.8035	0	-0.24435	-28.301	9.951	0	-0.08153	0	0	49.6
-277.28	-714.32	0	2.7953	0	-0.24435	-28.219	10.182	0	-0.08153	0	0	49.7
-280.1	-713.29	0	2.7872	0	-0.24435	-28.135	10.412	0	-0.08153	0	0	49.8
-282.91	-712.24	0	2.779	0	-0.24435	-28.049	10.64	0	-0.08153	0	0	49.9
-285.71	-711.16	0	2.7709	0	-0.24435	-27.961	10.869	0	-0.08153	0	0	50
-288.5	-710.06	0	2.7627	0	-0.24435	-27.872	11.096	0	-0.08153	0	0	50.1
-291.28	-708.94	0	2.7546	0	-0.24435	-27.781	11.323	0	-0.08153	0	0	50.2
-294.06	-707.8	0	2.7464	0	-0.24435	-27.687	11.55	0	-0.08153	0	0	50.3
-296.82	-706.63	0	2.7382	0	-0.24435	-27.592	11.775	0	-0.08153	0	0	50.4
-299.58	-705.44	0	2.7301	0	-0.24435	-27.495	11.999	0	-0.08153	0	0	50.5
-302.32	-704.23	0	2.7219	0	-0.24435	-27.397	12.223	0	-0.08153	0	0	50.6
-305.05	-703	0	2.7138	0	-0.24435	-27.296	12.446	0	-0.08153	0	0	50.7
-307.78	-701.74	0	2.7056	0	-0.24435	-27.194	12.668	0	-0.08153	0	0	50.8
-310.49	-700.47	0	2.6975	0	-0.24435	-27.09	12.889	0	-0.08153	0	0	50.9
-313.2	-699.17	0	2.6893	0	-0.24435	-26.984	13.11	0	-0.08153	0	0	51
-315.89	-697.84	0	2.6812	0	-0.24435	-26.876	13.329	0	-0.08153	0	0	51.1
-318.57	-696.5	0	2.673	0	-0.24435	-26.766	13.548	0	-0.08153	0	0	51.2
-321.24	-695.13	0	2.6649	0	-0.24435	-26.655	13.766	0	-0.08153	0	0	51.3
-323.9	-693.75	0	2.6567	0	-0.24435	-26.542	13.983	0	-0.08153	0	0	51.4
-326.55	-692.34	0	2.6486	0	-0.24435	-26.426	14.199	0	-0.08153	0	0	51.5
-329.19	-690.91	0	2.6404	0	-0.24435	-26.31	14.414	0	-0.08153	0	0	51.6
-331.81	-689.45	0	2.6323	0	-0.24435	-26.192	14.628	0	-0.08153	0	0	51.7
-334.43	-687.98	0	2.6241	0	-0.24435	-26.072	14.841	0	-0.08153	0	0	51.8
-337.03	-686.49	0	2.616	0	-0.24435	-25.95	15.053	0	-0.08153	0	0	51.9
-339.62	-684.97	0	2.6078	0	-0.24435	-25.826	15.264	0	-0.08153	0	0	52
-342.19	-683.43	0	2.5996	0	-0.24435	-25.701	15.474	0	-0.08153	0	0	52.1
-344.76	-681.88	0	2.5915	0	-0.24435	-25.574	15.68	0	-0.08153	0	0	52.2
-347.31	-680.3	0	2.5833	0	-0.24435	-25.445	15.891	0	-0.08153	0	0	52.3
-349.85	-678.7	0	2.5752	0	-0.24435	-25.315	16.101	0	-0.08153	0	0	52.4
-352.37	-677.08	0	2.567	0	-0.24435	-25.183	16.303	0	-0.08153	0	0	52.5
-354.88	-675.44	0	2.5589	0	-0.24435	-25.049	16.508	0	-0.08153	0	0	52.6
-357.38	-673.78	0	2.5507	0	-0.24435	-24.914	16.712	0	-0.08153	0	0	52.7
-359.87	-672.09	0	2.5426	0	-0.24435	-24.776	16.915	0	-0.08153	0	0	52.8
-362.34	-670.39	0	2.5344	0	-0.24435	-24.638	17.116	0	-0.08153	0	0	52.9
-364.79	-668.67	0	2.5263	0	-0.24435	-24.497	17.316	0	-0.08153	0	0	53
-367.24	-666.93	0	2.5181	0	-0.24435	-24.355	17.516	0	-0.08153	0	0	53.1
-369.66	-665.17	0	2.51	0	-0.24435	-24.212	17.714	0	-0.08153	0	0	53.2
-372.08	-663.39	0	2.5018	0	-0.24435	-24.067	17.91	0	-0.08153	0	0	53.3
-374.48	-661.59	0	2.4937	0	-0.24435	-23.92	18.106	0	-0.08153	0	0	53.4
-376.86	-659.77	0	2.4855	0	-0.24435	-23.77	18.3	0	-0.08153	0	0	53.5
-379.23	-657.93	0	2.4774	0	-0.24435	-23.621	18.494	0	-0.08153	0	0	53.6
-381.59	-656.07	0	2.4692	0	-0.24435	-23.471	18.686	0	-0.08153	0	0	53.7
-383.93	-654.19	0	2.461	0	-0.24435	-23.317	18.876	0	-0.08153	0	0	53.8
-386.25	-652.29	0	2.4529	0	-0.24435	-23.162	19.066	0	-0.08153	0	0	53.9
-388.56	-650.38	0	2.4447	0	-0.24435	-23.006	19.254	0	-0.08153	0	0	54
-390.85	-648.44	0	2.4366	0	-0.24435	-22.848	19.441	0	-0.08153	0	0	54.1
-393.13	-646.49	0	2.4284	0	-0.24435	-22.689	19.627	0	-0.08153	0	0	54.2
-395.39	-644.52	0	2.4203	0	-0.24435	-22.528	19.811	0	-0.08153	0	0	54.3
-397.63	-642.53	0	2.4121	0	-0.24435	-22.366	19.994	0	-0.08153	0	0	54.4
-399.86	-640.52	0	2.404	0	-0.24435	-22.202	20.175	0	-0.08153	0	0	54.5
-402.07	-638.49	0	2.3958	0	-0.24435	-22.037	20.356	0	-0.08153	0	0	54.6
-404.27	-636.45	0	2.3877	0	-0.24435	-21.87	20.535	0	-0.08153	0	0	54.7
-406.45	-634.38	0	2.3795	0	-0.24435	-21.702	20.713	0	-0.08153	0	0	54.8
-408.61	-632.3	0	2.3714	0	-0.24435	-21.532	20.889	0	-0.08153	0	0	54.9
-410.75	-630.21	0	2.3632	0	-0.24435	-21.361	21.064	0	-0.08153	0	0	55
-412.88	-628.09	0	2.3551	0	-0.24435	-21.189	21.237	0	-0.08153	0	0	55.1
-414.99	-625.96	0	2.3469	0	-0.24435	-21.015	21.409	0	-0.08153	0	0	55.2
-417.08	-623.81	0	2.3388	0	-0.24435	-20.84	21.58	0	-0.08153	0	0	55.3
-419.16	-621.64	0	2.3306	0	-0.24435	-20.663	21.749	0	-0.08153	0	0	55.4
-421.22	-619.46	0	2.3224	0	-0.24435	-20.485	21.917	0	-0.08153	0	0	55.5
-423.26	-617.26	0	2.3143	0	-0.24435	-20.306	22.083	0	-0.08153	0	0	55.6
-425.28	-615.04	0	2.3061	0	-0.24435	-20.125	22.248	0	-0.08153	0	0	55.7
-427.28	-612.81	0	2.298	0	-0.24435	-19.943	22.411	0	-0.08153	0	0	55.8
-429.27	-610.56	0	2.2898	0	-0.24435	-19.76	22.573	0	-0.08153	0	0	55.9
-431.23	-608.29	0	2.2817	0	-0.24435	-19.575	22.733	0	-0.08153	0	0	56
-433.18	-606.01	0	2.2735	0	-0.24435	-19.389	22.892	0	-0.08153	0	0	56.1
-435.11	-603.72	0	2.2654	0	-0.24435	-19.201	23.049	0	-0.08153	0	0	56.2
-437.02	-601.4	0	2.2572	0	-0.24435	-19.013	23.205	0	-0.08153	0	0	56.3
-438.91	-599.08	0	2.2491	0	-0.24435	-18.823	23.36	0	-0.08153	0	0	56.4
-440.79	-596.73	0	2.2409	0	-0.24435	-18.632	23.512	0	-0.08153	0	0	56.5
-442.64	-594.37	0	2.2328	0	-0.24435	-18.44	23.663	0	-0.08153	0	0	56.6
-444.47	-592	0	2.2246	0	-0.24435	-18.246	23.813	0	-0.08153	0	0	56.7
-446.29	-589.61	0	2.2165	0	-0.24435	-18.051	23.961	0	-0.08153	0	0	56.8
-448.08	-587.21	0	2.2083	0	-0.24435	-17.856	24.107	0	-0.08153	0	0	56.9
-449.86	-584.79	0	2.2001	0	-0.24435	-17.658	24.252	0	-0.08153	0	0	57
-451.62	-582.36	0	2.192	0	-0.24435	-17.46	24.395	0	-0.08153	0	0	57.1
-453.35	-579.91	0	2.1838	0	-0.24435	-17.261	24.537	0	-0.08153	0	0	57.2
-455.07	-577.45	0	2.1757	0	-0.24435	-17.06	24.677	0	-0.08153	0	0	57.3
-456.76	-574.97	0	2.1675	0	-0.24435	-16.858	24.815	0	-0.08153	0	0	57.4
-458.44	-572.49	0	2.1594	0	-0.24435	-16.655	24.951	0	-0.08153	0	0	57.5
-460.1	-569.98	0	2.1512	0	-0.24435	-16.452	25.087	0	-0.08153	0	0	57.6
-461.73	-567.47	0	2.1431	0	-0.24435	-16.247	25.22	0	-0.08153	0	0	57.7
-463.34	-564.94	0	2.1349	0	-0.24435	-16.04	25.351	0	-0.08153	0	0	57.8
-464.94	-562.4	0	2.1268	0	-0.24435	-15.833	25.482	0	-0.08153	0	0	57.9
-466.51	-559.84	0	2.1186	0	-0.24435	-15.625	25.61	0	-0.08153	0	0	58
-468.06	-557.28	0	2.1105	0	-0.24435	-15.416	25.736	0	-0.08153	0	0	58.1
-469.59	-554.7	0	2.1023	0	-0.24435	-15.205	25.861	0	-0.08153	0	0	58.2
-471.1	-552.1	0	2.0942	0	-0.24435	-14.994	25.984	0	-0.08153	0	0	58.3
-472.59	-549.5	0	2.086	0	-0.24435	-14.781	26.105	0	-0.08153	0	0	58.4
-474.06	-546.88	0	2.0779	0	-0.24435	-14.568	26.225	0	-0.08153	0	0	58.5
-475.51	-544.25	0	2.0697	0	-0.24435	-14.354	26.343	0	-0.08153	0	0	58.6
-476.93	-541.61	0	2.0615	0	-0.24435	-14.139	26.459	0	-0.08153	0	0	58.7
-478.33	-538.96	0	2.0534	0	-0.24435	-13.922	26.573	0	-0.08153	0	0	58.8
-479.72	-536.3	0	2.0452	0	-0.24435	-13.705	26.686	0	-0.08153	0	0	58.9
-481.08	-533.63	0	2.0371	0	-0.24435	-13.487	26.797	0	-0.08153	0	0	59
-482.41	-530.94	0	2.0289	0	-0.24435	-13.268	26.906	0	-0.08153	0	0	59.1
-483.73	-528.24	0	2.0208	0	-0.24435	-13.048	27.013	0	-0.08153	0	0	59.2
-485.02	-525.54	0	2.0126	0	-0.24435	-12.828	27.119	0	-0.08153	0	0	59.3
-486.29	-522.82	0	2.0045	0	-0.24435	-12.606	27.222	0	-0.08153	0	0	59.4
-487.54	-520.09	0	1.9963	0	-0.24435	-12.384	27.324	0	-0.08153	0	0	59.5
-488.77	-517.36	0	1.9882	0	-0.24435	-12.161	27.424	0	-0.08153	0	0	59.6
-489.98	-514.61	0	1.98	0	-0.24435	-11.937	27.523	0	-0.08153	0	0	59.7
-491.16	-511.85	0	1.9719	0	-0.24435	-11.712	27.619	0	-0.08153	0	0	59.8
-492.32	-509.08	0	1.9637	0	-0.24435	-11.486	27.714	0	-0.08153	0	0	59.9
-493.46	-506.31	0	1.9556	0	-0.24435	-11.26	27.806	0	-0.08153	0	0	60
-494.57	-503.52	0	1.9474	0	-0.24435	-11.033	27.897	0	-0.08153	0	0	60.1
-495.66	-500.73	0	1.9393	0	-0.24435	-10.805	27.986	0	-0.08153	0	0	60.2
-496.73	-497.93	0	1.9311	0	-0.24435	-10.577	28.073	0	-0.08153	0	0	60.3
-497.78	-495.11	0	1.9229	0	-0.24435	-10.348	28.159	0	-0.08153	0	0	60.4
-498.8	-492.29	0	1.9148	0	-0.24435	-10.118	28.242	0	-0.08153	0	0	60.5
-499.8	-489.47	0	1.9066	0	-0.24435	-9.8868	28.324	0	-0.08153	0	0	60.6
-500.78	-486.63	0	1.8985	0	-0.24435	-9.6555	28.403	0	-0.08153	0	0	60.7
-501.73	-483.79	0	1.8903	0	-0.24435	-9.4237	28.481	0	-0.08153	0	0	60.8
-502.66	-480.93	0	1.8822	0	-0.24435	-9.1913	28.557	0	-0.08153	0	0	60.9
-503.57	-478.07	0	1.874	0	-0.24435	-8.9579	28.631	0	-0.08153	0	0	61
-504.46	-475.21	0	1.8659	0	-0.24435	-8.7244	28.703	0	-0.08153	0	0	61.1
-505.32	-472.33	0	1.8577	0	-0.24435	-8.4903	28.773	0	-0.08153	0	0	61.2
-506.15	-469.45	0	1.8496	0	-0.24435	-8.255	28.842	0	-0.08153	0	0	61.3
-506.97	-466.57	0	1.8414	0	-0.24435	-8.0198	28.908	0	-0.08153	0	0	61.4
-507.76	-463.67	0	1.8333	0	-0.24435	-7.784	28.972	0	-0.08153	0	0	61.5
-508.52	-460.77	0	1.8251	0	-0.24435	-7.5475	29.035	0	-0.08153	0	0	61.6
-509.27	-457.86	0	1.817	0	-0.24435	-7.3105	29.095	0	-0.08153	0	0	61.7
-509.99	-454.95	0	1.8088	0	-0.24435	-7.0728	29.154	0	-0.08153	0	0	61.8
-510.68	-452.03	0	1.8007	0	-0.24435	-6.8349	29.211	0	-0.08153	0	0	61.9
-511.35	-449.11	0	1.7925	0	-0.24435	-6.5966	29.266	0	-0.08153	0	0	62
-512	-446.18	0	1.7843	0	-0.24435	-6.3577	29.318	0	-0.08153	0	0	62.1
-512.62	-443.25	0	1.7762	0	-0.24435	-6.1186	29.369	0	-0.08153	0	0	62.2
-513.22	-440.31	0	1.768	0	-0.24435	-5.879	29.418	0	-0.08153	0	0	62.3
-513.8	-437.36	0	1.7599	0	-0.24435	-5.639	29.465	0	-0.08153	0	0	62.4
-514.35	-434.41	0	1.7517	0	-0.24435	-5.3984	29.51	0	-0.08153	0	0	62.5
-514.88	-431.46	0	1.7436	0	-0.24435	-5.1576	29.553	0	-0.08153	0	0	62.6
-515.38	-428.5	0	1.7354	0	-0.24435	-4.9166	29.594	0	-0.08153	0	0	62.7
-515.86	-425.54	0	1.7273	0	-0.24435	-4.675	29.633	0	-0.08153	0	0	62.8
-516.32	-422.58	0	1.7191	0	-0.24435	-4.4332	29.67	0	-0.08153	0	0	62.9
-516.75	-419.61	0	1.711	0	-0.24435	-4.1914	29.705	0	-0.08153	0	0	63
-517.16	-416.64	0	1.7028	0	-0.24435	-3.9493	29.739	0	-0.08153	0	0	63.1
-517.54	-413.66	0	1.6947	0	-0.24435	-3.7067	29.77	0	-0.08153	0	0	63.2
-517.9	-410.68	0	1.6865	0	-0.24435	-3.4637	29.799	0	-0.08153	0	0	63.3
-518.23	-407.7	0	1.6784	0	-0.24435	-3.2204	29.826	0	-0.08153	0	0	63.4
-518.54	-404.72	0	1.6702	0	-0.24435	-2.9771	29.852	0	-0.08153	0	0	63.5
-518.83	-401.73	0	1.662	0	-0.24435	-2.7338	29.875	0	-0.08153	0	0	63.6
-519.09	-398.74	0	1.6539	0	-0.24435	-2.49	29.896	0	-0.08153	0	0	63.7
-519.33	-395.75	0	1.6457	0	-0.24435	-2.2463	29.916	0	-0.08153	0	0	63.8
-519.54	-392.76	0	1.6376	0	-0.24435	-2.0025	29.933	0	-0.08153	0	0	63.9
-519.73	-389.76	0	1.6294	0	-0.24435	-1.7584	29.948	0	-0.08153	0	0	64
-519.89	-386.77	0	1.6213	0	-0.24435	-1.5141	29.961	0	-0.08153	0	0	64.1
-520.03	-383.77	0	1.6131	0	-0.24435	-1.2696	29.973	0	-0.08153	0	0	64.2
-520.14	-380.77	0	1.605	0	-0.24435	-1.0251	29.982	0	-0.08153	0	0	64.3
-520.23	-377.78	0	1.5968	0	-0.24435	-0.78077	29.99	0	-0.08153	0	0	64.4
-520.3	-374.78	0	1.5887	0	-0.24435	-0.53615	29.995	0	-0.08153	0	0	64.5
-520.34	-371.78	0	1.5805	0	-0.24435	-0.29168	29.998	0	-0.08153	0	0	64.6
-520.36	-368.78	0	1.5724	0	-0.24435	-0.047271	30	0	-0.08153	0	0	64.7
-520.35	-365.78	0	1.5642	0	-0.24435	0.19737	29.999	0	-0.08153	0	0	64.8
-520.32	-362.78	0	1.5561	0	-0.24435	0.44204	29.996	0	-0.08153	0	0	64.9
-520.26	-359.78	0	1.5479	0	-0.24435	0.68668	29.992	0	-0.08153	0	0	65
-520.18	-356.78	0	1.5398	0	-0.24435	0.93122	29.985	0	-0.08153	0	0	65.1
-520.08	-353.78	0	1.5316	0	-0.24435	1.1756	29.977	0	-0.08153	0	0	65.2
-519.95	-350.78	0	1.5234	0	-0.24435	1.4199	29.966	0	-0.08153	0	0	65.3
-519.79	-347.79	0	1.5153	0	-0.24435	1.6641	29.953	0	-0.08153	0	0	65.4
-519.61	-344.79	0	1.5071	0	-0.24435	1.9082	29.939	0	-0.08153	0	0	65.5
-519.41	-341.8	0	1.499	0	-0.24435	2.1523	29.922	0	-0.08153	0	0	65.6
-519.18	-338.81	0	1.4908	0	-0.24435	2.3962	29.904	0	-0.08153	0	0	65.7
-518.93	-335.82	0	1.4827	0	-0.24435	2.64	29.883	0	-0.08153	0	0	65.8
-518.66	-332.83	0	1.4745	0	-0.24435	2.8835	29.861	0	-0.08153	0	0	65.9
-518.35	-329.85	0	1.4664	0	-0.24435	3.1269	29.836	0	-0.08153	0	0	66
-518.03	-326.86	0	1.4582	0	-0.24435	3.3699	29.81	0	-0.08153	0	0	66.1
-517.68	-323.88	0	1.4501	0	-0.24435	3.6129	29.781	0	-0.08153	0	0	66.2
-517.31	-320.91	0	1.4419	0	-0.24435	3.8556	29.751	0	-0.08153	0	0	66.3
-516.91	-317.93	0	1.4338	0	-0.24435	4.0981	29.719	0	-0.08153	0	0	66.4
-516.49	-314.96	0	1.4256	0	-0.24435	4.3403	29.684	0	-0.08153	0	0	66.5
-516.04	-312	0	1.4175	0	-0.24435	4.5821	29.648	0	-0.08153	0	0	66.6
-515.57	-309.03	0	1.4093	0	-0.24435	4.8236	29.609	0	-0.08153	0	0	66.7
-515.08	-306.08	0	1.4012	0	-0.24435	5.0648	29.569	0	-0.08153	0	0	66.8
-514.56	-303.12	0	1.393	0	-0.24435	5.3057	29.527	0	-0.08153	0	0	66.9
-514.02	-300.17	0	1.3848	0	-0.24435	5.5463	29.483	0	-0.08153	0	0	67
-513.45	-297.22	0	1.3767	0	-0.24435	5.7866	29.436	0	-0.08153	0	0	67.1
-512.86	-294.28	0	1.3685	0	-0.24435	6.0264	29.388	0	-0.08153	0	0	67.2
-512.24	-291.35	0	1.3604	0	-0.24435	6.2658	29.338	0	-0.08153	0	0	67.3
-511.61	-288.41	0	1.3522	0	-0.24435	6.5047	29.286	0	-0.08153	0	0	67.4
-510.94	-285.49	0	1.3441	0	-0.24435	6.7431	29.232	0	-0.08153	0	0	67.5
-510.26	-282.57	0	1.3359	0	-0.24435	6.9812	29.176	0	-0.08153	0	0	67.6
-509.55	-279.65	0	1.3278	0	-0.24435	7.2189	29.118	0	-0.08153	0	0	67.7
-508.81	-276.74	0	1.3196	0	-0.24435	7.4562	29.058	0	-0.08153	0	0	67.8
-508.06	-273.84	0	1.3115	0	-0.24435	7.693	28.997	0	-0.08153	0	0	67.9
-507.27	-270.95	0	1.3033	0	-0.24435	7.9291	28.933	0	-0.08153	0	0	68
-506.47	-268.06	0	1.2952	0	-0.24435	8.1646	28.867	0	-0.08153	0	0	68.1
-505.64	-265.17	0	1.287	0	-0.24435	8.3995	28.8	0	-0.08153	0	0	68.2
-504.79	-262.3	0	1.2789	0	-0.24435	8.634	28.73	0	-0.08153	0	0	68.3
-503.91	-259.43	0	1.2707	0	-0.24435	8.868	28.659	0	-0.08153	0	0	68.4
-503.02	-256.56	0	1.2626	0	-0.24435	9.1016	28.586	0	-0.08153	0	0	68.5
-502.09	-253.71	0	1.2544	0	-0.24435	9.3344	28.51	0	-0.08153	0	0	68.6
-501.15	-250.86	0	1.2462	0	-0.24435	9.5666	28.434	0	-0.08153	0	0	68.7
-500.18	-248.02	0	1.2381	0	-0.24435	9.798	28.355	0	-0.08153	0	0	68.8
-499.19	-245.19	0	1.2299	0	-0.24435	10.029	28.274	0	-0.08153	0	0	68.9
-498.18	-242.37	0	1.2218	0	-0.24435	10.259	28.191	0	-0.08153	0	0	69
-497.14	-239.55	0	1.2136	0	-0.24435	10.488	28.106	0	-0.08153	0	0	69.1
-496.08	-236.75	0	1.2055	0	-0.24435	10.717	28.02	0	-0.08153	0	0	69.2
-494.99	-233.95	0	1.1973	0	-0.24435	10.945	27.932	0	-0.08153	0	0	69.3
-493.89	-231.16	0	1.1892	0	-0.24435	11.173	27.842	0	-0.08153	0	0	69.4
-492.76	-228.38	0	1.181	0	-0.24435	11.399	27.75	0	-0.08153	0	0	69.5
-491.61	-225.61	0	1.1729	0	-0.24435	11.625	27.656	0	-0.08153	0	0	69.6
-490.43	-222.85	0	1.1647	0	-0.24435	11.85	27.56	0	-0.08153	0	0	69.7
-489.24	-220.1	0	1.1566	0	-0.24435	12.075	27.462	0	-0.08153	0	0	69.8
-488.02	-217.36	0	1.1484	0	-0.24435	12.298	27.363	0	-0.08153	0	0	69.9
-486.78	-214.63	0	1.1403	0	-0.24435	12.52	27.262	0	-0.08153	0	0	70
-485.52	-211.9	0	1.1321	0	-0.24435	12.743	27.159	0	-0.08153	0	0	70.1
-484.23	-209.19	0	1.124	0	-0.24435	12.964	27.054	0	-0.08153	0	0	70.2
-482.92	-206.49	0	1.1158	0	-0.24435	13.184	26.948	0	-0.08153	0	0	70.3
-481.59	-203.8	0	1.1076	0	-0.24435	13.403	26.839	0	-0.08153	0	0	70.4
-480.24	-201.13	0	1.0995	0	-0.24435	13.622	26.729	0	-0.08153	0	0	70.5
-478.87	-198.46	0	1.0913	0	-0.24435	13.839	26.617	0	-0.08153	0	0	70.6
-477.47	-195.8	0	1.0832	0	-0.24435	14.055	26.503	0	-0.08153	0	0	70.7
-476.06	-193.16	0	1.075	0	-0.24435	14.271	26.388	0	-0.08153	0	0	70.8
-474.62	-190.52	0	1.0669	0	-0.24435	14.486	26.271	0	-0.08153	0	0	70.9
-473.16	-187.9	0	1.0587	0	-0.24435	14.699	26.152	0	-0.08153	0	0	71
-471.68	-185.29	0	1.0506	0	-0.24435	14.912	26.031	0	-0.08153	0	0	71.1
-470.18	-182.7	0	1.0424	0	-0.24435	15.124	25.909	0	-0.08153	0	0	71.2
-468.66	-180.11	0	1.0343	0	-0.24435	15.335	25.784	0	-0.08153	0	0	71.3
-467.11	-177.54	0	1.0261	0	-0.24435	15.544	25.658	0	-0.08153	0	0	71.4
-465.55	-174.98	0	1.018	0	-0.24435	15.753	25.531	0	-0.08153	0	0	71.5
-463.96	-172.43	0	1.0098	0	-0.24435	15.961	25.402	0	-0.08153	0	0	71.6
-462.35	-169.9	0	1.0017	0	-0.24435	16.167	25.271	0	-0.08153	0	0	71.7
-460.73	-167.38	0	0.9935	0	-0.24435	16.372	25.138	0	-0.08153	0	0	71.8
-459.08	-164.87	0	0.98535	0	-0.24435	16.577	25.004	0	-0.08153	0	0	71.9
-457.41	-162.38	0	0.9772	0	-0.24435	16.78	24.871	0	-0.08153	0	0	72
-455.72	-159.9	0	0.96904	0	-0.24435	16.982	24.73	0	-0.08153	0	0	72.1
-454.02	-157.43	0	0.96089	0	-0.24435	17.184	24.588	0	-0.08153	0	0	72.2
-452.29	-154.98	0	0.95274	0	-0.24435	17.383	24.45	0	-0.08153	0	0	72.3
-450.54	-152.54	0	0.94458	0	-0.24435	17.582	24.307	0	-0.08153	0	0	72.4
-448.77	-150.12	0	0.93643	0	-0.24435	17.78	24.163	0	-0.08153	0	0	72.5
-446.98	-147.71	0	0.92828	0	-0.24435	17.976	24.017	0	-0.08153	0	0	72.6
-445.18	-145.32	0	0.92012	0	-0.24435	18.171	23.87	0	-0.08153	0	0	72.7
-443.35	-142.94	0	0.91197	0	-0.24435	18.365	23.721	0	-0.08153	0	0	72.8
-441.5	-140.57	0	0.90382	0	-0.24435	18.558	23.571	0	-0.08153	0	0	72.9
-439.64	-138.22	0	0.89567	0	-0.24435	18.75	23.419	0	-0.08153	0	0	73
-437.75	-135.89	0	0.88751	0	-0.24435	18.94	23.265	0	-0.08153	0	0	73.1
-435.85	-133.57	0	0.87936	0	-0.24435	19.129	23.11	0	-0.08153	0	0	73.2
-433.93	-131.27	0	0.87121	0	-0.24435	19.317	22.953	0	-0.08153	0	0	73.3
-431.99	-128.98	0	0.86305	0	-0.24435	19.503	22.795	0	-0.08153	0	0	73.4
-430.03	-126.71	0	0.8549	0	-0.24435	19.689	22.635	0	-0.08153	0	0	73.5
-428.05	-124.45	0	0.84675	0	-0.24435	19.872	22.474	0	-0.08153	0	0	73.6
-426.05	-122.21	0	0.83859	0	-0.24435	20.055	22.311	0	-0.08153	0	0	73.7
-424.04	-119.99	0	0.83044	0	-0.24435	20.236	22.147	0	-0.08153	0	0	73.8
-422	-117.78	0	0.82229	0	-0.24435	20.416	21.981	0	-0.08153	0	0	73.9
-419.95	-115.59	0	0.81414	0	-0.24435	20.595	21.814	0	-0.08153	0	0	74
-417.89	-113.42	0	0.80598	0	-0.24435	20.772	21.645	0	-0.08153	0	0	74.1
-415.8	-111.26	0	0.79783	0	-0.24435	20.948	21.475	0	-0.08153	0	0	74.2
-413.7	-109.13	0	0.78968	0	-0.24435	21.122	21.304	0	-0.08153	0	0	74.3
-411.58	-107	0	0.78152	0	-0.24435	21.295	21.131	0	-0.08153	0	0	74.4
-409.44	-104.9	0	0.77337	0	-0.24435	21.467	20.956	0	-0.08153	0	0	74.5
-407.28	-102.81	0	0.76522	0	-0.24435	21.637	20.781	0	-0.08153	0	0	74.6
-405.11	-100.74	0	0.75706	0	-0.24435	21.805	20.603	0	-0.08153	0	0	74.7
-402.92	-98.692	0	0.74891	0	-0.24435	21.972	20.425	0	-0.08153	0	0	74.8
-400.72	-96.658	0	0.74076	0	-0.24435	22.138	20.245	0	-0.08153	0	0	74.9
-398.49	-94.643	0	0.7326	0	-0.24435	22.304	20.064	0	-0.08153	0	0	75
-396.25	-92.646	0	0.72445	0	-0.24435	22.466	19.882	0	-0.08153	0	0	75.1
-394	-90.667	0	0.7163	0	-0.24435	22.627	19.698	0	-0.08153	0	0	75.2
-391.73	-88.706	0	0.70815	0	-0.24435	22.787	19.513	0	-0.08153	0	0	75.3
-389.44	-86.764	0	0.69999	0	-0.24435	22.945	19.326	0	-0.08153	0	0	75.4
-387.14	-84.841	0	0.69184	0	-0.24435	23.102	19.138	0	-0.08153	0	0	75.5
-384.82	-82.936	0	0.68369	0	-0.24435	23.257	18.949	0	-0.08153	0	0	75.6
-382.49	-81.051	0	0.67553	0	-0.24435	23.411	18.759	0	-0.08153	0	0	75.7
-380.14	-79.185	0	0.66738	0	-0.24435	23.563	18.568	0	-0.08153	0	0	75.8
-377.78	-77.337	0	0.65923	0	-0.24435	23.714	18.375	0	-0.08153	0	0	75.9
-375.4	-75.51	0	0.65107	0	-0.24435	23.863	18.181	0	-0.08153	0	0	76
-373	-73.701	0	0.64292	0	-0.24435	24.01	17.986	0	-0.08153	0	0	76.1
-370.6	-71.912	0	0.63477	0	-0.24435	24.156	17.79	0	-0.08153	0	0	76.2
-368.17	-70.143	0	0.62662	0	-0.24435	24.3	17.592	0	-0.08153	0	0	76.3
-365.74	-68.394	0	0.61846	0	-0.24435	24.443	17.393	0	-0.08153	0	0	76.4
-363.28	-66.665	0	0.61031	0	-0.24435	24.584	17.193	0	-0.08153	0	0	76.5
-360.82	-64.955	0	0.60216	0	-0.24435	24.723	16.992	0	-0.08153	0	0	76.6
-358.34	-63.266	0	0.594	0	-0.24435	24.861	16.79	0	-0.08153	0	0	76.7
-355.85	-61.597	0	0.58585	0	-0.24435	24.997	16.587	0	-0.08153	0	0	76.8
-353.34	-59.949	0	0.5777	0	-0.24435	25.131	16.383	0	-0.08153	0	0	76.9
-350.82	-58.321	0	0.56954	0	-0.24435	25.264	16.177	0	-0.08153	0	0	77
-348.29	-56.713	0	0.56139	0	-0.24435	25.395	15.971	0	-0.08153	0	0	77.1
-345.74	-55.127	0	0.55324	0	-0.24435	25.525	15.763	0	-0.08153	0	0	77.2
-343.18	-53.561	0	0.54509	0	-0.24435	25.652	15.555	0	-0.08153	0	0	77.3
-340.61	-52.016	0	0.53693	0	-0.24435	25.778	15.345	0	-0.08153	0	0	77.4
-338.03	-50.492	0	0.52878	0	-0.24435	25.902	15.134	0	-0.08153	0	0	77.5
-335.43	-48.989	0	0.52063	0	-0.24435	26.025	14.923	0	-0.08153	0	0	77.6
-332.82	-47.507	0	0.51247	0	-0.24435	26.146	14.71	0	-0.08153	0	0	77.7
-330.2	-46.047	0	0.50432	0	-0.24435	26.265	14.496	0	-0.08153	0	0	77.8
-327.57	-44.608	0	0.49617	0	-0.24435	26.382	14.282	0	-0.08153	0	0	77.9
-324.92	-43.19	0	0.48801	0	-0.24435	26.498	14.066	0	-0.08153	0	0	78
-322.27	-41.795	0	0.47986	0	-0.24435	26.611	13.85	0	-0.08153	0	0	78.1
-319.6	-40.421	0	0.47171	0	-0.24435	26.724	13.632	0	-0.08153	0	0	78.2
-316.92	-39.068	0	0.46356	0	-0.24435	26.834	13.414	0	-0.08153	0	0	78.3
-314.24	-37.738	0	0.4554	0	-0.24435	26.942	13.195	0	-0.08153	0	0	78.4
-311.54	-36.429	0	0.44725	0	-0.24435	27.049	12.974	0	-0.08153	0	0	78.5
-308.83	-35.143	0	0.4391	0	-0.24435	27.154	12.754	0	-0.08153	0	0	78.6
-306.11	-33.879	0	0.43094	0	-0.24435	27.257	12.532	0	-0.08153	0	0	78.7
-303.37	-32.637	0	0.42279	0	-0.24435	27.358	12.309	0	-0.08153	0	0	78.8
-300.63	-31.417	0	0.41464	0	-0.24435	27.458	12.086	0	-0.08153	0	0	78.9
-297.88	-30.219	0	0.40648	0	-0.24435	27.555	11.861	0	-0.08153	0	0	79
-295.12	-29.045	0	0.39833	0	-0.24435	27.651	11.636	0	-0.08153	0	0	79.1
-292.35	-27.892	0	0.39018	0	-0.24435	27.745	11.41	0	-0.08153	0	0	79.2
-289.57	-26.762	0	0.38202	0	-0.24435	27.837	11.184	0	-0.08153	0	0	79.3
-286.79	-25.655	0	0.37387	0	-0.24435	27.927	10.957	0	-0.08153	0	0	79.4
-283.99	-24.571	0	0.36572	0	-0.24435	28.016	10.729	0	-0.08153	0	0	79.5
-281.18	-23.51	0	0.35757	0	-0.24435	28.102	10.5	0	-0.08153	0	0	79.6
-278.37	-22.471	0	0.34941	0	-0.24435	28.187	10.27	0	-0.08153	0	0	79.7
-275.54	-21.456	0	0.34126	0	-0.24435	28.27	10.04	0	-0.08153	0	0	79.8
-272.71	-20.463	0	0.33311	0	-0.24435	28.351	9.8093	0	-0.08153	0	0	79.9
-269.87	-19.494	0	0.32495	0	-0.24435	28.43	9.5778	0	-0.08153	0	0	80
-267.03	-18.548	0	0.3168	0	-0.24435	28.507	9.3457	0	-0.08153	0	0	80.1
-264.17	-17.625	0	0.30865	0	-0.24435	28.582	9.113	0	-0.08153	0	0	80.2
-261.31	-16.725	0	0.30049	0	-0.24435	28.655	8.8797	0	-0.08153	0	0	80.3
-258.44	-15.849	0	0.29234	0	-0.24435	28.727	8.6458	0	-0.08153	0	0	80.4
-255.57	-14.996	0	0.28419	0	-0.24435	28.796	8.4113	0	-0.08153	0	0	80.5
-252.68	-14.166	0	0.27604	0	-0.24435	28.864	8.1762	0	-0.08153	0	0	80.6
-249.79	-13.361	0	0.26788	0	-0.24435	28.93	7.9406	0	-0.08153	0	0	80.7
-246.9	-12.578	0	0.25973	0	-0.24435	28.993	7.7045	0	-0.08153	0	0	80.8
-243.99	-11.82	0	0.25158	0	-0.24435	29.055	7.4678	0	-0.08153	0	0	80.9
-241.09	-11.085	0	0.24342	0	-0.24435	29.115	7.2307	0	-0.08153	0	0	81
-238.17	-10.374	0	0.23527	0	-0.24435	29.173	6.9931	0	-0.08153	0	0	81.1
-235.25	-9.6862	0	0.22712	0	-0.24435	29.229	6.755	0	-0.08153	0	0	81.2
-232.33	-9.0226	0	0.21896	0	-0.24435	29.283	6.5165	0	-0.08153	0	0	81.3
-229.39	-8.3829	0	0.21081	0	-0.24435	29.335	6.2775	0	-0.08153	0	0	81.4
-226.46	-7.7671	0	0.20266	0	-0.24435	29.386	6.0382	0	-0.08153	0	0	81.5
-223.52	-7.1752	0	0.19451	0	-0.24435	29.434	5.7984	0	-0.08153	0	0	81.6
-220.57	-6.6074	0	0.18635	0	-0.24435	29.48	5.5582	0	-0.08153	0	0	81.7
-217.62	-6.0636	0	0.1782	0	-0.24435	29.525	5.3177	0	-0.08153	0	0	81.8
-214.67	-5.5439	0	0.17005	0	-0.24435	29.567	5.0768	0	-0.08153	0	0	81.9
-211.71	-5.0482	0	0.16189	0	-0.24435	29.607	4.8356	0	-0.08153	0	0	82
-208.75	-4.5767	0	0.15374	0	-0.24435	29.646	4.594	0	-0.08153	0	0	82.1
-205.78	-4.1294	0	0.14559	0	-0.24435	29.682	4.3522	0	-0.08153	0	0	82.2
-202.81	-3.7063	0	0.13743	0	-0.24435	29.717	4.11	0	-0.08153	0	0	82.3
-199.84	-3.3074	0	0.12928	0	-0.24435	29.749	3.8676	0	-0.08153	0	0	82.4
-196.86	-2.9328	0	0.12113	0	-0.24435	29.78	3.6249	0	-0.08153	0	0	82.5
-193.88	-2.5824	0	0.11298	0	-0.24435	29.808	3.382	0	-0.08153	0	0	82.6
-190.9	-2.2564	0	0.10482	0	-0.24435	29.835	3.1389	0	-0.08153	0	0	82.7
-187.91	-1.9547	0	0.096669	0	-0.24435	29.86	2.8955	0	-0.08153	0	0	82.8
-184.93	-1.6773	0	0.088516	0	-0.24435	29.882	2.652	0	-0.08153	0	0	82.9
-181.94	-1.4243	0	0.080363	0	-0.24435	29.903	2.4083	0	-0.081525	0	0.0014251	83
-178.94	-1.1956	0	0.072211	0	-0.24406	29.921	2.1647	0	-0.081203	0	0.020718	83.1
-175.95	-0.99133	0	0.064122	0	-0.2402	29.938	1.9234	0	-0.079865	0	0.058372	83.2
-172.96	-0.81097	0	0.056238	0	-0.23239	29.952	1.6879	0	-0.077201	0	0.094638	83.3
-169.96	-0.65376	0	0.048682	0	-0.22127	29.964	1.462	0	-0.073412	0	0.12451	83.4
-166.96	-0.51856	0	0.041556	0	-0.20749	29.974	1.2488	0	-0.068725	0	0.14836	83.5
-163.97	-0.40399	0	0.034937	0	-0.1916	29.981	1.0507	0	-0.063351	0	0.16652	83.6
-160.97	-0.30842	0	0.028885	0	-0.17418	29.987	0.86947	0	-0.05749	0	0.17925	83.7
-157.97	-0.23009	0	0.023439	0	-0.15575	29.992	0.70625	0	-0.051325	0	0.18683	83.8
-154.97	-0.16717	0	0.01862	0	-0.13682	29.995	0.56175	0	-0.045023	0	0.18955	83.9
-151.97	-0.11775	0	0.014435	0	-0.11784	29.997	0.43614	0	-0.03874	0	0.18775	84
-148.97	-0.07994	0	0.010872	0	-0.099266	29.998	0.32917	0	-0.032615	0	0.18178	84.1
-145.97	-0.051911	0	0.0079116	0	-0.081486	29.999	0.24018	0	-0.026771	0	0.17205	84.2
-142.97	-0.031903	0	0.0055182	0	-0.064856	29.999	0.16816	0	-0.021319	0	0.15902	84.3
-139.97	-0.018278	0	0.0036478	0	-0.049683	30	0.11178	0	-0.016355	0	0.14313	84.4
-136.97	-0.009546	0	0.0022473	0	-0.036229	30	0.069466	0	-0.011958	0	0.12489	84.5
-133.97	-0.0043851	0	0.0012562	0	-0.024706	30	0.039402	0	-0.008195	0	0.10476	84.6
-130.97	-0.0016656	0	0.00060826	0	-0.015277	30	0.019611	0	-0.0051169	0	0.083227	84.7
-127.97	-0.00046297	0	0.00023281	0	-0.0080602	30	0.007979	0	-0.0027601	0	0.060775	84.8
-124.97	-6.9759e-05	0	5.6239e-05	0	-0.0031226	30	0.0023063	0	-0.0011467	0	0.037865	84.9
-121.97	-1.7146e-06	0	3.4836e-06	0	-0.00048728	30	0.00034879	0	-0.0002812	0	0.015613	85
-118.97	3.6864e-12	0	0	0	0	30	8.5729e-06	0	-1.7418e-05	0	0.0024364	85.1
-115.97	-1.5133e-13	0	0	0	0	30	-1.8881e-11	0	0	0	0	85.2
-112.97	-8.9942e-14	0	0	0	0	30	9.6751e-13	0	0	0	0	85.3
-109.97	4.2175e-14	0	0	0	0	30	1.797e-13	0	0	0	0	85.4
-106.97	-5.4002e-14	0	0	0	0	30	-2.5588e-11	0	0	0	0	85.5
-103.97	-5.0754e-12	0	0	0	0	30	-5.9961e-13	0	0	0	0	85.6
-100.97	-1.7392e-13	0	0	0	0	30	3.5873e-11	0	0	0	0	85.7
-97.971	2.0992e-12	0	0	0	0	30	-1.0801e-11	0	0	0	0	85.8
-94.971	-2.3342e-12	0	0	0	0	30	-3.0012e-11	0	0	0	0	85.9
-91.971	-3.9032e-12	0	0	0	0	30	1.2215e-11	0	0	0	0	86
-88.971	1.0886e-13	0	0	0	0	30	1.869e-11	0	0	0	0	86.1
-85.971	-1.6516e-13	0	0	0	0	30	-9.718e-12	0	0	0	0	86.2
-82.971	-1.8347e-12	0	0	0	0	30	-1.2845e-12	0	0	0	0	86.3
-79.971	-4.2207e-13	0	0	0	0	30	2.566e-11	0	0	0	0	86.4
-76.971	3.2973e-12	0	0	0	0	30	2.1513e-11	0	0	0	0	86.5
-73.971	3.8806e-12	0	0	0	0	30	-1.7392e-11	0	0	0	0	86.6
-70.971	-1.8122e-13	0	0	0	0	30	1.0593e-09	0	0	0	0	86.7
-67.971	2.1574e-10	0	0	0	0	30	-1.2041e-12	0	0	0	0	86.8
-64.971	-4.2204e-13	0	0	0	0	30	-1.0795e-09	0	0	0	0	86.9
-61.971	-1.7092e-13	0	0	0	0	30	1.958e-12	0	0	0	0	87
-58.971	-3.0448e-14	0	0	0	0	30	2.965e-12	0	0	0	0	87.1
-55.971	4.2209e-13	0	0	0	0	30	1.3444e-11	0	0	0	0	87.2
-52.971	2.6584e-12	0	0	0	0	30	-1.9036e-11	0	0	0	0	87.3
-49.971	-3.3851e-12	0	0	0	0	30	-2.782e-08	0	0	0	0	87.4
-46.971	-5.5613e-09	0	0	0	0	30	1.5223e-11	0	0	0	0	87.5
-43.971	-3.4048e-13	0	0	0	0	30	2.7804e-08	0	0	0	0	87.6
-40.971	-5.4256e-13	0	0	0	0	30	1.5793e-12	0	0	0	0	87.7
-37.971	-2.4612e-14	0	0	0	0	30	2.216e-12	0	0	0	0	87.8
-34.971	-9.9365e-14	0	0	0	0	30	-4.0498e-11	0	0	0	0	87.9
-31.971	-8.1243e-12	0	0	0	0	30	-2.7023e-11	0	0	0	0	88
-28.971	-5.5039e-12	0	0	0	0	30	4.8715e-11	0	0	0	0	88.1
-25.971	1.6188e-12	0	0	0	0	30	2.9064e-11	0	0	0	0	88.2
-22.971	3.0893e-13	0	0	0	0	30	-7.3615e-12	0	0	0	0	88.3
-19.971	1.4645e-13	0	0	0	0	30	-2.6392e-12	0	0	0	0	88.4
-16.971	-2.189e-13	0	0	0	0	30	-1.1539e-12	0	0	0	0	88.5
-13.971	-8.4321e-14	0	0	0	0	30	1.4367e-12	0	0	0	0	88.6
-10.971	6.8445e-14	0	0	0	0	30	-3.6015e-11	0	0	0	0	88.7
-7.9706	-7.2872e-12	0	0	0	0	30	-4.3811e-12	0	0	0	0	88.8
-4.9706	-8.0777e-13	0	0	0	0	30	3.5754e-11	0	0	0	0	88.9
-1.9706	-1.3653e-13	0	0	0	0	30	3.5754e-11	0	0	0	0	89
