623	13	0.383972	0.209440
0	0	0	0	0	-2.3453e-31	30	0.0005868	0	0	0	0	0
3	7.3906e-06	0	9.8358e-06	0	0.00089955	30	0.0005868	0	0.00038971	0	0.017761	0.1
6	0.00011736	0	7.7941e-05	0	0.0035522	30	0.0029108	0	0.0012532	0	0.034932	0.2
9	0.00058955	0	0.00026048	0	0.007886	30	0.0086557	0	0.0026663	0	0.051362	0.3
12	0.0018485	0	0.0006112	0	0.013825	30	0.019433	0	0.0046041	0	0.067007	0.4
15	0.0044762	0	0.0011813	0	0.021287	30	0.036779	0	0.0070407	0	0.081821	0.5
18	0.0092043	0	0.0020193	0	0.030189	30	0.062149	0	0.0099486	0	0.095753	0.6
21	0.016906	0	0.003171	0	0.040438	30	0.096913	0	0.013299	0	0.10875	0.7
24	0.028587	0	0.0046792	0	0.051939	30	0.14236	0	0.017063	0	0.12076	0.8
27	0.045377	0	0.0065836	0	0.06459	29.999	0.19967	0	0.021208	0	0.13172	0.9
30	0.068521	0	0.0089209	0	0.078282	29.999	0.26995	0	0.025703	0	0.14157	1
33	0.099368	0	0.011724	0	0.092903	29.998	0.3542	0	0.030514	0	0.15026	1.1
35.999	0.13936	0	0.015024	0	0.10833	29.997	0.4533	0	0.035605	0	0.15773	1.2
38.999	0.19003	0	0.018845	0	0.12445	29.995	0.56805	0	0.040941	0	0.16394	1.3
41.998	0.25297	0	0.023212	0	0.14112	29.992	0.69911	0	0.046484	0	0.16884	1.4
44.997	0.32985	0	0.028142	0	0.15822	29.988	0.84704	0	0.052195	0	0.1724	1.5
47.996	0.42238	0	0.033651	0	0.1756	29.983	1.0123	0	0.058034	0	0.17459	1.6
50.994	0.5323	0	0.039749	0	0.19313	29.976	1.1951	0	0.06396	0	0.17539	1.7
53.991	0.6614	0	0.046443	0	0.21068	29.967	1.3958	0	0.06993	0	0.1748	1.8
56.987	0.81146	0	0.053735	0	0.22809	29.956	1.6142	0	0.0759	0	0.17281	1.9
59.982	0.98425	0	0.061623	0	0.24524	29.943	1.8504	0	0.081826	0	0.16945	2
62.976	1.1815	0	0.0701	0	0.26198	29.926	2.1041	0	0.087661	0	0.16472	2.1
65.967	1.4051	0	0.079155	0	0.27818	29.905	2.3749	0	0.093357	0	0.15864	2.2
68.957	1.6565	0	0.088771	0	0.29371	29.881	2.6623	0	0.098865	0	0.15125	2.3
71.944	1.9375	0	0.098928	0	0.30843	29.853	2.9655	0	0.10413	0	0.14256	2.4
74.927	2.2496	0	0.1096	0	0.32222	29.819	3.2837	0	0.10912	0	0.13261	2.5
77.908	2.5943	0	0.12075	0	0.33496	29.781	3.6159	0	0.11375	0	0.1214	2.6
80.884	2.9728	0	0.13235	0	0.3465	29.737	3.9608	0	0.118	0	0.10895	2.7
83.855	3.3864	0	0.14435	0	0.35674	29.687	4.3171	0	0.12179	0	0.09525	2.8
86.821	3.8362	0	0.15671	0	0.36555	29.631	4.6833	0	0.12507	0	0.080294	2.9
89.781	4.3231	0	0.16936	0	0.3728	29.57	5.0577	0	0.12778	0	0.064046	3
92.735	4.8478	0	0.18226	0	0.37836	29.502	5.4384	0	0.12987	0	0.046454	3.1
95.682	5.4108	0	0.19534	0	0.38209	29.429	5.8233	0	0.13128	0	0.027445	3.2
98.621	6.0124	0	0.20852	0	0.38385	29.349	6.2103	0	0.13196	0	0.0093894	3.3
101.55	6.6528	0	0.22173	0	0.38397	29.265	6.5973	0	0.13211	0	0.00060188	3.4
104.47	7.3319	0	0.23494	0	0.38397	29.175	6.9834	0	0.13212	0	0	3.5
107.39	8.0495	0	0.24815	0	0.38397	29.08	7.3682	0	0.13212	0	0	3.6
110.29	8.8055	0	0.26136	0	0.38397	28.98	7.7517	0	0.13212	0	0	3.7
113.18	9.5998	0	0.27458	0	0.38397	28.875	8.1339	0	0.13212	0	0	3.8
116.06	10.432	0	0.28779	0	0.38397	28.765	8.5147	0	0.13212	0	0	3.9
118.94	11.303	0	0.301	0	0.38397	28.65	8.894	0	0.13212	0	0	4
121.79	12.211	0	0.31421	0	0.38397	28.53	9.2717	0	0.13212	0	0	4.1
124.64	13.157	0	0.32742	0	0.38397	28.405	9.6478	0	0.13212	0	0	4.2
127.48	14.141	0	0.34063	0	0.38397	28.275	10.022	0	0.13212	0	0	4.3
130.3	15.162	0	0.35385	0	0.38397	28.141	10.395	0	0.13212	0	0	4.4
133.1	16.22	0	0.36706	0	0.38397	28.001	10.766	0	0.13212	0	0	4.5
135.9	17.315	0	0.38027	0	0.38397	27.856	11.135	0	0.13212	0	0	4.6
138.68	18.447	0	0.39348	0	0.38397	27.707	11.502	0	0.13212	0	0	4.7
141.44	19.615	0	0.40669	0	0.38397	27.552	11.867	0	0.13212	0	0	4.8
144.19	20.82	0	0.4199	0	0.38397	27.393	12.23	0	0.13212	0	0	4.9
146.92	22.061	0	0.43312	0	0.38397	27.229	12.591	0	0.13212	0	0	5
149.63	23.338	0	0.44633	0	0.38397	27.06	12.949	0	0.13212	0	0	5.1
152.33	24.651	0	0.45954	0	0.38397	26.887	13.306	0	0.13212	0	0	5.2
155.01	25.999	0	0.47275	0	0.38397	26.709	13.66	0	0.13212	0	0	5.3
157.67	27.383	0	0.48596	0	0.38397	26.526	14.011	0	0.13212	0	0	5.4
160.31	28.802	0	0.49917	0	0.38397	26.339	14.361	0	0.13212	0	0	5.5
162.94	30.255	0	0.51239	0	0.38397	26.147	14.707	0	0.13212	0	0	5.6
165.54	31.743	0	0.5256	0	0.38397	25.95	15.051	0	0.13212	0	0	5.7
168.13	33.265	0	0.53881	0	0.38397	25.749	15.393	0	0.13212	0	0	5.8
170.69	34.822	0	0.55202	0	0.38397	25.543	15.732	0	0.13212	0	0	5.9
173.24	36.412	0	0.56523	0	0.38397	25.333	16.068	0	0.13212	0	0	6
175.76	38.035	0	0.57844	0	0.38397	25.119	16.401	0	0.13212	0	0	6.1
178.26	39.692	0	0.59166	0	0.38397	24.9	16.732	0	0.13212	0	0	6.2
180.74	41.381	0	0.60487	0	0.38397	24.677	17.059	0	0.13212	0	0	6.3
183.2	43.104	0	0.61808	0	0.38397	24.449	17.384	0	0.13212	0	0	6.4
185.63	44.858	0	0.63129	0	0.38397	24.217	17.705	0	0.13212	0	0	6.5
188.04	46.645	0	0.6445	0	0.38397	23.981	18.023	0	0.13212	0	0	6.6
190.43	48.463	0	0.65771	0	0.38397	23.741	18.339	0	0.13212	0	0	6.7
192.79	50.312	0	0.67093	0	0.38397	23.497	18.651	0	0.13212	0	0	6.8
195.13	52.193	0	0.68414	0	0.38397	23.248	18.96	0	0.13212	0	0	6.9
197.44	54.104	0	0.69735	0	0.38397	22.996	19.265	0	0.13212	0	0	7
199.72	56.046	0	0.71056	0	0.38397	22.739	19.567	0	0.13212	0	0	7.1
201.99	58.018	0	0.72377	0	0.38397	22.479	19.866	0	0.13212	0	0	7.2
204.22	60.019	0	0.73698	0	0.38397	22.214	20.161	0	0.13212	0	0	7.3
206.43	62.05	0	0.7502	0	0.38397	21.946	20.453	0	0.13212	0	0	7.4
208.61	64.11	0	0.76341	0	0.38397	21.674	20.741	0	0.13212	0	0	7.5
210.76	66.198	0	0.77662	0	0.38397	21.398	21.026	0	0.13212	0	0	7.6
212.89	68.315	0	0.78983	0	0.38397	21.118	21.306	0	0.13212	0	0	7.7
214.99	70.46	0	0.80304	0	0.38397	20.835	21.584	0	0.13212	0	0	7.8
217.06	72.632	0	0.81625	0	0.38397	20.548	21.857	0	0.13212	0	0	7.9
219.1	74.831	0	0.82947	0	0.38397	20.258	22.126	0	0.13212	0	0	8
221.11	77.057	0	0.84268	0	0.38397	19.963	22.392	0	0.13212	0	0	8.1
223.09	79.309	0	0.85589	0	0.38397	19.666	22.654	0	0.13212	0	0	8.2
225.04	81.588	0	0.8691	0	0.38397	19.365	22.912	0	0.13212	0	0	8.3
226.96	83.892	0	0.88231	0	0.38397	19.06	23.166	0	0.13212	0	0	8.4
228.85	86.221	0	0.89552	0	0.38397	18.753	23.415	0	0.13212	0	0	8.5
230.71	88.575	0	0.90874	0	0.38397	18.442	23.661	0	0.13212	0	0	8.6
232.54	90.953	0	0.92195	0	0.38397	18.128	23.903	0	0.13212	0	0	8.7
234.34	93.355	0	0.93516	0	0.38397	17.81	24.14	0	0.13212	0	0	8.8
236.1	95.781	0	0.94837	0	0.38397	17.49	24.373	0	0.13212	0	0	8.9
237.84	98.23	0	0.96158	0	0.38397	17.166	24.602	0	0.13212	0	0	9
239.54	100.7	0	0.97479	0	0.38397	16.84	24.827	0	0.13212	0	0	9.1
241.2	103.2	0	0.98801	0	0.38397	16.51	25.047	0	0.13212	0	0	9.2
242.84	105.71	0	1.0012	0	0.38397	16.178	25.263	0	0.13212	0	0	9.3
244.44	108.25	0	1.0144	0	0.38397	15.843	25.475	0	0.13212	0	0	9.4
246.01	110.81	0	1.0276	0	0.38397	15.505	25.682	0	0.13212	0	0	9.5
247.54	113.38	0	1.0409	0	0.38397	15.164	25.884	0	0.13212	0	0	9.6
249.04	115.98	0	1.0541	0	0.38397	14.821	26.082	0	0.13212	0	0	9.7
250.5	118.6	0	1.0673	0	0.38397	14.475	26.276	0	0.13212	0	0	9.8
251.93	121.24	0	1.0805	0	0.38397	14.127	26.465	0	0.13212	0	0	9.9
253.33	123.89	0	1.0937	0	0.38397	13.776	26.649	0	0.13212	0	0	10
254.69	126.57	0	1.1069	0	0.38397	13.422	26.829	0	0.13212	0	0	10.1
256.01	129.26	0	1.1201	0	0.38397	13.067	27.004	0	0.13212	0	0	10.2
257.3	131.97	0	1.1333	0	0.38397	12.709	27.174	0	0.13212	0	0	10.3
258.56	134.69	0	1.1465	0	0.38397	12.349	27.34	0	0.13212	0	0	10.4
259.77	137.44	0	1.1598	0	0.38397	11.987	27.5	0	0.13212	0	0	10.5
260.95	140.19	0	1.173	0	0.38397	11.622	27.656	0	0.13212	0	0	10.6
262.1	142.97	0	1.1862	0	0.38397	11.256	27.807	0	0.13212	0	0	10.7
263.2	145.76	0	1.1994	0	0.38397	10.887	27.954	0	0.13212	0	0	10.8
264.27	148.56	0	1.2126	0	0.38397	10.517	28.095	0	0.13212	0	0	10.9
265.31	151.37	0	1.2258	0	0.38397	10.145	28.232	0	0.13212	0	0	11
266.3	154.2	0	1.239	0	0.38397	9.7712	28.363	0	0.13212	0	0	11.1
267.26	157.05	0	1.2522	0	0.38397	9.3956	28.49	0	0.13212	0	0	11.2
268.18	159.9	0	1.2655	0	0.38397	9.0184	28.611	0	0.13212	0	0	11.3
269.07	162.77	0	1.2787	0	0.38397	8.6397	28.728	0	0.13212	0	0	11.4
269.91	165.65	0	1.2919	0	0.38397	8.2594	28.84	0	0.13212	0	0	11.5
270.72	168.54	0	1.3051	0	0.38397	7.8776	28.946	0	0.13212	0	0	11.6
271.49	171.44	0	1.3183	0	0.38397	7.4945	29.048	0	0.13212	0	0	11.7
272.22	174.35	0	1.3315	0	0.38397	7.1101	29.144	0	0.13212	0	0	11.8
272.91	177.27	0	1.3447	0	0.38397	6.7245	29.236	0	0.13212	0	0	11.9
273.56	180.19	0	1.3579	0	0.38397	6.3376	29.322	0	0.13212	0	0	12
274.18	183.13	0	1.3711	0	0.38397	5.9497	29.403	0	0.13212	0	0	12.1
274.75	186.08	0	1.3844	0	0.38397	5.5607	29.479	0	0.13212	0	0	12.2
275.29	189.03	0	1.3976	0	0.38397	5.1708	29.55	0	0.13212	0	0	12.3
275.79	191.99	0	1.4108	0	0.38397	4.7799	29.616	0	0.13212	0	0	12.4
276.24	194.95	0	1.424	0	0.38397	4.3883	29.676	0	0.13212	0	0	12.5
276.66	197.92	0	1.4372	0	0.38397	3.9958	29.732	0	0.13212	0	0	12.6
277.04	200.9	0	1.4504	0	0.38397	3.6027	29.782	0	0.13212	0	0	12.7
277.38	203.88	0	1.4636	0	0.38397	3.2089	29.827	0	0.13212	0	0	12.8
277.68	206.86	0	1.4768	0	0.38397	2.8146	29.867	0	0.13212	0	0	12.9
277.95	209.85	0	1.49	0	0.38397	2.4197	29.901	0	0.13212	0	0	13
278.17	212.84	0	1.5033	0	0.38397	2.0245	29.931	0	0.13212	0	0	13.1
278.35	215.84	0	1.5165	0	0.38397	1.6289	29.955	0	0.13212	0	0	13.2
278.49	218.83	0	1.5297	0	0.38397	1.233	29.974	0	0.13212	0	0	13.3
278.6	221.83	0	1.5429	0	0.38397	0.8369	29.987	0	0.13212	0	0	13.4
278.66	224.83	0	1.5561	0	0.38397	0.44066	29.996	0	0.13212	0	0	13.5
278.69	227.83	0	1.5693	0	0.38397	0.044331	29.999	0	0.13212	0	0	13.6
278.67	230.83	0	1.5825	0	0.38397	-0.352	29.997	0	0.13212	0	0	13.7
278.62	233.83	0	1.5957	0	0.38397	-0.74826	29.99	0	0.13212	0	0	13.8
278.52	236.83	0	1.609	0	0.38397	-1.1444	29.977	0	0.13212	0	0	13.9
278.39	239.83	0	1.6222	0	0.38397	-1.5403	29.96	0	0.13212	0	0	14
278.21	242.82	0	1.6354	0	0.38397	-1.936	29.937	0	0.13212	0	0	14.1
278	245.81	0	1.6486	0	0.38397	-2.3313	29.908	0	0.13212	0	0	14.2
277.75	248.8	0	1.6618	0	0.38397	-2.7263	29.875	0	0.13212	0	0	14.3
277.45	251.79	0	1.675	0	0.38397	-3.1207	29.836	0	0.13212	0	0	14.4
277.12	254.77	0	1.6882	0	0.38397	-3.5146	29.793	0	0.13212	0	0	14.5
276.75	257.75	0	1.7014	0	0.38397	-3.9079	29.743	0	0.13212	0	0	14.6
276.34	260.72	0	1.7146	0	0.38397	-4.3005	29.689	0	0.13212	0	0	14.7
275.89	263.68	0	1.7279	0	0.38397	-4.6924	29.63	0	0.13212	0	0	14.8
275.4	266.64	0	1.7411	0	0.38397	-5.0834	29.565	0	0.13212	0	0	14.9
274.87	269.6	0	1.7543	0	0.38397	-5.4736	29.496	0	0.13212	0	0	15
274.31	272.54	0	1.7675	0	0.38397	-5.8628	29.421	0	0.13212	0	0	15.1
273.7	275.48	0	1.7807	0	0.38397	-6.2509	29.341	0	0.13212	0	0	15.2
273.06	278.41	0	1.7939	0	0.38397	-6.638	29.256	0	0.13212	0	0	15.3
272.37	281.33	0	1.8071	0	0.38397	-7.0239	29.165	0	0.13212	0	0	15.4
271.65	284.24	0	1.8203	0	0.38397	-7.4086	29.07	0	0.13212	0	0	15.5
270.89	287.15	0	1.8336	0	0.38397	-7.792	28.969	0	0.13212	0	0	15.6
270.09	290.04	0	1.8468	0	0.38397	-8.1741	28.864	0	0.13212	0	0	15.7
269.26	292.92	0	1.86	0	0.38397	-8.5547	28.754	0	0.13212	0	0	15.8
268.38	295.79	0	1.8732	0	0.38397	-8.9338	28.638	0	0.13212	0	0	15.9
267.47	298.65	0	1.8864	0	0.38397	-9.3114	28.517	0	0.13212	0	0	16
266.52	301.49	0	1.8996	0	0.38397	-9.6873	28.392	0	0.13212	0	0	16.1
265.53	304.33	0	1.9128	0	0.38397	-10.062	28.261	0	0.13212	0	0	16.2
264.51	307.14	0	1.926	0	0.38397	-10.434	28.126	0	0.13212	0	0	16.3
263.45	309.95	0	1.9392	0	0.38397	-10.805	27.986	0	0.13212	0	0	16.4
262.35	312.74	0	1.9525	0	0.38397	-11.174	27.841	0	0.13212	0	0	16.5
261.21	315.52	0	1.9657	0	0.38397	-11.54	27.691	0	0.13212	0	0	16.6
260.04	318.28	0	1.9789	0	0.38397	-11.905	27.536	0	0.13212	0	0	16.7
258.83	321.03	0	1.9921	0	0.38397	-12.268	27.376	0	0.13212	0	0	16.8
257.59	323.75	0	2.0053	0	0.38397	-12.629	27.212	0	0.13212	0	0	16.9
256.31	326.47	0	2.0185	0	0.38397	-12.987	27.042	0	0.13212	0	0	17
254.99	329.16	0	2.0317	0	0.38397	-13.343	26.868	0	0.13212	0	0	17.1
253.64	331.84	0	2.0449	0	0.38397	-13.697	26.69	0	0.13212	0	0	17.2
252.25	334.5	0	2.0581	0	0.38397	-14.048	26.507	0	0.13212	0	0	17.3
250.83	337.14	0	2.0714	0	0.38397	-14.397	26.319	0	0.13212	0	0	17.4
249.37	339.77	0	2.0846	0	0.38397	-14.744	26.126	0	0.13212	0	0	17.5
247.88	342.37	0	2.0978	0	0.38397	-15.088	25.929	0	0.13212	0	0	17.6
246.35	344.95	0	2.111	0	0.38397	-15.429	25.727	0	0.13212	0	0	17.7
244.79	347.51	0	2.1242	0	0.38397	-15.767	25.521	0	0.13212	0	0	17.8
243.2	350.06	0	2.1374	0	0.38397	-16.103	25.311	0	0.13212	0	0	17.9
241.57	352.58	0	2.1506	0	0.38397	-16.436	25.096	0	0.13212	0	0	18
239.91	355.07	0	2.1638	0	0.38397	-16.766	24.877	0	0.13212	0	0	18.1
238.22	357.55	0	2.1771	0	0.38397	-17.093	24.653	0	0.13212	0	0	18.2
236.49	360	0	2.1903	0	0.38397	-17.418	24.425	0	0.13212	0	0	18.3
234.74	362.44	0	2.2035	0	0.38397	-17.739	24.193	0	0.13212	0	0	18.4
232.95	364.84	0	2.2167	0	0.38397	-18.057	23.956	0	0.13212	0	0	18.5
231.12	367.23	0	2.2299	0	0.38397	-18.372	23.716	0	0.13212	0	0	18.6
229.27	369.59	0	2.2431	0	0.38397	-18.683	23.471	0	0.13212	0	0	18.7
227.39	371.92	0	2.2563	0	0.38397	-18.992	23.222	0	0.13212	0	0	18.8
225.47	374.23	0	2.2695	0	0.38397	-19.297	22.969	0	0.13212	0	0	18.9
223.53	376.52	0	2.2827	0	0.38397	-19.599	22.712	0	0.13212	0	0	19
221.55	378.77	0	2.296	0	0.38397	-19.897	22.451	0	0.13212	0	0	19.1
219.55	381.01	0	2.3092	0	0.38397	-20.192	22.186	0	0.13212	0	0	19.2
217.51	383.21	0	2.3224	0	0.38397	-20.483	21.918	0	0.13212	0	0	19.3
215.45	385.39	0	2.3356	0	0.38397	-20.771	21.645	0	0.13212	0	0	19.4
213.36	387.54	0	2.3488	0	0.38397	-21.055	21.369	0	0.13212	0	0	19.5
211.24	389.66	0	2.362	0	0.38397	-21.336	21.089	0	0.13212	0	0	19.6
209.09	391.76	0	2.3752	0	0.38397	-21.613	20.805	0	0.13212	0	0	19.7
206.92	393.82	0	2.3884	0	0.38397	-21.885	20.518	0	0.13212	0	0	19.8
204.72	395.86	0	2.4017	0	0.38397	-22.155	20.227	0	0.13212	0	0	19.9
202.49	397.87	0	2.4149	0	0.38397	-22.42	19.932	0	0.13212	0	0	20
200.23	399.85	0	2.4281	0	0.38397	-22.681	19.634	0	0.13212	0	0	20.1
197.95	401.8	0	2.4413	0	0.38397	-22.939	19.333	0	0.13212	0	0	20.2
195.64	403.71	0	2.4545	0	0.38397	-23.192	19.028	0	0.13212	0	0	20.3
193.31	405.6	0	2.4677	0	0.38397	-23.441	18.72	0	0.13212	0	0	20.4
190.96	407.46	0	2.4809	0	0.38397	-23.687	18.409	0	0.13212	0	0	20.5
188.58	409.28	0	2.4941	0	0.38397	-23.928	18.094	0	0.13212	0	0	20.6
186.17	411.08	0	2.5073	0	0.38397	-24.165	17.777	0	0.13212	0	0	20.7
183.74	412.84	0	2.5206	0	0.38397	-24.398	17.456	0	0.13212	0	0	20.8
181.29	414.57	0	2.5338	0	0.38397	-24.626	17.132	0	0.13212	0	0	20.9
178.82	416.26	0	2.547	0	0.38397	-24.85	16.805	0	0.13212	0	0	21
176.32	417.93	0	2.5602	0	0.38397	-25.07	16.475	0	0.13212	0	0	21.1
173.8	419.56	0	2.5734	0	0.38397	-25.286	16.143	0	0.13212	0	0	21.2
171.26	421.16	0	2.5866	0	0.38397	-25.497	15.807	0	0.13212	0	0	21.3
168.7	422.72	0	2.5998	0	0.38397	-25.703	15.469	0	0.13212	0	0	21.4
166.12	424.25	0	2.613	0	0.38397	-25.905	15.128	0	0.13212	0	0	21.5
163.52	425.75	0	2.6263	0	0.38397	-26.103	14.784	0	0.13212	0	0	21.6
160.9	427.21	0	2.6395	0	0.38397	-26.296	14.438	0	0.13212	0	0	21.7
158.26	428.63	0	2.6527	0	0.38397	-26.484	14.09	0	0.13212	0	0	21.8
155.61	430.03	0	2.6659	0	0.38397	-26.668	13.739	0	0.13212	0	0	21.9
152.93	431.38	0	2.6791	0	0.38397	-26.847	13.385	0	0.13212	0	0	22
150.24	432.7	0	2.6923	0	0.38397	-27.022	13.029	0	0.13212	0	0	22.1
147.53	433.99	0	2.7055	0	0.38397	-27.192	12.671	0	0.13212	0	0	22.2
144.8	435.24	0	2.7187	0	0.38397	-27.357	12.311	0	0.13212	0	0	22.3
142.05	436.45	0	2.7319	0	0.38397	-27.517	11.948	0	0.13212	0	0	22.4
139.29	437.63	0	2.7452	0	0.38397	-27.672	11.584	0	0.13212	0	0	22.5
136.52	438.77	0	2.7584	0	0.38397	-27.823	11.217	0	0.13212	0	0	22.6
133.73	439.87	0	2.7716	0	0.38397	-27.969	10.849	0	0.13212	0	0	22.7
130.93	440.94	0	2.7848	0	0.38397	-28.11	10.478	0	0.13212	0	0	22.8
128.11	441.97	0	2.798	0	0.38397	-28.246	10.106	0	0.13212	0	0	22.9
125.28	442.96	0	2.8112	0	0.38397	-28.377	9.7318	0	0.13212	0	0	23
122.43	443.91	0	2.8244	0	0.38397	-28.503	9.356	0	0.13212	0	0	23.1
119.58	444.83	0	2.8376	0	0.38397	-28.624	8.9786	0	0.13212	0	0	23.2
116.71	445.71	0	2.8508	0	0.38397	-28.74	8.5996	0	0.13212	0	0	23.3
113.83	446.55	0	2.8641	0	0.38397	-28.851	8.2192	0	0.13212	0	0	23.4
110.94	447.35	0	2.8773	0	0.38397	-28.957	7.8373	0	0.13212	0	0	23.5
108.04	448.12	0	2.8905	0	0.38397	-29.058	7.4541	0	0.13212	0	0	23.6
105.13	448.84	0	2.9037	0	0.38397	-29.154	7.0695	0	0.13212	0	-0.00017312	23.7
102.21	449.53	0	2.9169	0	0.38394	-29.245	6.6838	0	0.13203	0	-0.0056538	23.8
99.277	450.18	0	2.9301	0	0.38284	-29.331	6.2977	0	0.13159	0	-0.018456	23.9
96.34	450.79	0	2.9432	0	0.38025	-29.411	5.9125	0	0.13061	0	-0.033177	24
93.395	451.36	0	2.9562	0	0.37621	-29.485	5.53	0	0.12909	0	-0.047367	24.1
90.443	451.9	0	2.969	0	0.37077	-29.554	5.1519	0	0.12704	0	-0.061029	24.2
87.484	452.39	0	2.9816	0	0.364	-29.616	4.7797	0	0.1245	0	-0.074156	24.3
84.52	452.85	0	2.9939	0	0.35594	-29.673	4.4149	0	0.1215	0	-0.086733	24.4
81.55	453.28	0	3.0059	0	0.34665	-29.723	4.0591	0	0.11806	0	-0.098735	24.5
78.575	453.66	0	3.0176	0	0.33619	-29.769	3.7136	0	0.11421	0	-0.11013	24.6
75.596	454.02	0	3.0288	0	0.32463	-29.808	3.3795	0	0.10999	0	-0.12086	24.7
72.613	454.34	0	3.0396	0	0.31202	-29.843	3.0582	0	0.10543	0	-0.13089	24.8
69.627	454.63	0	3.0499	0	0.29845	-29.873	2.7506	0	0.10055	0	-0.14013	24.9
66.639	454.89	0	3.0597	0	0.284	-29.899	2.4577	0	0.095407	0	-0.14854	25
63.648	455.12	0	3.0689	0	0.26874	-29.92	2.1803	0	0.090025	0	-0.15602	25.1
60.655	455.33	0	3.0777	0	0.25279	-29.938	1.9192	0	0.084443	0	-0.1625	25.2
57.66	455.51	0	3.0858	0	0.23624	-29.953	1.6749	0	0.078702	0	-0.16788	25.3
54.664	455.66	0	3.0934	0	0.21921	-29.965	1.4479	0	0.072841	0	-0.17209	25.4
51.667	455.79	0	3.1004	0	0.20183	-29.974	1.2385	0	0.066902	0	-0.17503	25.5
48.669	455.91	0	3.1068	0	0.18421	-29.982	1.0468	0	0.060928	0	-0.17663	25.6
45.671	456	0	3.1126	0	0.1665	-29.987	0.87314	0	0.054963	0	-0.1768	25.7
42.672	456.08	0	3.1178	0	0.14885	-29.991	0.71718	0	0.049053	0	-0.17547	25.8
39.672	456.15	0	3.1224	0	0.1314	-29.994	0.57882	0	0.043243	0	-0.17259	25.9
36.673	456.2	0	3.1264	0	0.11433	-29.996	0.45766	0	0.037583	0	-0.16808	26
33.673	456.24	0	3.1299	0	0.097789	-29.998	0.35316	0	0.032121	0	-0.16191	26.1
30.673	456.27	0	3.1329	0	0.081948	-29.999	0.26472	0	0.026907	0	-0.15404	26.2
27.673	456.29	0	3.1353	0	0.066981	-29.999	0.19144	0	0.021994	0	-0.14444	26.3
24.673	456.31	0	3.1373	0	0.053061	-30	0.1324	0	0.017435	0	-0.13308	26.4
21.673	456.32	0	3.1388	0	0.040366	-30	0.086428	0	0.013284	0	-0.11994	26.5
18.673	456.33	0	3.1399	0	0.029072	-30	0.052226	0	0.009596	0	-0.10502	26.6
15.673	456.33	0	3.1407	0	0.019362	-30	0.028306	0	0.0064285	0	-0.088282	26.7
12.673	456.33	0	3.1412	0	0.011416	-30	0.013061	0	0.0038395	0	-0.069717	26.8
9.6734	456.33	0	3.1415	0	0.0054186	-30	0.0046016	0	0.0018883	0	-0.049298	26.9
6.6734	456.33	0	3.1416	0	0.0015563	-30	0.00099526	0	0.00063563	0	-0.026997	27
3.6734	456.33	0	3.1416	0	1.9098e-05	-30	9.0822e-05	0	9.5935e-05	0	-0.0077817	27.1
0.67342	456.33	0	3.1416	0	0	-30	-8.1071e-05	0	1.2789e-07	0	-9.549e-05	27.2
-2.3266	456.33	0	3.1416	0	0	-30	-9.675e-06	0	0	0	0	27.3
-5.3266	456.33	0	3.1416	0	0	-30	6.502e-05	0	0	0	0	27.4
-8.3266	456.33	0	3.1416	0	0	-30	-0.00012444	0	0	0	0	27.5
-11.327	456.33	0	3.1416	0	0	-30	-6.2568e-05	0	0	0	0	27.6
-14.327	456.33	0	3.1416	0	0	-30	0.00018527	0	0	0	0	27.7
-17.327	456.33	0	3.1416	0	0	-30	-1.7074e-05	0	0	0	0	27.8
-20.327	456.33	0	3.1416	0	0	-30	-0.00021969	0	0	0	0	27.9
-23.327	456.33	0	3.1416	0	0	-30	8.2984e-05	0	0	0	0	28
-26.327	456.33	0	3.1416	0	0	-30	0.00013276	0	0	0	0	28.1
-29.327	456.33	0	3.1416	0	0	-30	-7.6662e-05	0	0	0	0	28.2
-32.327	456.33	0	3.1416	0	0	-30	-9.8737e-05	0	0	0	0	28.3
-35.327	456.33	0	3.1416	0	0	-30	2.9773e-05	0	0	0	0	28.4
-38.327	456.33	0	3.1416	0	0	-30	0.00010326	0	0	0	0	28.5
-41.327	456.33	0	3.1416	0	0	-30	-3.3671e-07	0	0	0	0	28.6
-44.327	456.33	0	3.1416	0	0	-30	-0.0001145	0	0	0	0	28.7
-47.327	456.33	0	3.1416	0	0	-30	2.0186e-05	0	0	0	0	28.8
-50.327	456.33	0	3.1416	0	0	-30	7.2746e-05	0	0	0	0	28.9
-53.327	456.33	0	3.1416	0	0	-30	-2.0821e-07	0	0	0	0	29
-56.327	456.33	0	3.1416	0	0	-30	-8.8145e-05	0	0	0	0	29.1
-59.327	456.33	0	3.1416	0	0	-30	-1.8198e-05	0	0	0	0	29.2
-62.327	456.33	0	3.1416	0	0	-30	0.00014518	0	0	0	0	29.3
-65.327	456.33	0	3.1416	0	0	-30	-6.5206e-05	0	0	0	0	29.4
-68.327	456.33	0	3.1416	0	0	-30	-5.796e-05	0	0	0	0	29.5
-71.327	456.33	0	3.1416	0	0	-30	0.00011479	0	0	0	0	29.6
-74.327	456.33	0	3.1416	0	0	-30	3.845e-05	0	0	0	0	29.7
-77.327	456.33	0	3.1416	0	0	-30	-4.5578e-05	0	0	0	0	29.8
-80.327	456.33	0	3.1416	0	0	-30	1.6668e-05	0	0	0	0	29.9
-83.327	456.33	0	3.1416	0	0	-30	2.4496e-05	0	0	0	0	30
-86.327	456.33	0	3.1416	0	0	-30	-7.8944e-07	0	0	0	0	30.1
-89.327	456.33	0	3.1416	0	0	-30	3.3288e-06	0	0	0	0	30.2
-92.327	456.33	0	3.1416	0	0	-30	-6.2839e-06	0	0	0	0	30.3
-95.327	456.33	0	3.1416	0	0	-30	-4.824e-06	0	0	0	0	30.4
-98.327	456.33	0	3.1416	0	0	-30	-6.8826e-06	0	0	0	0	30.5
-101.33	456.33	0	3.1416	0	0	-30	3.4332e-05	0	0	0	0	30.6
-104.33	456.33	0	3.1416	0	0	-30	-8.6006e-05	0	0	0	0	30.7
-107.33	456.33	0	3.1416	0	0	-30	5.8996e-06	0	0	0	0	30.8
-110.33	456.33	0	3.1416	0	0	-30	0.00021351	0	0	0	0	30.9
-113.33	456.33	0	3.1416	0	0	-30	-0.00021367	0	0	0	0	31
-116.33	456.33	0	3.1416	0	0	-30	-0.0001724	0	3.3236e-05	0	0.0034665	31.1
-119.33	456.33	0	3.1416	0	0.0006933	-30	-0.00026602	0	0.00032264	0	0.015673	31.2
-122.33	456.33	0	3.1417	0	0.0031345	-30	-0.0024496	0	0.0011171	0	0.032863	31.3
-125.33	456.33	0	3.1418	0	0.0072659	-30	-0.0079562	0	0.002464	0	0.049386	31.4
-128.33	456.33	0	3.1421	0	0.013012	-30	-0.01777	0	0.0043388	0	0.06513	31.5
-131.33	456.33	0	3.1427	0	0.020292	-30	-0.034014	0	0.0067156	0	0.080049	31.6
-134.33	456.32	0	3.1435	0	0.029022	-30	-0.058599	0	0.0095671	0	0.094092	31.7
-137.33	456.32	0	3.1446	0	0.03911	-30	-0.092363	0	0.012865	0	0.10721	31.8
-140.33	456.3	0	3.1461	0	0.050463	-30	-0.13613	0	0.01658	0	0.11934	31.9
-143.33	456.29	0	3.1479	0	0.062978	-29.999	-0.19171	0	0.02068	0	0.13043	32
-146.33	456.27	0	3.1502	0	0.076549	-29.999	-0.26057	0	0.025134	0	0.14042	32.1
-149.33	456.24	0	3.1529	0	0.091062	-29.998	-0.34306	0	0.029907	0	0.14925	32.2
-152.33	456.2	0	3.1562	0	0.1064	-29.997	-0.44034	0	0.034966	0	0.15688	32.3
-155.33	456.15	0	3.1599	0	0.12244	-29.995	-0.55307	0	0.040274	0	0.16325	32.4
-158.32	456.09	0	3.1642	0	0.13905	-29.992	-0.68211	0	0.045793	0	0.16831	32.5
-161.32	456.01	0	3.1691	0	0.1561	-29.989	-0.82795	0	0.051486	0	0.17203	32.6
-164.32	455.92	0	3.1745	0	0.17346	-29.983	-0.99102	0	0.057311	0	0.17439	32.7
-167.32	455.81	0	3.1806	0	0.19098	-29.977	-1.1718	0	0.063229	0	0.17537	32.8
-170.32	455.69	0	3.1872	0	0.20853	-29.968	-1.3702	0	0.069196	0	0.17495	32.9
-173.31	455.54	0	3.1944	0	0.22597	-29.958	-1.5864	0	0.075169	0	0.17313	33
-176.31	455.37	0	3.2022	0	0.24316	-29.944	-1.8205	0	0.081103	0	0.16994	33.1
-179.3	455.18	0	3.2106	0	0.25995	-29.928	-2.072	0	0.086951	0	0.16537	33.2
-182.3	454.96	0	3.2196	0	0.27623	-29.908	-2.3408	0	0.092667	0	0.15946	33.3
-185.28	454.71	0	3.2292	0	0.29185	-29.884	-2.6261	0	0.0982	0	0.15223	33.4
-188.27	454.43	0	3.2392	0	0.30667	-29.856	-2.9274	0	0.1035	0	0.1437	33.5
-191.26	454.12	0	3.2499	0	0.32059	-29.824	-3.2439	0	0.10852	0	0.1339	33.6
-194.24	453.78	0	3.2609	0	0.33345	-29.786	-3.5743	0	0.1132	0	0.12284	33.7
-197.21	453.41	0	3.2725	0	0.34515	-29.742	-3.9178	0	0.1175	0	0.11054	33.8
-200.19	453	0	3.2844	0	0.35556	-29.693	-4.2728	0	0.12135	0	0.096998	33.9
-203.15	452.55	0	3.2968	0	0.36455	-29.639	-4.6379	0	0.12469	0	0.082199	34
-206.11	452.07	0	3.3094	0	0.372	-29.578	-5.0114	0	0.12748	0	0.066112	34.1
-209.07	451.55	0	3.3223	0	0.37778	-29.511	-5.3914	0	0.12965	0	0.048689	34.2
-212.02	450.99	0	3.3353	0	0.38174	-29.438	-5.7759	0	0.13114	0	0.029858	34.3
-214.96	450.4	0	3.3485	0	0.38375	-29.359	-6.1627	0	0.13191	0	0.011164	34.4
-217.89	449.76	0	3.3617	0	0.38397	-29.275	-6.5499	0	0.13211	0	0.0011234	34.5
-220.81	449.09	0	3.3749	0	0.38397	-29.186	-6.936	0	0.13212	0	0	34.6
-223.72	448.37	0	3.3881	0	0.38397	-29.092	-7.3214	0	0.13212	0	0	34.7
-226.63	447.62	0	3.4013	0	0.38397	-28.993	-7.7047	0	0.13212	0	0	34.8
-229.52	446.83	0	3.4145	0	0.38397	-28.888	-8.0867	0	0.13212	0	0	34.9
-232.41	446	0	3.4278	0	0.38397	-28.779	-8.468	0	0.13212	0	0	35
-235.28	445.14	0	3.441	0	0.38397	-28.665	-8.8474	0	0.13212	0	0	35.1
-238.14	444.23	0	3.4542	0	0.38397	-28.545	-9.2255	0	0.13212	0	0	35.2
-240.99	443.29	0	3.4674	0	0.38397	-28.421	-9.6018	0	0.13212	0	0	35.3
-243.82	442.31	0	3.4806	0	0.38397	-28.292	-9.9763	0	0.13212	0	0	35.4
-246.65	441.3	0	3.4938	0	0.38397	-28.157	-10.349	0	0.13212	0	0	35.5
-249.45	440.24	0	3.507	0	0.38397	-28.018	-10.72	0	0.13212	0	0	35.6
-252.25	439.15	0	3.5202	0	0.38397	-27.874	-11.09	0	0.13212	0	0	35.7
-255.03	438.03	0	3.5335	0	0.38397	-27.725	-11.457	0	0.13212	0	0	35.8
-257.79	436.86	0	3.5467	0	0.38397	-27.571	-11.822	0	0.13212	0	0	35.9
-260.54	435.66	0	3.5599	0	0.38397	-27.413	-12.185	0	0.13212	0	0	36
-263.28	434.43	0	3.5731	0	0.38397	-27.249	-12.546	0	0.13212	0	0	36.1
-265.99	433.15	0	3.5863	0	0.38397	-27.081	-12.905	0	0.13212	0	0	36.2
-268.69	431.84	0	3.5995	0	0.38397	-26.908	-13.262	0	0.13212	0	0	36.3
-271.38	430.5	0	3.6127	0	0.38397	-26.731	-13.616	0	0.13212	0	0	36.4
-274.04	429.12	0	3.6259	0	0.38397	-26.549	-13.968	0	0.13212	0	0	36.5
-276.69	427.71	0	3.6391	0	0.38397	-26.362	-14.318	0	0.13212	0	0	36.6
-279.31	426.26	0	3.6524	0	0.38397	-26.17	-14.665	0	0.13212	0	0	36.7
-281.92	424.77	0	3.6656	0	0.38397	-25.974	-15.009	0	0.13212	0	0	36.8
-284.51	423.26	0	3.6788	0	0.38397	-25.774	-15.351	0	0.13212	0	0	36.9
-287.07	421.7	0	3.692	0	0.38397	-25.569	-15.69	0	0.13212	0	0	37
-289.62	420.12	0	3.7052	0	0.38397	-25.359	-16.027	0	0.13212	0	0	37.1
-292.15	418.5	0	3.7184	0	0.38397	-25.145	-16.36	0	0.13212	0	0	37.2
-294.65	416.85	0	3.7316	0	0.38397	-24.927	-16.691	0	0.13212	0	0	37.3
-297.13	415.16	0	3.7448	0	0.38397	-24.704	-17.019	0	0.13212	0	0	37.4
-299.59	413.44	0	3.758	0	0.38397	-24.477	-17.344	0	0.13212	0	0	37.5
-302.03	411.69	0	3.7713	0	0.38397	-24.246	-17.666	0	0.13212	0	0	37.6
-304.44	409.91	0	3.7845	0	0.38397	-24.01	-17.985	0	0.13212	0	0	37.7
-306.83	408.09	0	3.7977	0	0.38397	-23.771	-18.3	0	0.13212	0	0	37.8
-309.19	406.25	0	3.8109	0	0.38397	-23.527	-18.613	0	0.13212	0	0	37.9
-311.53	404.37	0	3.8241	0	0.38397	-23.279	-18.922	0	0.13212	0	0	38
-313.85	402.46	0	3.8373	0	0.38397	-23.027	-19.228	0	0.13212	0	0	38.1
-316.14	400.53	0	3.8505	0	0.38397	-22.771	-19.53	0	0.13212	0	0	38.2
-318.4	398.56	0	3.8637	0	0.38397	-22.511	-19.829	0	0.13212	0	0	38.3
-320.64	396.56	0	3.877	0	0.38397	-22.247	-20.125	0	0.13212	0	0	38.4
-322.85	394.53	0	3.8902	0	0.38397	-21.979	-20.417	0	0.13212	0	0	38.5
-325.04	392.48	0	3.9034	0	0.38397	-21.708	-20.706	0	0.13212	0	0	38.6
-327.19	390.39	0	3.9166	0	0.38397	-21.432	-20.991	0	0.13212	0	0	38.7
-329.32	388.28	0	3.9298	0	0.38397	-21.153	-21.272	0	0.13212	0	0	38.8
-331.43	386.14	0	3.943	0	0.38397	-20.87	-21.55	0	0.13212	0	0	38.9
-333.5	383.97	0	3.9562	0	0.38397	-20.584	-21.824	0	0.13212	0	0	39
-335.54	381.77	0	3.9694	0	0.38397	-20.293	-22.094	0	0.13212	0	0	39.1
-337.56	379.55	0	3.9826	0	0.38397	-20	-22.36	0	0.13212	0	0	39.2
-339.54	377.3	0	3.9959	0	0.38397	-19.703	-22.622	0	0.13212	0	0	39.3
-341.5	375.03	0	4.0091	0	0.38397	-19.402	-22.88	0	0.13212	0	0	39.4
-343.42	372.72	0	4.0223	0	0.38397	-19.098	-23.135	0	0.13212	0	0	39.5
-345.32	370.4	0	4.0355	0	0.38397	-18.791	-23.385	0	0.13212	0	0	39.6
-347.18	368.05	0	4.0487	0	0.38397	-18.48	-23.631	0	0.13212	0	0	39.7
-349.01	365.67	0	4.0619	0	0.38397	-18.166	-23.873	0	0.13212	0	0	39.8
-350.81	363.27	0	4.0751	0	0.38397	-17.849	-24.111	0	0.13212	0	0	39.9
-352.58	360.85	0	4.0883	0	0.38397	-17.529	-24.345	0	0.13212	0	0	40
-354.32	358.4	0	4.1016	0	0.38397	-17.206	-24.574	0	0.13212	0	0	40.1
-356.02	355.93	0	4.1148	0	0.38397	-16.88	-24.8	0	0.13212	0	0	40.2
-357.7	353.44	0	4.128	0	0.38397	-16.551	-25.02	0	0.13212	0	0	40.3
-359.33	350.93	0	4.1412	0	0.38397	-16.219	-25.237	0	0.13212	0	0	40.4
-360.94	348.4	0	4.1544	0	0.38397	-15.884	-25.449	0	0.13212	0	0	40.5
-362.51	345.84	0	4.1676	0	0.38397	-15.546	-25.657	0	0.13212	0	0	40.6
-364.05	343.27	0	4.1808	0	0.38397	-15.206	-25.86	0	0.13212	0	0	40.7
-365.55	340.67	0	4.194	0	0.38397	-14.863	-26.058	0	0.13212	0	0	40.8
-367.02	338.05	0	4.2072	0	0.38397	-14.518	-26.252	0	0.13212	0	0	40.9
-368.46	335.42	0	4.2205	0	0.38397	-14.169	-26.442	0	0.13212	0	0	41
-369.86	332.77	0	4.2337	0	0.38397	-13.819	-26.627	0	0.13212	0	0	41.1
-371.22	330.09	0	4.2469	0	0.38397	-13.466	-26.807	0	0.13212	0	0	41.2
-372.55	327.4	0	4.2601	0	0.38397	-13.111	-26.983	0	0.13212	0	0	41.3
-373.84	324.7	0	4.2733	0	0.38397	-12.753	-27.153	0	0.13212	0	0	41.4
-375.1	321.97	0	4.2865	0	0.38397	-12.393	-27.319	0	0.13212	0	0	41.5
-376.32	319.23	0	4.2997	0	0.38397	-12.031	-27.481	0	0.13212	0	0	41.6
-377.51	316.48	0	4.3129	0	0.38397	-11.667	-27.638	0	0.13212	0	0	41.7
-378.65	313.71	0	4.3262	0	0.38397	-11.301	-27.789	0	0.13212	0	0	41.8
-379.77	310.92	0	4.3394	0	0.38397	-10.933	-27.936	0	0.13212	0	0	41.9
-380.84	308.12	0	4.3526	0	0.38397	-10.563	-28.078	0	0.13212	0	0	42
-381.88	305.3	0	4.3658	0	0.38397	-10.191	-28.215	0	0.13212	0	0	42.1
-382.88	302.48	0	4.379	0	0.38397	-9.8172	-28.347	0	0.13212	0	0	42.2
-383.84	299.63	0	4.3922	0	0.38397	-9.4418	-28.475	0	0.13212	0	0	42.3
-384.77	296.78	0	4.4054	0	0.38397	-9.0648	-28.597	0	0.13212	0	0	42.4
-385.65	293.91	0	4.4186	0	0.38397	-8.6862	-28.714	0	0.13212	0	0	42.5
-386.5	291.04	0	4.4318	0	0.38397	-8.3062	-28.826	0	0.13212	0	0	42.6
-387.32	288.15	0	4.4451	0	0.38397	-7.9246	-28.933	0	0.13212	0	0	42.7
-388.09	285.25	0	4.4583	0	0.38397	-7.5416	-29.036	0	0.13212	0	0	42.8
-388.82	282.34	0	4.4715	0	0.38397	-7.1573	-29.133	0	0.13212	0	0	42.9
-389.52	279.42	0	4.4847	0	0.38397	-6.7719	-29.225	0	0.13212	0	0	43
-390.18	276.5	0	4.4979	0	0.38397	-6.3852	-29.312	0	0.13212	0	0	43.1
-390.8	273.56	0	4.5111	0	0.38397	-5.9974	-29.394	0	0.13212	0	0	43.2
-391.38	270.62	0	4.5243	0	0.38397	-5.6085	-29.47	0	0.13212	0	0	43.3
-391.92	267.67	0	4.5375	0	0.38397	-5.2186	-29.542	0	0.13212	0	0	43.4
-392.42	264.71	0	4.5507	0	0.38397	-4.8279	-29.608	0	0.13212	0	0	43.5
-392.88	261.75	0	4.564	0	0.38397	-4.4364	-29.669	0	0.13212	0	0	43.6
-393.31	258.78	0	4.5772	0	0.38397	-4.0441	-29.725	0	0.13212	0	0	43.7
-393.69	255.8	0	4.5904	0	0.38397	-3.651	-29.776	0	0.13212	0	0	43.8
-394.04	252.82	0	4.6036	0	0.38397	-3.2573	-29.822	0	0.13212	0	0	43.9
-394.35	249.84	0	4.6168	0	0.38397	-2.8629	-29.862	0	0.13212	0	0	44
-394.61	246.85	0	4.63	0	0.38397	-2.4686	-29.897	0	0.13212	0	0	44.1
-394.84	243.86	0	4.6432	0	0.38397	-2.073	-29.927	0	0.13212	0	0	44.2
-395.03	240.86	0	4.6564	0	0.38397	-1.6771	-29.952	0	0.13212	0	0	44.3
-395.17	237.87	0	4.6697	0	0.38397	-1.2817	-29.972	0	0.13212	0	0	44.4
-395.28	234.87	0	4.6829	0	0.38397	-0.88558	-29.986	0	0.13212	0	0	44.5
-395.35	231.87	0	4.6961	0	0.38397	-0.48927	-29.995	0	0.13212	0	0	44.6
-395.38	228.87	0	4.7093	0	0.38397	-0.092944	-29.999	0	0.13212	0	0	44.7
-395.37	225.87	0	4.7225	0	0.38397	0.30337	-29.998	0	0.13212	0	0	44.8
-395.32	222.87	0	4.7357	0	0.38397	0.69964	-29.991	0	0.13212	0	0	44.9
-395.23	219.87	0	4.7489	0	0.38397	1.0957	-29.979	0	0.13212	0	0	45
-395.1	216.87	0	4.7621	0	0.38397	1.4917	-29.962	0	0.13212	0	0	45.1
-394.93	213.88	0	4.7753	0	0.38397	1.8874	-29.94	0	0.13212	0	0	45.2
-394.72	210.89	0	4.7886	0	0.38397	2.2829	-29.912	0	0.13212	0	0	45.3
-394.48	207.9	0	4.8018	0	0.38397	2.6779	-29.879	0	0.13212	0	0	45.4
-394.19	204.91	0	4.815	0	0.38397	3.0723	-29.841	0	0.13212	0	0	45.5
-393.86	201.93	0	4.8282	0	0.38397	3.4662	-29.798	0	0.13212	0	0	45.6
-393.49	198.95	0	4.8414	0	0.38397	3.8597	-29.75	0	0.13212	0	0	45.7
-393.09	195.98	0	4.8546	0	0.38397	4.2524	-29.696	0	0.13212	0	0	45.8
-392.64	193.01	0	4.8678	0	0.38397	4.6443	-29.637	0	0.13212	0	0	45.9
-392.16	190.05	0	4.881	0	0.38397	5.0355	-29.574	0	0.13212	0	0	46
-391.64	187.1	0	4.8943	0	0.38397	5.4258	-29.504	0	0.13212	0	0	46.1
-391.07	184.15	0	4.9075	0	0.38397	5.815	-29.43	0	0.13212	0	0	46.2
-390.47	181.21	0	4.9207	0	0.38397	6.2033	-29.351	0	0.13212	0	0	46.3
-389.83	178.28	0	4.9339	0	0.38397	6.5906	-29.266	0	0.13212	0	0	46.4
-389.16	175.36	0	4.9471	0	0.38397	6.9766	-29.177	0	0.13212	0	0	46.5
-388.44	172.44	0	4.9603	0	0.38397	7.3615	-29.082	0	0.13212	0	0	46.6
-387.68	169.54	0	4.9735	0	0.38397	7.745	-28.982	0	0.13212	0	0	46.7
-386.89	166.65	0	4.9867	0	0.38397	8.1272	-28.877	0	0.13212	0	0	46.8
-386.06	163.77	0	4.9999	0	0.38397	8.5081	-28.767	0	0.13212	0	0	46.9
-385.19	160.89	0	5.0132	0	0.38397	8.8874	-28.652	0	0.13212	0	0	47
-384.28	158.04	0	5.0264	0	0.38397	9.2651	-28.533	0	0.13212	0	0	47.1
-383.34	155.19	0	5.0396	0	0.38397	9.6412	-28.408	0	0.13212	0	0	47.2
-382.35	152.35	0	5.0528	0	0.38397	10.016	-28.278	0	0.13212	0	0	47.3
-381.33	149.53	0	5.066	0	0.38397	10.388	-28.143	0	0.13212	0	0	47.4
-380.27	146.73	0	5.0792	0	0.38397	10.759	-28.003	0	0.13212	0	0	47.5
-379.18	143.93	0	5.0924	0	0.38397	11.128	-27.859	0	0.13212	0	0	47.6
-378.05	141.15	0	5.1056	0	0.38397	11.495	-27.709	0	0.13212	0	0	47.7
-376.88	138.39	0	5.1189	0	0.38397	11.861	-27.555	0	0.13212	0	0	47.8
-375.68	135.64	0	5.1321	0	0.38397	12.223	-27.396	0	0.13212	0	0	47.9
-374.44	132.91	0	5.1453	0	0.38397	12.584	-27.232	0	0.13212	0	0	48
-373.16	130.2	0	5.1585	0	0.38397	12.943	-27.063	0	0.13212	0	0	48.1
-371.85	127.5	0	5.1717	0	0.38397	13.299	-26.89	0	0.13212	0	0	48.2
-370.5	124.82	0	5.1849	0	0.38397	13.654	-26.712	0	0.13212	0	0	48.3
-369.12	122.16	0	5.1981	0	0.38397	14.005	-26.529	0	0.13212	0	0	48.4
-367.7	119.51	0	5.2113	0	0.38397	14.355	-26.342	0	0.13212	0	0	48.5
-366.25	116.89	0	5.2245	0	0.38397	14.701	-26.15	0	0.13212	0	0	48.6
-364.76	114.28	0	5.2378	0	0.38397	15.045	-25.953	0	0.13212	0	0	48.7
-363.24	111.7	0	5.251	0	0.38397	15.387	-25.752	0	0.13212	0	0	48.8
-361.68	109.13	0	5.2642	0	0.38397	15.726	-25.547	0	0.13212	0	0	48.9
-360.09	106.59	0	5.2774	0	0.38397	16.062	-25.337	0	0.13212	0	0	49
-358.47	104.06	0	5.2906	0	0.38397	16.395	-25.123	0	0.13212	0	0	49.1
-356.81	101.56	0	5.3038	0	0.38397	16.726	-24.904	0	0.13212	0	0	49.2
-355.12	99.084	0	5.317	0	0.38397	17.053	-24.681	0	0.13212	0	0	49.3
-353.4	96.627	0	5.3302	0	0.38397	17.378	-24.453	0	0.13212	0	0	49.4
-351.65	94.193	0	5.3434	0	0.38397	17.7	-24.221	0	0.13212	0	0	49.5
-349.86	91.783	0	5.3567	0	0.38397	18.018	-23.985	0	0.13212	0	0	49.6
-348.04	89.396	0	5.3699	0	0.38397	18.333	-23.745	0	0.13212	0	0	49.7
-346.2	87.034	0	5.3831	0	0.38397	18.645	-23.501	0	0.13212	0	0	49.8
-344.32	84.696	0	5.3963	0	0.38397	18.954	-23.253	0	0.13212	0	0	49.9
-342.4	82.383	0	5.4095	0	0.38397	19.26	-23	0	0.13212	0	0	50
-340.46	80.096	0	5.4227	0	0.38397	19.562	-22.744	0	0.13212	0	0	50.1
-338.49	77.834	0	5.4359	0	0.38397	19.861	-22.483	0	0.13212	0	0	50.2
-336.49	75.599	0	5.4491	0	0.38397	20.156	-22.219	0	0.13212	0	0	50.3
-334.46	73.39	0	5.4624	0	0.38397	20.448	-21.951	0	0.13212	0	0	50.4
-332.4	71.209	0	5.4756	0	0.38397	20.736	-21.679	0	0.13212	0	0	50.5
-330.31	69.055	0	5.4888	0	0.38397	21.021	-21.403	0	0.13212	0	0	50.6
-328.2	66.928	0	5.502	0	0.38397	21.301	-21.123	0	0.13212	0	0	50.7
-326.05	64.83	0	5.5152	0	0.38397	21.579	-20.84	0	0.13212	0	0	50.8
-323.88	62.76	0	5.5284	0	0.38397	21.852	-20.553	0	0.13212	0	0	50.9
-321.68	60.719	0	5.5416	0	0.38397	22.122	-20.263	0	0.13212	0	0	51
-319.46	58.708	0	5.5548	0	0.38397	22.388	-19.969	0	0.13212	0	0	51.1
-317.21	56.726	0	5.568	0	0.38397	22.649	-19.671	0	0.13212	0	0	51.2
-314.93	54.774	0	5.5813	0	0.38397	22.907	-19.37	0	0.13212	0	0	51.3
-312.62	52.852	0	5.5945	0	0.38397	23.161	-19.066	0	0.13212	0	0	51.4
-310.3	50.96	0	5.6077	0	0.38397	23.411	-18.758	0	0.13212	0	0	51.5
-307.94	49.1	0	5.6209	0	0.38397	23.657	-18.447	0	0.13212	0	0	51.6
-305.56	47.271	0	5.6341	0	0.38397	23.898	-18.133	0	0.13212	0	0	51.7
-303.16	45.473	0	5.6473	0	0.38397	24.136	-17.816	0	0.13212	0	0	51.8
-300.74	43.708	0	5.6605	0	0.38397	24.369	-17.495	0	0.13212	0	0	51.9
-298.29	41.974	0	5.6737	0	0.38397	24.598	-17.172	0	0.13212	0	0	52
-295.82	40.273	0	5.687	0	0.38397	24.823	-16.845	0	0.13212	0	0	52.1
-293.32	38.605	0	5.7002	0	0.38397	25.043	-16.516	0	0.13212	0	0	52.2
-290.81	36.97	0	5.7134	0	0.38397	25.259	-16.184	0	0.13212	0	0	52.3
-288.27	35.369	0	5.7266	0	0.38397	25.471	-15.849	0	0.13212	0	0	52.4
-285.71	33.801	0	5.7398	0	0.38397	25.678	-15.511	0	0.13212	0	0	52.5
-283.14	32.266	0	5.753	0	0.38397	25.881	-15.17	0	0.13212	0	0	52.6
-280.54	30.767	0	5.7662	0	0.38397	26.079	-14.827	0	0.13212	0	0	52.7
-277.92	29.301	0	5.7794	0	0.38397	26.273	-14.481	0	0.13212	0	0	52.8
-275.28	27.87	0	5.7926	0	0.38397	26.462	-14.133	0	0.13212	0	0	52.9
-272.63	26.475	0	5.8059	0	0.38397	26.646	-13.782	0	0.13212	0	0	53
-269.95	25.114	0	5.8191	0	0.38397	26.826	-13.429	0	0.13212	0	0	53.1
-267.26	23.789	0	5.8323	0	0.38397	27.001	-13.073	0	0.13212	0	0	53.2
-264.55	22.499	0	5.8455	0	0.38397	27.171	-12.715	0	0.13212	0	0	53.3
-261.83	21.246	0	5.8587	0	0.38397	27.337	-12.355	0	0.13212	0	0	53.4
-259.09	20.028	0	5.8719	0	0.38397	27.498	-11.993	0	0.13212	0	0	53.5
-256.33	18.847	0	5.8851	0	0.38397	27.654	-11.629	0	0.13212	0	0	53.6
-253.56	17.703	0	5.8983	0	0.38397	27.805	-11.262	0	0.13212	0	0	53.7
-250.77	16.595	0	5.9115	0	0.38397	27.951	-10.894	0	0.13212	0	0	53.8
-247.97	15.524	0	5.9248	0	0.38397	28.093	-10.524	0	0.13212	0	0	53.9
-245.15	14.49	0	5.938	0	0.38397	28.229	-10.152	0	0.13212	0	0	54
-242.32	13.494	0	5.9512	0	0.38397	28.361	-9.7778	0	0.13212	0	0	54.1
-239.48	12.534	0	5.9644	0	0.38397	28.488	-9.4022	0	0.13212	0	0	54.2
-236.62	11.613	0	5.9776	0	0.38397	28.609	-9.025	0	0.13212	0	0	54.3
-233.76	10.729	0	5.9908	0	0.38397	28.726	-8.6463	0	0.13212	0	0	54.4
-230.88	9.8838	0	6.004	0	0.38397	28.838	-8.266	0	0.13212	0	0	54.5
-227.99	9.0763	0	6.0172	0	0.38397	28.944	-7.8843	0	0.13212	0	0	54.6
-225.09	8.307	0	6.0305	0	0.38397	29.046	-7.5012	0	0.13212	0	0	54.7
-222.18	7.576	0	6.0437	0	0.38397	29.143	-7.1169	0	0.13212	0	-3.0136e-05	54.8
-219.26	6.8836	0	6.0569	0	0.38397	29.234	-6.7313	0	0.13205	0	-0.0045719	54.9
-216.33	6.2298	0	6.0701	0	0.38306	29.32	-6.3451	0	0.13167	0	-0.016611	55
-213.4	5.6146	0	6.0832	0	0.38064	29.401	-5.9597	0	0.13076	0	-0.031399	55.1
-210.45	5.0378	0	6.0962	0	0.37678	29.476	-5.5768	0	0.1293	0	-0.045653	55.2
-207.5	4.4992	0	6.1091	0	0.37151	29.545	-5.198	0	0.12732	0	-0.05938	55.3
-204.54	3.9982	0	6.1217	0	0.3649	29.609	-4.825	0	0.12484	0	-0.072573	55.4
-201.58	3.5342	0	6.134	0	0.357	29.666	-4.4592	0	0.12189	0	-0.085219	55.5
-198.61	3.1064	0	6.1461	0	0.34786	29.717	-4.1022	0	0.1185	0	-0.097294	55.6
-195.64	2.7138	0	6.1577	0	0.33754	29.763	-3.7554	0	0.1147	0	-0.10876	55.7
-192.66	2.3553	0	6.169	0	0.32611	29.804	-3.4199	0	0.11053	0	-0.11958	55.8
-189.67	2.0298	0	6.1798	0	0.31362	29.839	-3.0969	0	0.106	0	-0.12969	55.9
-186.69	1.7359	0	6.1902	0	0.30017	29.87	-2.7876	0	0.10117	0	-0.13904	56
-183.7	1.4723	0	6.2001	0	0.28582	29.896	-2.4929	0	0.096052	0	-0.14756	56.1
-180.71	1.2374	0	6.2094	0	0.27066	29.918	-2.2136	0	0.090697	0	-0.15516	56.2
-177.72	1.0296	0	6.2182	0	0.25478	29.936	-1.9504	0	0.085138	0	-0.16176	56.3
-174.72	0.84729	0	6.2265	0	0.2383	29.951	-1.704	0	0.079414	0	-0.16728	56.4
-171.73	0.68879	0	6.2341	0	0.22133	29.963	-1.4748	0	0.073566	0	-0.17164	56.5
-168.73	0.55233	0	6.2412	0	0.20398	29.973	-1.2632	0	0.067634	0	-0.17474	56.6
-165.73	0.43614	0	6.2476	0	0.18638	29.981	-1.0694	0	0.061662	0	-0.17651	56.7
-162.73	0.33844	0	6.2535	0	0.16867	29.987	-0.89351	0	0.055694	0	-0.17686	56.8
-159.73	0.25744	0	6.2588	0	0.15101	29.991	-0.73539	0	0.049774	0	-0.17572	56.9
-156.74	0.19136	0	6.2635	0	0.13353	29.994	-0.59487	0	0.043949	0	-0.17303	57
-153.74	0.13846	0	6.2676	0	0.1164	29.996	-0.47161	0	0.038268	0	-0.16872	57.1
-150.74	0.097039	0	6.2711	0	0.099785	29.998	-0.3651	0	0.032779	0	-0.16276	57.2
-147.74	0.065442	0	6.2741	0	0.08385	29.999	-0.27471	0	0.027532	0	-0.1551	57.3
-144.74	0.042097	0	6.2766	0	0.068766	29.999	-0.19962	0	0.02258	0	-0.14571	57.4
-141.74	0.025518	0	6.2786	0	0.054708	30	-0.13889	0	0.017974	0	-0.13457	57.5
-138.74	0.01432	0	6.2802	0	0.041852	30	-0.091377	0	0.01377	0	-0.12165	57.6
-135.74	0.0072424	0	6.2814	0	0.030377	30	-0.055811	0	0.010022	0	-0.10695	57.7
-132.74	0.0031581	0	6.2822	0	0.020463	30	-0.030732	0	0.0067874	0	-0.090435	57.8
-129.74	0.0010959	0	6.2827	0	0.01229	30	-0.014515	0	0.0041242	0	-0.072095	57.9
-126.74	0.00025513	0	6.283	0	0.0060437	30	-0.0053568	0	0.0020914	0	-0.051906	58
-123.74	2.453e-05	0	6.2832	0	0.0019092	30	-0.0012755	0	0.00074973	0	-0.029838	58.1
-120.74	3.763e-08	0	6.2832	0	7.6151e-05	30	-0.00012265	0	0.00013066	0	-0.0095459	58.2
-117.74	1.5568e-12	0	6.2832	0	0	30	-1.8815e-07	0	1.0207e-06	0	-0.00038075	58.3
-114.74	8.6833e-14	0	6.2832	0	0	30	-8.6665e-12	0	0	0	0	58.4
-111.74	-1.765e-13	0	6.2832	0	0	30	-2.0681e-09	0	0	0	0	58.5
-108.74	-4.1354e-10	0	6.2832	0	0	30	2.4678e-12	0	0	0	0	58.6
-105.74	3.1706e-13	0	6.2832	0	0	30	2.0913e-09	0	0	0	0	58.7
-102.74	4.7286e-12	0	6.2832	0	0	30	-1.8299e-12	0	0	0	0	58.8
-99.737	-4.8924e-14	0	6.2832	0	0	30	-2.0582e-11	0	0	0	0	58.9
-96.737	6.1226e-13	0	6.2832	0	0	30	7.9492e-13	0	0	0	0	59
-93.737	1.1006e-13	0	6.2832	0	0	30	-7.9089e-13	0	0	0	0	59.1
-90.737	4.5408e-13	0	6.2832	0	0	30	2.0398e-12	0	0	0	0	59.2
-87.737	5.1801e-13	0	6.2832	0	0	30	-5.8351e-12	0	0	0	0	59.3
-84.737	-7.1294e-13	0	6.2832	0	0	30	-6.78e-12	0	0	0	0	59.4
-81.737	-8.38e-13	0	6.2832	0	0	30	9.3224e-13	0	0	0	0	59.5
-78.737	-5.2649e-13	0	6.2832	0	0	30	3.0881e-12	0	0	0	0	59.6
-75.737	-2.2038e-13	0	6.2832	0	0	30	-1.3742e-13	0	0	0	0	59.7
-72.737	-5.5397e-13	0	6.2832	0	0	30	5.4205e-08	0	0	0	0	59.8
-69.737	1.0841e-08	0	6.2832	0	0	30	2.716e-12	0	0	0	0	59.9
-66.737	-1.0776e-14	0	6.2832	0	0	30	-5.4205e-08	0	0	0	0	60
-63.737	-2.4708e-13	0	6.2832	0	0	30	-2.6385e-13	0	0	0	0	60.1
-60.737	-6.3546e-14	0	6.2832	0	0	30	1.07e-12	0	0	0	0	60.2
-57.737	-3.3085e-14	0	6.2832	0	0	30	1.6792e-12	0	0	0	0	60.3
-54.737	2.723e-13	0	6.2832	0	0	30	-1.8686e-12	0	0	0	0	60.4
-51.737	-4.0681e-13	0	6.2832	0	0	30	-5.0137e-13	0	0	0	0	60.5
-48.737	1.7202e-13	0	6.2832	0	0	30	5.5471e-12	0	0	0	0	60.6
-45.737	7.026e-13	0	6.2832	0	0	30	-3.1918e-12	0	0	0	0	60.7
-42.737	-4.6634e-13	0	6.2832	0	0	30	2.6082e-12	0	0	0	0	60.8
-39.737	1.2242e-12	0	6.2832	0	0	30	3.6382e-12	0	0	0	0	60.9
-36.737	2.613e-13	0	6.2832	0	0	30	-7.1988e-12	0	0	0	0	61
-33.737	-2.1552e-13	0	6.2832	0	0	30	-9.2379e-12	0	0	0	0	61.1
-30.737	-1.5863e-12	0	6.2832	0	0	30	1.2472e-12	0	0	0	0	61.2
-27.737	3.3924e-14	0	6.2832	0	0	30	1.2642e-11	0	0	0	0	61.3
-24.737	9.4219e-13	0	6.2832	0	0	30	-1.3723e-12	0	0	0	0	61.4
-21.737	-2.4053e-13	0	6.2832	0	0	30	-6.9091e-13	0	0	0	0	61.5
-18.737	8.0401e-13	0	6.2832	0	0	30	7.4655e-12	0	0	0	0	61.6
-15.737	1.2526e-12	0	6.2832	0	0	30	-5.7932e-12	0	0	0	0	61.7
-12.737	-3.5463e-13	0	6.2832	0	0	30	-3.7257e-12	0	0	0	0	61.8
-9.7366	5.0743e-13	0	6.2832	0	0	30	2.4321e-12	0	0	0	0	61.9
-6.7366	1.3178e-13	0	6.2832	0	0	30	-4.1921e-12	0	0	0	0	62
-3.7366	-3.3099e-13	0	6.2832	0	0	30	5.3867e-13	0	0	0	0	62.1
-0.73664	2.3952e-13	0	6.2832	0	0	30	5.3867e-13	0	0	0	0	62.2
