885	13	0.314159	0.069813
0	0	0	0	0	-4.6906e-19	30	2.6494e-05	0	0	0	0	0
3	3.2965e-07	0	4.4005e-07	0	4.0449e-05	30	2.6494e-05	0	1.7703e-05	0	0.00081512	0.1
6	5.2988e-06	0	3.5406e-06	0	0.00016302	30	0.00013308	0	5.7881e-05	0	0.0016452	0.2
9	2.6946e-05	0	1.2016e-05	0	0.00036949	30	0.00040121	0	0.00012549	0	0.0024924	0.3
12	8.554e-05	0	2.8638e-05	0	0.00066151	30	0.00091397	0	0.00022106	0	0.0033559	0.4
15	0.00020974	0	5.6229e-05	0	0.0010407	30	0.0017561	0	0.00034513	0	0.0042347	0.5
18	0.00043676	0	9.7664e-05	0	0.0015084	30	0.0030137	0	0.00049817	0	0.0051277	0.6
21	0.00081249	0	0.00015586	0	0.0020662	30	0.0047745	0	0.00068063	0	0.006034	0.7
24	0.0013917	0	0.00023379	0	0.0027153	30	0.0071273	0	0.00089293	0	0.0069528	0.8
27	0.002238	0	0.00033445	0	0.0034568	30	0.010162	0	0.0011355	0	0.0078829	0.9
30	0.0034241	0	0.00046088	0	0.0042918	30	0.013971	0	0.0014086	0	0.0088235	1
33	0.0050321	0	0.00061617	0	0.0052215	30	0.018645	0	0.0017126	0	0.0097735	1.1
36	0.0071531	0	0.00080341	0	0.0062465	30	0.024278	0	0.0020479	0	0.010732	1.2
39	0.0098876	0	0.0010257	0	0.0073678	30	0.030964	0	0.0024146	0	0.011698	1.3
42	0.013346	0	0.0012863	0	0.0085861	30	0.038797	0	0.0028131	0	0.012671	1.4
45	0.017647	0	0.0015884	0	0.009902	30	0.047874	0	0.0032434	0	0.013649	1.5
48	0.022921	0	0.001935	0	0.011316	30	0.05829	0	0.0037058	0	0.014631	1.6
51	0.029305	0	0.0023295	0	0.012828	30	0.070141	0	0.0042004	0	0.015618	1.7
54	0.036949	0	0.0027751	0	0.014439	30	0.083524	0	0.0047274	0	0.016606	1.8
57	0.04601	0	0.003275	0	0.016149	30	0.098537	0	0.0052867	0	0.017597	1.9
60	0.056656	0	0.0038324	0	0.017959	30	0.11528	0	0.0058785	0	0.018588	2
63	0.069065	0	0.0044507	0	0.019867	30	0.13384	0	0.0065028	0	0.019578	2.1
66	0.083424	0	0.005133	0	0.021874	30	0.15433	0	0.0071594	0	0.020567	2.2
69	0.09993	0	0.0058826	0	0.02398	29.999	0.17683	0	0.0078485	0	0.021554	2.3
72	0.11879	0	0.0067027	0	0.026185	29.999	0.20145	0	0.0085699	0	0.022537	2.4
75	0.14022	0	0.0075966	0	0.028488	29.999	0.22828	0	0.0093234	0	0.023516	2.5
78	0.16445	0	0.0085674	0	0.030888	29.999	0.25742	0	0.010109	0	0.024489	2.6
80.999	0.1917	0	0.0096184	0	0.033386	29.999	0.28896	0	0.010926	0	0.025455	2.7
83.999	0.22224	0	0.010753	0	0.035979	29.998	0.32301	0	0.011776	0	0.026414	2.8
86.999	0.25631	0	0.011973	0	0.038668	29.998	0.35964	0	0.012656	0	0.027364	2.9
89.999	0.29417	0	0.013284	0	0.041452	29.997	0.39897	0	0.013568	0	0.028304	3
92.999	0.3361	0	0.014687	0	0.044329	29.997	0.44107	0	0.01451	0	0.029234	3.1
95.998	0.38238	0	0.016186	0	0.047299	29.996	0.48605	0	0.015483	0	0.030151	3.2
98.998	0.43331	0	0.017784	0	0.050359	29.995	0.53399	0	0.016486	0	0.031056	3.3
102	0.48918	0	0.019483	0	0.05351	29.994	0.58498	0	0.017519	0	0.031947	3.4
105	0.55031	0	0.021288	0	0.056749	29.993	0.63912	0	0.018582	0	0.032822	3.5
108	0.617	0	0.0232	0	0.060074	29.992	0.69648	0	0.019673	0	0.033682	3.6
111	0.6896	0	0.025222	0	0.063485	29.99	0.75715	0	0.020792	0	0.034524	3.7
113.99	0.76843	0	0.027358	0	0.066979	29.989	0.82122	0	0.021939	0	0.035348	3.8
116.99	0.85384	0	0.02961	0	0.070554	29.987	0.88876	0	0.023114	0	0.036152	3.9
119.99	0.94618	0	0.031981	0	0.074209	29.985	0.95987	0	0.024315	0	0.036936	4
122.99	1.0458	0	0.034473	0	0.077942	29.982	1.0346	0	0.025543	0	0.037699	4.1
125.99	1.1531	0	0.037089	0	0.081749	29.979	1.1131	0	0.026796	0	0.038439	4.2
128.99	1.2684	0	0.039832	0	0.085629	29.976	1.1953	0	0.028073	0	0.039155	4.3
131.98	1.3922	0	0.042704	0	0.08958	29.973	1.2814	0	0.029375	0	0.039847	4.4
134.98	1.5247	0	0.045707	0	0.093599	29.969	1.3714	0	0.0307	0	0.040513	4.5
137.98	1.6664	0	0.048844	0	0.097683	29.964	1.4654	0	0.032048	0	0.041152	4.6
140.97	1.8178	0	0.052117	0	0.10183	29.959	1.5635	0	0.033417	0	0.041763	4.7
143.97	1.9791	0	0.055528	0	0.10604	29.954	1.6657	0	0.034807	0	0.042346	4.8
146.96	2.1509	0	0.059078	0	0.1103	29.948	1.772	0	0.036218	0	0.042899	4.9
149.96	2.3335	0	0.062771	0	0.11462	29.941	1.8826	0	0.037647	0	0.043421	5
152.95	2.5274	0	0.066608	0	0.11898	29.933	1.9975	0	0.039095	0	0.043911	5.1
155.94	2.733	0	0.07059	0	0.1234	29.925	2.1167	0	0.04056	0	0.044368	5.2
158.94	2.9508	0	0.07472	0	0.12786	29.916	2.2402	0	0.042041	0	0.044792	5.3
161.93	3.1811	0	0.078998	0	0.13236	29.906	2.3682	0	0.043537	0	0.045181	5.4
164.92	3.4244	0	0.083427	0	0.13689	29.895	2.5007	0	0.045048	0	0.045535	5.5
167.91	3.6812	0	0.088008	0	0.14146	29.884	2.6376	0	0.046571	0	0.045853	5.6
170.89	3.9519	0	0.092741	0	0.14606	29.871	2.779	0	0.048107	0	0.046133	5.7
173.88	4.237	0	0.097629	0	0.15069	29.857	2.925	0	0.049653	0	0.046375	5.8
176.87	4.5369	0	0.10267	0	0.15534	29.842	3.0755	0	0.051209	0	0.046578	5.9
179.85	4.8521	0	0.10787	0	0.16	29.825	3.2306	0	0.052774	0	0.046742	6
182.83	5.1831	0	0.11323	0	0.16469	29.808	3.3903	0	0.054346	0	0.046865	6.1
185.81	5.5302	0	0.11874	0	0.16938	29.789	3.5546	0	0.055923	0	0.046947	6.2
188.79	5.894	0	0.12441	0	0.17408	29.768	3.7235	0	0.057505	0	0.046988	6.3
191.76	6.2749	0	0.13024	0	0.17878	29.746	3.897	0	0.059091	0	0.046985	6.4
194.74	6.6734	0	0.13623	0	0.18347	29.722	4.075	0	0.060678	0	0.04694	6.5
197.71	7.0899	0	0.14238	0	0.18816	29.696	4.2576	0	0.062266	0	0.046851	6.6
200.68	7.5249	0	0.14868	0	0.19284	29.669	4.4448	0	0.063853	0	0.046717	6.7
203.64	7.9789	0	0.15515	0	0.19751	29.639	4.6365	0	0.065437	0	0.046538	6.8
206.61	8.4522	0	0.16177	0	0.20215	29.608	4.8327	0	0.067018	0	0.046314	6.9
209.56	8.9454	0	0.16855	0	0.20677	29.575	5.0334	0	0.068593	0	0.046044	7
212.52	9.4589	0	0.17549	0	0.21136	29.539	5.2384	0	0.070161	0	0.045727	7.1
215.47	9.9931	0	0.18258	0	0.21592	29.501	5.4478	0	0.071721	0	0.045363	7.2
218.42	10.548	0	0.18983	0	0.22043	29.461	5.6616	0	0.07327	0	0.044951	7.3
221.36	11.125	0	0.19724	0	0.22491	29.418	5.8795	0	0.074807	0	0.044492	7.4
224.3	11.724	0	0.20479	0	0.22933	29.373	6.1017	0	0.076331	0	0.043984	7.5
227.24	12.346	0	0.2125	0	0.2337	29.325	6.3279	0	0.07784	0	0.043427	7.6
230.17	12.99	0	0.22036	0	0.23802	29.274	6.5582	0	0.079332	0	0.04282	7.7
233.09	13.657	0	0.22837	0	0.24227	29.221	6.7923	0	0.080805	0	0.042164	7.8
236.01	14.348	0	0.23652	0	0.24645	29.164	7.0304	0	0.082257	0	0.041458	7.9
238.93	15.063	0	0.24482	0	0.25056	29.105	7.2721	0	0.083687	0	0.040701	8
241.83	15.803	0	0.25326	0	0.25459	29.042	7.5174	0	0.085093	0	0.039894	8.1
244.74	16.567	0	0.26184	0	0.25854	28.977	7.7663	0	0.086472	0	0.039035	8.2
247.63	17.356	0	0.27056	0	0.2624	28.908	8.0185	0	0.087823	0	0.038124	8.3
250.52	18.171	0	0.2794	0	0.26616	28.836	8.274	0	0.089145	0	0.037161	8.4
253.4	19.011	0	0.28838	0	0.26983	28.761	8.5326	0	0.090434	0	0.036146	8.5
256.27	19.877	0	0.29749	0	0.27339	28.682	8.7941	0	0.091689	0	0.035077	8.6
259.13	20.77	0	0.30672	0	0.27684	28.599	9.0585	0	0.092907	0	0.033955	8.7
261.99	21.689	0	0.31607	0	0.28018	28.513	9.3255	0	0.094088	0	0.03278	8.8
264.84	22.635	0	0.32554	0	0.2834	28.424	9.595	0	0.095228	0	0.031549	8.9
267.67	23.608	0	0.33512	0	0.28649	28.331	9.8668	0	0.096325	0	0.030264	9
270.5	24.608	0	0.3448	0	0.28945	28.234	10.141	0	0.097378	0	0.028923	9.1
273.32	25.636	0	0.35459	0	0.29228	28.133	10.417	0	0.098384	0	0.027525	9.2
276.13	26.691	0	0.36448	0	0.29496	28.029	10.694	0	0.09934	0	0.026071	9.3
278.93	27.775	0	0.37446	0	0.29749	27.921	10.973	0	0.10025	0	0.024559	9.4
281.71	28.886	0	0.38453	0	0.29987	27.809	11.254	0	0.1011	0	0.022988	9.5
284.49	30.026	0	0.39468	0	0.30209	27.693	11.536	0	0.10189	0	0.021358	9.6
287.25	31.193	0	0.40491	0	0.30414	27.574	11.818	0	0.10263	0	0.019668	9.7
290	32.389	0	0.41521	0	0.30602	27.45	12.101	0	0.1033	0	0.017917	9.8
292.74	33.614	0	0.42557	0	0.30772	27.324	12.385	0	0.10392	0	0.016103	9.9
295.47	34.866	0	0.43599	0	0.30924	27.193	12.669	0	0.10446	0	0.014226	10
298.18	36.147	0	0.44646	0	0.31057	27.059	12.953	0	0.10494	0	0.012284	10.1
300.88	37.457	0	0.45698	0	0.3117	26.921	13.237	0	0.10535	0	0.010276	10.2
303.56	38.795	0	0.46753	0	0.31262	26.78	13.52	0	0.10568	0	0.0082002	10.3
306.23	40.161	0	0.47811	0	0.31334	26.635	13.803	0	0.10594	0	0.0060557	10.4
308.89	41.555	0	0.48872	0	0.31384	26.488	14.085	0	0.10612	0	0.0038407	10.5
311.53	42.978	0	0.49934	0	0.31411	26.336	14.365	0	0.10622	0	0.0016196	10.6
314.16	44.428	0	0.50996	0	0.31416	26.182	14.644	0	0.10625	0	0.00026188	10.7
316.77	45.907	0	0.52059	0	0.31416	26.025	14.921	0	0.10625	0	0	10.8
319.36	47.413	0	0.53121	0	0.31416	25.865	15.197	0	0.10625	0	0	10.9
321.94	48.946	0	0.54184	0	0.31416	25.702	15.471	0	0.10625	0	0	11
324.5	50.507	0	0.55246	0	0.31416	25.537	15.743	0	0.10625	0	0	11.1
327.05	52.095	0	0.56309	0	0.31416	25.368	16.014	0	0.10625	0	0	11.2
329.58	53.71	0	0.57371	0	0.31416	25.196	16.282	0	0.10625	0	0	11.3
332.09	55.351	0	0.58434	0	0.31416	25.022	16.549	0	0.10625	0	0	11.4
334.58	57.019	0	0.59496	0	0.31416	24.845	16.814	0	0.10625	0	0	11.5
337.06	58.714	0	0.60559	0	0.31416	24.665	17.077	0	0.10625	0	0	11.6
339.51	60.435	0	0.61621	0	0.31416	24.482	17.338	0	0.10625	0	0	11.7
341.95	62.182	0	0.62684	0	0.31416	24.296	17.597	0	0.10625	0	0	11.8
344.37	63.954	0	0.63746	0	0.31416	24.108	17.854	0	0.10625	0	0	11.9
346.78	65.753	0	0.64809	0	0.31416	23.917	18.11	0	0.10625	0	0	12
349.16	67.576	0	0.65871	0	0.31416	23.723	18.363	0	0.10625	0	0	12.1
351.52	69.425	0	0.66934	0	0.31416	23.527	18.614	0	0.10625	0	0	12.2
353.86	71.299	0	0.67996	0	0.31416	23.327	18.863	0	0.10625	0	0	12.3
356.19	73.198	0	0.69059	0	0.31416	23.126	19.109	0	0.10625	0	0	12.4
358.49	75.121	0	0.70121	0	0.31416	22.921	19.354	0	0.10625	0	0	12.5
360.77	77.068	0	0.71184	0	0.31416	22.715	19.596	0	0.10625	0	0	12.6
363.03	79.04	0	0.72246	0	0.31416	22.505	19.837	0	0.10625	0	0	12.7
365.27	81.036	0	0.73308	0	0.31416	22.293	20.075	0	0.10625	0	0	12.8
367.49	83.055	0	0.74371	0	0.31416	22.078	20.31	0	0.10625	0	0	12.9
369.69	85.098	0	0.75433	0	0.31416	21.861	20.544	0	0.10625	0	0	13
371.86	87.164	0	0.76496	0	0.31416	21.642	20.775	0	0.10625	0	0	13.1
374.01	89.253	0	0.77558	0	0.31416	21.42	21.004	0	0.10625	0	0	13.2
376.15	91.364	0	0.78621	0	0.31416	21.196	21.23	0	0.10625	0	0	13.3
378.25	93.499	0	0.79683	0	0.31416	20.969	21.454	0	0.10625	0	0	13.4
380.34	95.655	0	0.80746	0	0.31416	20.74	21.676	0	0.10625	0	0	13.5
382.4	97.834	0	0.81808	0	0.31416	20.508	21.895	0	0.10625	0	0	13.6
384.44	100.03	0	0.82871	0	0.31416	20.274	22.111	0	0.10625	0	0	13.7
386.46	102.26	0	0.83933	0	0.31416	20.038	22.326	0	0.10625	0	0	13.8
388.45	104.5	0	0.84996	0	0.31416	19.8	22.537	0	0.10625	0	0	13.9
390.42	106.76	0	0.86058	0	0.31416	19.559	22.746	0	0.10625	0	0	14
392.36	109.05	0	0.87121	0	0.31416	19.317	22.953	0	0.10625	0	0	14.1
394.28	111.35	0	0.88183	0	0.31416	19.072	23.157	0	0.10625	0	0	14.2
396.17	113.68	0	0.89246	0	0.31416	18.825	23.358	0	0.10625	0	0	14.3
398.04	116.03	0	0.90308	0	0.31416	18.575	23.557	0	0.10625	0	0	14.4
399.89	118.39	0	0.91371	0	0.31416	18.324	23.753	0	0.10625	0	0	14.5
401.71	120.78	0	0.92433	0	0.31416	18.071	23.946	0	0.10625	0	0	14.6
403.5	123.18	0	0.93496	0	0.31416	17.815	24.137	0	0.10625	0	0	14.7
405.27	125.6	0	0.94558	0	0.31416	17.558	24.325	0	0.10625	0	0	14.8
407.02	128.05	0	0.95621	0	0.31416	17.298	24.51	0	0.10625	0	0	14.9
408.73	130.51	0	0.96683	0	0.31416	17.037	24.692	0	0.10625	0	0	15
410.42	132.98	0	0.97746	0	0.31416	16.774	24.872	0	0.10625	0	0	15.1
412.09	135.48	0	0.98808	0	0.31416	16.508	25.049	0	0.10625	0	0	15.2
413.72	137.99	0	0.99871	0	0.31416	16.241	25.223	0	0.10625	0	0	15.3
415.34	140.52	0	1.0093	0	0.31416	15.972	25.394	0	0.10625	0	0	15.4
416.92	143.07	0	1.02	0	0.31416	15.702	25.562	0	0.10625	0	0	15.5
418.48	145.64	0	1.0306	0	0.31416	15.429	25.727	0	0.10625	0	0	15.6
420.01	148.22	0	1.0412	0	0.31416	15.155	25.89	0	0.10625	0	0	15.7
421.51	150.81	0	1.0518	0	0.31416	14.879	26.049	0	0.10625	0	0	15.8
422.98	153.43	0	1.0625	0	0.31416	14.602	26.206	0	0.10625	0	0	15.9
424.43	156.06	0	1.0731	0	0.31416	14.322	26.36	0	0.10625	0	0	16
425.85	158.7	0	1.0837	0	0.31416	14.041	26.51	0	0.10625	0	0	16.1
427.24	161.36	0	1.0943	0	0.31416	13.759	26.658	0	0.10625	0	0	16.2
428.6	164.03	0	1.105	0	0.31416	13.475	26.803	0	0.10625	0	0	16.3
429.93	166.72	0	1.1156	0	0.31416	13.189	26.944	0	0.10625	0	0	16.4
431.23	169.42	0	1.1262	0	0.31416	12.902	27.083	0	0.10625	0	0	16.5
432.51	172.14	0	1.1368	0	0.31416	12.614	27.219	0	0.10625	0	0	16.6
433.76	174.86	0	1.1475	0	0.31416	12.324	27.351	0	0.10625	0	0	16.7
434.98	177.61	0	1.1581	0	0.31416	12.033	27.481	0	0.10625	0	0	16.8
436.16	180.36	0	1.1687	0	0.31416	11.74	27.607	0	0.10625	0	0	16.9
437.32	183.13	0	1.1793	0	0.31416	11.446	27.73	0	0.10625	0	0	17
438.45	185.91	0	1.19	0	0.31416	11.151	27.85	0	0.10625	0	0	17.1
439.55	188.7	0	1.2006	0	0.31416	10.854	27.967	0	0.10625	0	0	17.2
440.62	191.5	0	1.2112	0	0.31416	10.557	28.081	0	0.10625	0	0	17.3
441.67	194.31	0	1.2218	0	0.31416	10.258	28.191	0	0.10625	0	0	17.4
442.68	197.14	0	1.2325	0	0.31416	9.9575	28.299	0	0.10625	0	0	17.5
443.66	199.97	0	1.2431	0	0.31416	9.6563	28.403	0	0.10625	0	0	17.6
444.61	202.82	0	1.2537	0	0.31416	9.354	28.504	0	0.10625	0	0	17.7
445.53	205.67	0	1.2643	0	0.31416	9.0506	28.602	0	0.10625	0	0	17.8
446.42	208.54	0	1.275	0	0.31416	8.7462	28.696	0	0.10625	0	0	17.9
447.28	211.41	0	1.2856	0	0.31416	8.4408	28.787	0	0.10625	0	0	18
448.11	214.3	0	1.2962	0	0.31416	8.1345	28.876	0	0.10625	0	0	18.1
448.9	217.19	0	1.3068	0	0.31416	7.8273	28.96	0	0.10625	0	0	18.2
449.67	220.09	0	1.3175	0	0.31416	7.5191	29.042	0	0.10625	0	0	18.3
450.41	223	0	1.3281	0	0.31416	7.2101	29.12	0	0.10625	0	0	18.4
451.11	225.91	0	1.3387	0	0.31416	6.9003	29.195	0	0.10625	0	0	18.5
451.79	228.84	0	1.3493	0	0.31416	6.5898	29.267	0	0.10625	0	0	18.6
452.43	231.77	0	1.36	0	0.31416	6.2784	29.335	0	0.10625	0	0	18.7
453.04	234.7	0	1.3706	0	0.31416	5.9664	29.4	0	0.10625	0	0	18.8
453.62	237.65	0	1.3812	0	0.31416	5.6537	29.462	0	0.10625	0	0	18.9
454.17	240.59	0	1.3918	0	0.31416	5.3403	29.52	0	0.10625	0	0	19
454.69	243.55	0	1.4025	0	0.31416	5.0264	29.575	0	0.10625	0	0	19.1
455.18	246.51	0	1.4131	0	0.31416	4.7119	29.627	0	0.10625	0	0	19.2
455.63	249.48	0	1.4237	0	0.31416	4.3969	29.675	0	0.10625	0	0	19.3
456.06	252.44	0	1.4343	0	0.31416	4.0813	29.721	0	0.10625	0	0	19.4
456.45	255.42	0	1.445	0	0.31416	3.7653	29.762	0	0.10625	0	0	19.5
456.81	258.4	0	1.4556	0	0.31416	3.4489	29.801	0	0.10625	0	0	19.6
457.14	261.38	0	1.4662	0	0.31416	3.1321	29.835	0	0.10625	0	0	19.7
457.44	264.36	0	1.4768	0	0.31416	2.8149	29.867	0	0.10625	0	0	19.8
457.7	267.35	0	1.4875	0	0.31416	2.4974	29.895	0	0.10625	0	0	19.9
457.94	270.34	0	1.4981	0	0.31416	2.1796	29.92	0	0.10625	0	0	20
458.14	273.34	0	1.5087	0	0.31416	1.8616	29.942	0	0.10625	0	0	20.1
458.31	276.33	0	1.5193	0	0.31416	1.5434	29.96	0	0.10625	0	0	20.2
458.45	279.33	0	1.53	0	0.31416	1.225	29.974	0	0.10625	0	0	20.3
458.55	282.33	0	1.5406	0	0.31416	0.90647	29.986	0	0.10625	0	0	20.4
458.63	285.33	0	1.5512	0	0.31416	0.58783	29.994	0	0.10625	0	0	20.5
458.67	288.33	0	1.5618	0	0.31416	0.26913	29.998	0	0.10625	0	0	20.6
458.68	291.33	0	1.5724	0	0.31416	-0.049607	29.999	0	0.10625	0	0	20.7
458.66	294.33	0	1.5831	0	0.31416	-0.36834	29.997	0	0.10625	0	0	20.8
458.61	297.32	0	1.5937	0	0.31416	-0.68703	29.992	0	0.10625	0	0	20.9
458.53	300.32	0	1.6043	0	0.31416	-1.0056	29.983	0	0.10625	0	0	21
458.41	303.32	0	1.6149	0	0.31416	-1.3241	29.97	0	0.10625	0	0	21.1
458.26	306.32	0	1.6256	0	0.31416	-1.6425	29.954	0	0.10625	0	0	21.2
458.08	309.31	0	1.6362	0	0.31416	-1.9607	29.935	0	0.10625	0	0	21.3
457.87	312.3	0	1.6468	0	0.31416	-2.2786	29.913	0	0.10625	0	0	21.4
457.62	315.29	0	1.6574	0	0.31416	-2.5963	29.887	0	0.10625	0	0	21.5
457.35	318.28	0	1.6681	0	0.31416	-2.9137	29.858	0	0.10625	0	0	21.6
457.04	321.27	0	1.6787	0	0.31416	-3.2307	29.825	0	0.10625	0	0	21.7
456.7	324.25	0	1.6893	0	0.31416	-3.5474	29.789	0	0.10625	0	0	21.8
456.33	327.22	0	1.6999	0	0.31416	-3.8637	29.75	0	0.10625	0	0	21.9
455.93	330.2	0	1.7106	0	0.31416	-4.1796	29.707	0	0.10625	0	0	22
455.5	333.17	0	1.7212	0	0.31416	-4.495	29.661	0	0.10625	0	0	22.1
455.03	336.13	0	1.7318	0	0.31416	-4.8099	29.611	0	0.10625	0	0	22.2
454.53	339.09	0	1.7424	0	0.31416	-5.1242	29.559	0	0.10625	0	0	22.3
454.01	342.04	0	1.7531	0	0.31416	-5.438	29.502	0	0.10625	0	0	22.4
453.45	344.99	0	1.7637	0	0.31416	-5.7511	29.443	0	0.10625	0	0	22.5
452.86	347.93	0	1.7743	0	0.31416	-6.0636	29.38	0	0.10625	0	0	22.6
452.23	350.86	0	1.7849	0	0.31416	-6.3754	29.314	0	0.10625	0	0	22.7
451.58	353.79	0	1.7956	0	0.31416	-6.6865	29.245	0	0.10625	0	0	22.8
450.9	356.71	0	1.8062	0	0.31416	-6.9968	29.172	0	0.10625	0	0	22.9
450.18	359.63	0	1.8168	0	0.31416	-7.3064	29.096	0	0.10625	0	0	23
449.44	362.53	0	1.8274	0	0.31416	-7.6151	29.017	0	0.10625	0	0	23.1
448.66	365.43	0	1.8381	0	0.31416	-7.923	28.934	0	0.10625	0	0	23.2
447.85	368.32	0	1.8487	0	0.31416	-8.23	28.848	0	0.10625	0	0	23.3
447.01	371.2	0	1.8593	0	0.31416	-8.536	28.759	0	0.10625	0	0	23.4
446.14	374.07	0	1.8699	0	0.31416	-8.8411	28.667	0	0.10625	0	0	23.5
445.24	376.93	0	1.8806	0	0.31416	-9.1451	28.571	0	0.10625	0	0	23.6
444.31	379.79	0	1.8912	0	0.31416	-9.4482	28.473	0	0.10625	0	0	23.7
443.35	382.63	0	1.9018	0	0.31416	-9.7502	28.371	0	0.10625	0	0	23.8
442.36	385.46	0	1.9124	0	0.31416	-10.051	28.266	0	0.10625	0	0	23.9
441.34	388.28	0	1.9231	0	0.31416	-10.351	28.157	0	0.10625	0	0	24
440.29	391.09	0	1.9337	0	0.31416	-10.649	28.046	0	0.10625	0	0	24.1
439.21	393.89	0	1.9443	0	0.31416	-10.947	27.931	0	0.10625	0	0	24.2
438.1	396.68	0	1.9549	0	0.31416	-11.243	27.813	0	0.10625	0	0	24.3
436.97	399.45	0	1.9656	0	0.31416	-11.538	27.692	0	0.10625	0	0	24.4
435.8	402.22	0	1.9762	0	0.31416	-11.831	27.568	0	0.10625	0	0	24.5
434.6	404.97	0	1.9868	0	0.31416	-12.124	27.441	0	0.10625	0	0	24.6
433.37	407.7	0	1.9974	0	0.31416	-12.414	27.31	0	0.10625	0	0	24.7
432.12	410.43	0	2.0081	0	0.31416	-12.704	27.177	0	0.10625	0	0	24.8
430.83	413.14	0	2.0187	0	0.31416	-12.992	27.04	0	0.10625	0	0	24.9
429.52	415.84	0	2.0293	0	0.31416	-13.278	26.901	0	0.10625	0	0	25
428.18	418.52	0	2.0399	0	0.31416	-13.564	26.758	0	0.10625	0	0	25.1
426.81	421.19	0	2.0506	0	0.31416	-13.847	26.612	0	0.10625	0	0	25.2
425.41	423.84	0	2.0612	0	0.31416	-14.129	26.464	0	0.10625	0	0	25.3
423.98	426.48	0	2.0718	0	0.31416	-14.409	26.312	0	0.10625	0	0	25.4
422.52	429.1	0	2.0824	0	0.31416	-14.688	26.158	0	0.10625	0	0	25.5
421.04	431.71	0	2.0931	0	0.31416	-14.965	26	0	0.10625	0	0	25.6
419.53	434.3	0	2.1037	0	0.31416	-15.241	25.84	0	0.10625	0	0	25.7
417.99	436.88	0	2.1143	0	0.31416	-15.514	25.676	0	0.10625	0	0	25.8
416.43	439.44	0	2.1249	0	0.31416	-15.786	25.51	0	0.10625	0	0	25.9
414.84	441.98	0	2.1356	0	0.31416	-16.056	25.341	0	0.10625	0	0	26
413.22	444.51	0	2.1462	0	0.31416	-16.325	25.169	0	0.10625	0	0	26.1
411.57	447.02	0	2.1568	0	0.31416	-16.591	24.994	0	0.10625	0	0	26.2
409.9	449.51	0	2.1674	0	0.31416	-16.856	24.816	0	0.10625	0	0	26.3
408.2	451.98	0	2.1781	0	0.31416	-17.119	24.636	0	0.10625	0	0	26.4
406.48	454.43	0	2.1887	0	0.31416	-17.379	24.453	0	0.10625	0	0	26.5
404.72	456.87	0	2.1993	0	0.31416	-17.638	24.266	0	0.10625	0	0	26.6
402.95	459.29	0	2.2099	0	0.31416	-17.895	24.078	0	0.10625	0	0	26.7
401.15	461.69	0	2.2206	0	0.31416	-18.15	23.886	0	0.10625	0	0	26.8
399.32	464.06	0	2.2312	0	0.31416	-18.403	23.692	0	0.10625	0	0	26.9
397.47	466.42	0	2.2418	0	0.31416	-18.653	23.495	0	0.10625	0	0	27
395.59	468.76	0	2.2524	0	0.31416	-18.902	23.296	0	0.10625	0	0	27.1
393.69	471.08	0	2.2631	0	0.31416	-19.148	23.093	0	0.10625	0	0	27.2
391.76	473.38	0	2.2737	0	0.31416	-19.393	22.889	0	0.10625	0	0	27.3
389.81	475.66	0	2.2843	0	0.31416	-19.635	22.681	0	0.10625	0	0	27.4
387.83	477.92	0	2.2949	0	0.31416	-19.874	22.472	0	0.10625	0	0	27.5
385.83	480.15	0	2.3056	0	0.31416	-20.112	22.259	0	0.10625	0	0	27.6
383.81	482.37	0	2.3162	0	0.31416	-20.347	22.044	0	0.10625	0	0	27.7
381.76	484.56	0	2.3268	0	0.31416	-20.581	21.827	0	0.10625	0	0	27.8
379.69	486.74	0	2.3374	0	0.31416	-20.811	21.607	0	0.10625	0	0	27.9
377.6	488.89	0	2.3481	0	0.31416	-21.04	21.385	0	0.10625	0	0	28
375.48	491.01	0	2.3587	0	0.31416	-21.266	21.16	0	0.10625	0	0	28.1
373.35	493.12	0	2.3693	0	0.31416	-21.489	20.933	0	0.10625	0	0	28.2
371.19	495.2	0	2.3799	0	0.31416	-21.71	20.703	0	0.10625	0	0	28.3
369	497.26	0	2.3906	0	0.31416	-21.929	20.471	0	0.10625	0	0	28.4
366.8	499.29	0	2.4012	0	0.31416	-22.146	20.237	0	0.10625	0	0	28.5
364.58	501.31	0	2.4118	0	0.31416	-22.359	20.001	0	0.10625	0	0	28.6
362.33	503.29	0	2.4224	0	0.31416	-22.571	19.762	0	0.10625	0	0	28.7
360.06	505.26	0	2.4331	0	0.31416	-22.779	19.521	0	0.10625	0	0	28.8
357.77	507.2	0	2.4437	0	0.31416	-22.985	19.278	0	0.10625	0	0	28.9
355.46	509.11	0	2.4543	0	0.31416	-23.189	19.033	0	0.10625	0	0	29
353.14	511	0	2.4649	0	0.31416	-23.39	18.785	0	0.10625	0	0	29.1
350.79	512.87	0	2.4756	0	0.31416	-23.588	18.536	0	0.10625	0	0	29.2
348.42	514.71	0	2.4862	0	0.31416	-23.784	18.284	0	0.10625	0	0	29.3
346.03	516.53	0	2.4968	0	0.31416	-23.977	18.03	0	0.10625	0	0	29.4
343.62	518.32	0	2.5074	0	0.31416	-24.167	17.775	0	0.10625	0	-1.8307e-05	29.5
341.2	520.08	0	2.5181	0	0.31416	-24.354	17.517	0	0.10624	0	-0.00031816	29.6
338.75	521.82	0	2.5287	0	0.3141	-24.539	17.257	0	0.10622	0	-0.00097376	29.7
336.29	523.53	0	2.5393	0	0.31396	-24.721	16.996	0	0.10617	0	-0.0017298	29.8
333.81	525.22	0	2.5499	0	0.31375	-24.9	16.732	0	0.1061	0	-0.0025014	29.9
331.31	526.88	0	2.5605	0	0.31346	-25.076	16.467	0	0.10599	0	-0.0032877	30
328.79	528.51	0	2.5711	0	0.31309	-25.249	16.201	0	0.10586	0	-0.0040881	30.1
326.26	530.12	0	2.5817	0	0.31264	-25.419	15.933	0	0.1057	0	-0.0049018	30.2
323.71	531.7	0	2.5923	0	0.31211	-25.586	15.663	0	0.1055	0	-0.005728	30.3
321.14	533.25	0	2.6028	0	0.3115	-25.749	15.393	0	0.10528	0	-0.0065661	30.4
318.56	534.78	0	2.6133	0	0.3108	-25.91	15.121	0	0.10503	0	-0.0074154	30.5
315.96	536.28	0	2.6238	0	0.31001	-26.067	14.849	0	0.10475	0	-0.0082751	30.6
313.35	537.75	0	2.6343	0	0.30914	-26.221	14.575	0	0.10443	0	-0.0091444	30.7
310.72	539.19	0	2.6447	0	0.30819	-26.371	14.301	0	0.10409	0	-0.010023	30.8
308.07	540.61	0	2.6551	0	0.30714	-26.519	14.026	0	0.10371	0	-0.010909	30.9
305.41	542	0	2.6654	0	0.306	-26.662	13.751	0	0.1033	0	-0.011804	31
302.74	543.36	0	2.6757	0	0.30478	-26.803	13.475	0	0.10286	0	-0.012705	31.1
300.05	544.69	0	2.686	0	0.30346	-26.94	13.2	0	0.10239	0	-0.013612	31.2
297.35	546	0	2.6962	0	0.30206	-27.073	12.924	0	0.10188	0	-0.014524	31.3
294.64	547.28	0	2.7064	0	0.30056	-27.203	12.648	0	0.10135	0	-0.015441	31.4
291.91	548.53	0	2.7165	0	0.29897	-27.329	12.372	0	0.10078	0	-0.016362	31.5
289.17	549.75	0	2.7265	0	0.29729	-27.452	12.097	0	0.10018	0	-0.017287	31.6
286.42	550.95	0	2.7365	0	0.29551	-27.572	11.823	0	0.099541	0	-0.018213	31.7
283.66	552.12	0	2.7464	0	0.29364	-27.688	11.548	0	0.098874	0	-0.019142	31.8
280.88	553.26	0	2.7563	0	0.29168	-27.8	11.275	0	0.098175	0	-0.020071	31.9
278.1	554.37	0	2.7661	0	0.28963	-27.909	11.003	0	0.097443	0	-0.021	32
275.3	555.46	0	2.7758	0	0.28748	-28.015	10.731	0	0.09668	0	-0.021929	32.1
272.49	556.52	0	2.7854	0	0.28524	-28.117	10.461	0	0.095884	0	-0.022856	32.2
269.68	557.55	0	2.795	0	0.28291	-28.215	10.192	0	0.095056	0	-0.023781	32.3
266.85	558.56	0	2.8044	0	0.28049	-28.31	9.9246	0	0.094197	0	-0.024703	32.4
264.01	559.53	0	2.8138	0	0.27797	-28.402	9.6587	0	0.093307	0	-0.025621	32.5
261.17	560.49	0	2.8231	0	0.27536	-28.491	9.3946	0	0.092385	0	-0.026534	32.6
258.32	561.41	0	2.8323	0	0.27266	-28.576	9.1324	0	0.091433	0	-0.027442	32.7
255.46	562.31	0	2.8414	0	0.26987	-28.658	8.8721	0	0.090451	0	-0.028343	32.8
252.59	563.19	0	2.8504	0	0.26699	-28.736	8.614	0	0.089438	0	-0.029236	32.9
249.71	564.04	0	2.8593	0	0.26403	-28.812	8.3582	0	0.088396	0	-0.030121	33
246.82	564.86	0	2.8681	0	0.26097	-28.884	8.1047	0	0.087324	0	-0.030997	33.1
243.93	565.66	0	2.8767	0	0.25783	-28.953	7.8537	0	0.086224	0	-0.031863	33.2
241.03	566.43	0	2.8853	0	0.2546	-29.02	7.6054	0	0.085096	0	-0.032718	33.3
238.13	567.18	0	2.8937	0	0.25128	-29.083	7.3599	0	0.08394	0	-0.03356	33.4
235.22	567.9	0	2.9021	0	0.24789	-29.143	7.1172	0	0.082756	0	-0.034389	33.5
232.3	568.6	0	2.9103	0	0.24441	-29.201	6.8776	0	0.081547	0	-0.035204	33.6
229.38	569.28	0	2.9184	0	0.24085	-29.255	6.641	0	0.080311	0	-0.036004	33.7
226.45	569.93	0	2.9264	0	0.23721	-29.307	6.4077	0	0.07905	0	-0.036787	33.8
223.51	570.56	0	2.9342	0	0.23349	-29.357	6.1777	0	0.077765	0	-0.037553	33.9
220.58	571.17	0	2.9419	0	0.22969	-29.404	5.9512	0	0.076456	0	-0.0383	34
217.63	571.75	0	2.9495	0	0.22583	-29.448	5.7282	0	0.075123	0	-0.039028	34.1
214.69	572.31	0	2.9569	0	0.22189	-29.49	5.5088	0	0.073769	0	-0.039735	34.2
211.74	572.85	0	2.9642	0	0.21788	-29.529	5.2931	0	0.072393	0	-0.04042	34.3
208.78	573.37	0	2.9714	0	0.2138	-29.566	5.0813	0	0.070996	0	-0.041083	34.4
205.82	573.87	0	2.9784	0	0.20966	-29.601	4.8733	0	0.06958	0	-0.041721	34.5
202.86	574.34	0	2.9853	0	0.20546	-29.634	4.6693	0	0.068144	0	-0.042333	34.6
199.9	574.8	0	2.9921	0	0.2012	-29.665	4.4694	0	0.066691	0	-0.04292	34.7
196.93	575.24	0	2.9987	0	0.19688	-29.694	4.2736	0	0.065221	0	-0.043478	34.8
193.96	575.66	0	3.0051	0	0.1925	-29.721	4.0821	0	0.063735	0	-0.044007	34.9
190.98	576.05	0	3.0114	0	0.18808	-29.746	3.8948	0	0.062234	0	-0.044507	35
188.01	576.44	0	3.0176	0	0.1836	-29.769	3.7119	0	0.060719	0	-0.044974	35.1
185.03	576.8	0	3.0236	0	0.17908	-29.791	3.5334	0	0.059192	0	-0.04541	35.2
182.05	577.14	0	3.0294	0	0.17452	-29.811	3.3593	0	0.057652	0	-0.045811	35.3
179.07	577.47	0	3.0351	0	0.16992	-29.83	3.1897	0	0.056103	0	-0.046177	35.4
176.08	577.78	0	3.0406	0	0.16528	-29.847	3.0247	0	0.054544	0	-0.046507	35.5
173.1	578.07	0	3.046	0	0.16062	-29.863	2.8641	0	0.052977	0	-0.046799	35.6
170.11	578.35	0	3.0512	0	0.15592	-29.877	2.7082	0	0.051403	0	-0.047052	35.7
167.12	578.62	0	3.0563	0	0.15121	-29.891	2.557	0	0.049824	0	-0.047266	35.8
164.13	578.86	0	3.0612	0	0.14647	-29.903	2.4104	0	0.048241	0	-0.047438	35.9
161.14	579.1	0	3.0659	0	0.14172	-29.914	2.2685	0	0.046655	0	-0.047568	36
158.15	579.32	0	3.0705	0	0.13696	-29.924	2.1312	0	0.045067	0	-0.047654	36.1
155.16	579.52	0	3.0749	0	0.13219	-29.933	1.9986	0	0.043479	0	-0.047695	36.2
152.16	579.72	0	3.0792	0	0.12742	-29.942	1.8709	0	0.041893	0	-0.04769	36.3
149.17	579.9	0	3.0833	0	0.12265	-29.949	1.7478	0	0.04031	0	-0.047638	36.4
146.17	580.07	0	3.0873	0	0.11789	-29.956	1.6294	0	0.038731	0	-0.047537	36.5
143.18	580.22	0	3.0911	0	0.11314	-29.962	1.5157	0	0.037158	0	-0.047388	36.6
140.18	580.37	0	3.0947	0	0.10841	-29.967	1.4068	0	0.035592	0	-0.047187	36.7
137.18	580.51	0	3.0982	0	0.10371	-29.972	1.3025	0	0.034036	0	-0.046935	36.8
134.19	580.63	0	3.1015	0	0.099026	-29.976	1.2028	0	0.03249	0	-0.04663	36.9
131.19	580.75	0	3.1047	0	0.094379	-29.98	1.1077	0	0.030956	0	-0.046271	37
128.19	580.85	0	3.1077	0	0.089772	-29.983	1.0172	0	0.029437	0	-0.045857	37.1
125.19	580.95	0	3.1106	0	0.085208	-29.986	0.93121	0	0.027934	0	-0.045388	37.2
122.19	581.04	0	3.1133	0	0.080694	-29.988	0.84969	0	0.026448	0	-0.044861	37.3
119.19	581.12	0	3.1159	0	0.076236	-29.99	0.77259	0	0.024981	0	-0.044277	37.4
116.2	581.19	0	3.1183	0	0.071838	-29.992	0.69984	0	0.023536	0	-0.043634	37.5
113.2	581.26	0	3.1206	0	0.067509	-29.993	0.63139	0	0.022113	0	-0.042931	37.6
110.2	581.32	0	3.1227	0	0.063252	-29.995	0.56715	0	0.020716	0	-0.042168	37.7
107.2	581.37	0	3.1247	0	0.059075	-29.996	0.50704	0	0.019345	0	-0.041343	37.8
104.2	581.42	0	3.1266	0	0.054984	-29.997	0.451	0	0.018003	0	-0.040455	37.9
101.2	581.46	0	3.1283	0	0.050984	-29.997	0.39894	0	0.016692	0	-0.039505	38
98.198	581.5	0	3.1299	0	0.047083	-29.998	0.35077	0	0.015413	0	-0.03849	38.1
95.199	581.53	0	3.1314	0	0.043286	-29.998	0.30639	0	0.01417	0	-0.03741	38.2
92.199	581.56	0	3.1328	0	0.039601	-29.999	0.26571	0	0.012963	0	-0.036264	38.3
89.199	581.59	0	3.134	0	0.036033	-29.999	0.2286	0	0.011795	0	-0.035052	38.4
86.199	581.61	0	3.1351	0	0.03259	-29.999	0.19491	0	0.010668	0	-0.033772	38.5
83.199	581.63	0	3.1361	0	0.029279	-30	0.16455	0	0.0095845	0	-0.032424	38.6
80.199	581.64	0	3.137	0	0.026106	-30	0.13738	0	0.0085465	0	-0.031006	38.7
77.199	581.65	0	3.1378	0	0.023078	-30	0.11328	0	0.0075561	0	-0.029519	38.8
74.199	581.66	0	3.1385	0	0.020202	-30	0.09207	0	0.0066156	0	-0.027962	38.9
71.199	581.67	0	3.1392	0	0.017485	-30	0.073575	0	0.0057274	0	-0.026332	39
68.199	581.68	0	3.1397	0	0.014935	-30	0.057648	0	0.0048937	0	-0.024631	39.1
65.199	581.68	0	3.1401	0	0.012559	-30	0.044156	0	0.004117	0	-0.022856	39.2
62.199	581.69	0	3.1405	0	0.010364	-30	0.032929	0	0.0033995	0	-0.021008	39.3
59.199	581.69	0	3.1408	0	0.0083577	-30	0.023765	0	0.0027437	0	-0.019084	39.4
56.199	581.69	0	3.1411	0	0.0065473	-30	0.016454	0	0.0021521	0	-0.017085	39.5
53.199	581.69	0	3.1412	0	0.0049407	-30	0.010777	0	0.0016271	0	-0.01501	39.6
50.199	581.69	0	3.1414	0	0.0035454	-30	0.0065364	0	0.0011713	0	-0.012857	39.7
47.199	581.69	0	3.1415	0	0.0023693	-30	0.0035635	0	0.00078715	0	-0.010625	39.8
44.199	581.69	0	3.1415	0	0.0014203	-30	0.0016634	0	0.00047726	0	-0.0083147	39.9
41.199	581.69	0	3.1416	0	0.00070639	-30	0.00060414	0	0.00024424	0	-0.005924	40
38.199	581.69	0	3.1416	0	0.00023554	-30	0.00013736	0	9.0717e-05	0	-0.0034521	40.1
35.199	581.69	0	3.1416	0	1.5966e-05	-30	1.4046e-06	0	1.7386e-05	0	-0.0011777	40.2
32.199	581.69	0	3.1416	0	0	-30	-3.7843e-05	0	3.0438e-07	0	-7.9831e-05	40.3
29.199	581.69	0	3.1416	0	0	-30	-8.8438e-05	0	0	0	0	40.4
26.199	581.69	0	3.1416	0	0	-30	-0.00012402	0	0	0	0	40.5
23.199	581.69	0	3.1416	0	0	-30	-0.00011319	0	0	0	0	40.6
20.199	581.69	0	3.1416	0	0	-30	-6.7547e-05	0	0	0	0	40.7
17.199	581.69	0	3.1416	0	0	-30	-9.9311e-06	0	0	0	0	40.8
14.199	581.69	0	3.1416	0	0	-30	4.655e-05	0	0	0	0	40.9
11.199	581.69	0	3.1416	0	0	-30	8.2502e-05	0	0	0	0	41
8.199	581.69	0	3.1416	0	0	-30	7.2812e-05	0	0	0	0	41.1
5.199	581.69	0	3.1416	0	0	-30	2.8837e-05	0	0	0	0	41.2
2.199	581.69	0	3.1416	0	0	-30	-3.4637e-06	0	0	0	0	41.3
-0.80101	581.69	0	3.1416	0	0	-30	1.375e-06	0	0	0	0	41.4
-3.801	581.69	0	3.1416	0	0	-30	3.1883e-05	0	0	0	0	41.5
-6.801	581.69	0	3.1416	0	0	-30	7.4767e-05	0	0	0	0	41.6
-9.801	581.69	0	3.1416	0	0	-30	0.00010406	0	0	0	0	41.7
-12.801	581.69	0	3.1416	0	0	-30	0.00011584	0	0	0	0	41.8
-15.801	581.69	0	3.1416	0	0	-30	7.5987e-05	0	0	0	0	41.9
-18.801	581.69	0	3.1416	0	0	-30	-0.00016092	0	0	0	0	42
-21.801	581.69	0	3.1416	0	0	-30	-7.0486e-05	0	0	0	0	42.1
-24.801	581.69	0	3.1416	0	0	-30	2.5397e-05	0	0	0	0	42.2
-27.801	581.69	0	3.1416	0	0	-30	-0.00011996	0	0	0	0	42.3
-30.801	581.69	0	3.1416	0	0	-30	-5.2766e-05	0	0	0	0	42.4
-33.801	581.69	0	3.1416	0	0	-30	-4.8004e-05	0	0	0	0	42.5
-36.801	581.69	0	3.1416	0	0	-30	-2.7964e-05	0	0	0	0	42.6
-39.801	581.69	0	3.1416	0	0	-30	5.0202e-05	0	0	0	0	42.7
-42.801	581.69	0	3.1416	0	0	-30	2.2062e-05	0	0	0	0	42.8
-45.801	581.69	0	3.1416	0	0	-30	-8.297e-05	0	0	0	0	42.9
-48.801	581.69	0	3.1416	0	0	-30	-7.4457e-05	0	0	0	0	43
-51.801	581.69	0	3.1416	0	0	-30	1.336e-05	0	0	0	0	43.1
-54.801	581.69	0	3.1416	0	0	-30	1.2757e-05	0	0	0	0	43.2
-57.801	581.69	0	3.1416	0	0	-30	-7.1864e-06	0	0	0	0	43.3
-60.801	581.69	0	3.1416	0	0	-30	7.8447e-05	0	0	0	0	43.4
-63.801	581.69	0	3.1416	0	0	-30	0.00015599	0	0	0	0	43.5
-66.801	581.69	0	3.1416	0	0	-30	8.4099e-05	0	0	0	0	43.6
-69.801	581.69	0	3.1416	0	0	-30	-1.2747e-05	0	0	0	0	43.7
-72.801	581.69	0	3.1416	0	0	-30	8.8718e-06	0	0	0	0	43.8
-75.801	581.69	0	3.1416	0	0	-30	3.2809e-05	0	0	0	0	43.9
-78.801	581.69	0	3.1416	0	0	-30	-1.923e-05	0	0	0	0	44
-81.801	581.69	0	3.1416	0	0	-30	-3.1087e-05	0	0	0	0	44.1
-84.801	581.69	0	3.1416	0	0	-30	1.8545e-05	0	6.0446e-07	0	8.5356e-05	44.2
-87.801	581.69	0	3.1416	0	1.7071e-05	-30	-1.8015e-05	0	9.9302e-06	0	0.00055369	44.3
-90.801	581.69	0	3.1416	0	0.00011074	-30	-0.0001433	0	4.0751e-05	0	0.0013531	44.4
-93.801	581.69	0	3.1416	0	0.00028769	-30	-0.00034306	0	9.8707e-05	0	0.0021945	44.5
-96.801	581.69	0	3.1416	0	0.00054963	-30	-0.00075429	0	0.00018445	0	0.0030524	44.6
-99.801	581.69	0	3.1416	0	0.00089816	-30	-0.0014576	0	0.0002985	0	0.0039259	44.7
-102.8	581.69	0	3.1417	0	0.0013348	-30	-0.0025334	0	0.00044136	0	0.004814	44.8
-105.8	581.69	0	3.1417	0	0.001861	-30	-0.0040997	0	0.00061349	0	0.0057158	44.9
-108.8	581.69	0	3.1418	0	0.002478	-30	-0.0062372	0	0.00081532	0	0.0066303	45
-111.8	581.69	0	3.1419	0	0.003187	-30	-0.0090147	0	0.0010472	0	0.0075566	45.1
-114.8	581.69	0	3.142	0	0.0039893	-30	-0.012533	0	0.0013096	0	0.0084936	45.2
-117.8	581.69	0	3.1422	0	0.0048858	-30	-0.01689	0	0.0016028	0	0.0094404	45.3
-120.8	581.69	0	3.1423	0	0.0058774	-30	-0.022145	0	0.0019272	0	0.010396	45.4
-123.8	581.69	0	3.1425	0	0.006965	-30	-0.028453	0	0.0022829	0	0.01136	45.5
-126.8	581.68	0	3.1428	0	0.0081493	-30	-0.035927	0	0.0026702	0	0.01233	45.6
-129.8	581.68	0	3.1431	0	0.009431	-30	-0.044546	0	0.0030894	0	0.013306	45.7
-132.8	581.67	0	3.1434	0	0.010811	-30	-0.054415	0	0.0035406	0	0.014287	45.8
-135.8	581.67	0	3.1438	0	0.012288	-30	-0.065776	0	0.0040239	0	0.015273	45.9
-138.8	581.66	0	3.1442	0	0.013865	-30	-0.078737	0	0.0045396	0	0.016261	46
-141.8	581.65	0	3.1447	0	0.015541	-30	-0.093201	0	0.0050876	0	0.01725	46.1
-144.8	581.64	0	3.1452	0	0.017315	-30	-0.10923	0	0.005668	0	0.018241	46.2
-147.8	581.63	0	3.1458	0	0.019189	-30	-0.12705	0	0.0062809	0	0.019232	46.3
-150.8	581.62	0	3.1465	0	0.021162	-30	-0.14689	0	0.0069263	0	0.020222	46.4
-153.8	581.6	0	3.1472	0	0.023233	-30	-0.16884	0	0.007604	0	0.021209	46.5
-156.8	581.58	0	3.148	0	0.025403	-29.999	-0.19279	0	0.0083141	0	0.022194	46.6
-159.8	581.56	0	3.1489	0	0.027672	-29.999	-0.2187	0	0.0090564	0	0.023174	46.7
-162.8	581.54	0	3.1498	0	0.030038	-29.999	-0.24682	0	0.0098308	0	0.024149	46.8
-165.8	581.51	0	3.1508	0	0.032502	-29.999	-0.27744	0	0.010637	0	0.025118	46.9
-168.8	581.48	0	3.1519	0	0.035062	-29.998	-0.31075	0	0.011475	0	0.02608	47
-171.8	581.45	0	3.1531	0	0.037718	-29.998	-0.3467	0	0.012345	0	0.027033	47.1
-174.8	581.41	0	3.1544	0	0.040468	-29.998	-0.38514	0	0.013246	0	0.027977	47.2
-177.8	581.37	0	3.1558	0	0.043313	-29.997	-0.42615	0	0.014177	0	0.02891	47.3
-180.8	581.33	0	3.1572	0	0.04625	-29.996	-0.46991	0	0.01514	0	0.029832	47.4
-183.8	581.28	0	3.1588	0	0.049279	-29.996	-0.51673	0	0.016132	0	0.030741	47.5
-186.8	581.23	0	3.1605	0	0.052399	-29.995	-0.56673	0	0.017155	0	0.031637	47.6
-189.8	581.17	0	3.1622	0	0.055607	-29.994	-0.61983	0	0.018207	0	0.032518	47.7
-192.8	581.1	0	3.1641	0	0.058902	-29.992	-0.67612	0	0.019288	0	0.033383	47.8
-195.8	581.03	0	3.1661	0	0.062283	-29.991	-0.73573	0	0.020398	0	0.034231	47.9
-198.8	580.95	0	3.1682	0	0.065749	-29.989	-0.79855	0	0.021535	0	0.035062	48
-201.79	580.87	0	3.1704	0	0.069296	-29.988	-0.86466	0	0.022701	0	0.035873	48.1
-204.79	580.78	0	3.1727	0	0.072923	-29.985	-0.93453	0	0.023893	0	0.036665	48.2
-207.79	580.68	0	3.1752	0	0.076629	-29.983	-1.008	0	0.025111	0	0.037435	48.3
-210.79	580.58	0	3.1778	0	0.08041	-29.98	-1.0851	0	0.026355	0	0.038183	48.4
-213.79	580.47	0	3.1805	0	0.084265	-29.977	-1.1661	0	0.027624	0	0.038907	48.5
-216.78	580.35	0	3.1833	0	0.088192	-29.974	-1.251	0	0.028918	0	0.039608	48.6
-219.78	580.22	0	3.1862	0	0.092187	-29.97	-1.3395	0	0.030235	0	0.040283	48.7
-222.78	580.08	0	3.1893	0	0.096248	-29.966	-1.432	0	0.031574	0	0.040932	48.8
-225.78	579.93	0	3.1926	0	0.10037	-29.961	-1.5287	0	0.032936	0	0.041553	48.9
-228.77	579.77	0	3.1959	0	0.10456	-29.956	-1.6295	0	0.034319	0	0.042146	49
-231.77	579.6	0	3.1994	0	0.1088	-29.95	-1.7344	0	0.035723	0	0.042709	49.1
-234.76	579.43	0	3.2031	0	0.1131	-29.943	-1.8436	0	0.037145	0	0.043242	49.2
-237.76	579.24	0	3.2068	0	0.11745	-29.936	-1.9571	0	0.038587	0	0.043743	49.3
-240.75	579.03	0	3.2108	0	0.12185	-29.928	-2.0746	0	0.040046	0	0.044212	49.4
-243.74	578.82	0	3.2149	0	0.12629	-29.919	-2.1964	0	0.041521	0	0.044648	49.5
-246.73	578.6	0	3.2191	0	0.13078	-29.91	-2.3228	0	0.043013	0	0.045049	49.6
-249.72	578.36	0	3.2235	0	0.1353	-29.899	-2.4538	0	0.044518	0	0.045416	49.7
-252.71	578.1	0	3.228	0	0.13986	-29.888	-2.5892	0	0.046037	0	0.045746	49.8
-255.7	577.84	0	3.2327	0	0.14445	-29.875	-2.7291	0	0.047569	0	0.046039	49.9
-258.69	577.56	0	3.2375	0	0.14907	-29.862	-2.8734	0	0.049112	0	0.046295	50
-261.67	577.26	0	3.2425	0	0.15371	-29.847	-3.0224	0	0.050665	0	0.046512	50.1
-264.66	576.95	0	3.2476	0	0.15837	-29.831	-3.176	0	0.052226	0	0.046689	50.2
-267.64	576.63	0	3.2529	0	0.16305	-29.814	-3.334	0	0.053796	0	0.046827	50.3
-270.62	576.29	0	3.2584	0	0.16774	-29.795	-3.4968	0	0.055371	0	0.046923	50.4
-273.6	575.93	0	3.264	0	0.17243	-29.775	-3.6641	0	0.056952	0	0.046978	50.5
-276.57	575.55	0	3.2698	0	0.17713	-29.754	-3.8358	0	0.058536	0	0.046991	50.6
-279.55	575.16	0	3.2757	0	0.18183	-29.73	-4.0122	0	0.060123	0	0.046961	50.7
-282.52	574.75	0	3.2818	0	0.18653	-29.705	-4.1933	0	0.061711	0	0.046887	50.8
-285.49	574.32	0	3.2881	0	0.19121	-29.678	-4.3789	0	0.063298	0	0.046769	50.9
-288.46	573.88	0	3.2945	0	0.19588	-29.65	-4.5689	0	0.064884	0	0.046606	51
-291.42	573.41	0	3.301	0	0.20053	-29.619	-4.7635	0	0.066466	0	0.046398	51.1
-294.38	572.92	0	3.3078	0	0.20516	-29.586	-4.9626	0	0.068043	0	0.046144	51.2
-297.34	572.42	0	3.3146	0	0.20976	-29.552	-5.1662	0	0.069614	0	0.045843	51.3
-300.29	571.89	0	3.3217	0	0.21433	-29.514	-5.3742	0	0.071177	0	0.045496	51.4
-303.24	571.34	0	3.3289	0	0.21886	-29.475	-5.5864	0	0.07273	0	0.045101	51.5
-306.19	570.77	0	3.3362	0	0.22335	-29.433	-5.8029	0	0.074272	0	0.044658	51.6
-309.13	570.18	0	3.3437	0	0.22779	-29.389	-6.0236	0	0.0758	0	0.044167	51.7
-312.06	569.57	0	3.3514	0	0.23218	-29.342	-6.2484	0	0.077315	0	0.043627	51.8
-314.99	568.93	0	3.3592	0	0.23652	-29.292	-6.4774	0	0.078813	0	0.043038	51.9
-317.92	568.27	0	3.3671	0	0.24079	-29.24	-6.7102	0	0.080292	0	0.042399	52
-320.84	567.59	0	3.3753	0	0.24499	-29.184	-6.9468	0	0.081752	0	0.04171	52.1
-323.76	566.88	0	3.3835	0	0.24913	-29.126	-7.187	0	0.08319	0	0.040971	52.2
-326.67	566.15	0	3.3919	0	0.25319	-29.065	-7.4311	0	0.084604	0	0.040182	52.3
-329.57	565.4	0	3.4004	0	0.25717	-29	-7.6789	0	0.085993	0	0.039341	52.4
-332.47	564.62	0	3.4091	0	0.26106	-28.933	-7.9301	0	0.087354	0	0.038448	52.5
-335.36	563.81	0	3.4179	0	0.26486	-28.862	-8.1844	0	0.088686	0	0.037504	52.6
-338.24	562.98	0	3.4268	0	0.26856	-28.787	-8.4418	0	0.089987	0	0.036507	52.7
-341.12	562.12	0	3.4359	0	0.27216	-28.71	-8.7024	0	0.091254	0	0.035457	52.8
-343.98	561.24	0	3.4451	0	0.27565	-28.628	-8.9658	0	0.092486	0	0.034354	52.9
-346.84	560.33	0	3.4544	0	0.27903	-28.544	-9.2319	0	0.09368	0	0.033197	53
-349.69	559.39	0	3.4638	0	0.28229	-28.455	-9.5006	0	0.094834	0	0.031985	53.1
-352.53	558.43	0	3.4734	0	0.28543	-28.364	-9.7716	0	0.095947	0	0.030719	53.2
-355.36	557.44	0	3.483	0	0.28843	-28.268	-10.045	0	0.097015	0	0.029398	53.3
-358.19	556.42	0	3.4928	0	0.2913	-28.169	-10.32	0	0.098038	0	0.02802	53.4
-361	555.37	0	3.5026	0	0.29404	-28.066	-10.597	0	0.099012	0	0.026586	53.5
-363.8	554.3	0	3.5126	0	0.29662	-27.959	-10.876	0	0.099935	0	0.025094	53.6
-366.59	553.2	0	3.5226	0	0.29906	-27.848	-11.156	0	0.10081	0	0.023544	53.7
-369.37	552.07	0	3.5327	0	0.30133	-27.734	-11.437	0	0.10162	0	0.021935	53.8
-372.14	550.91	0	3.5429	0	0.30344	-27.616	-11.719	0	0.10238	0	0.020266	53.9
-374.89	549.73	0	3.5532	0	0.30538	-27.494	-12.002	0	0.10307	0	0.018536	54
-377.63	548.51	0	3.5635	0	0.30715	-27.368	-12.286	0	0.10371	0	0.016744	54.1
-380.37	547.27	0	3.5739	0	0.30873	-27.239	-12.57	0	0.10428	0	0.014889	54.2
-383.08	546	0	3.5844	0	0.31013	-27.106	-12.854	0	0.10478	0	0.01297	54.3
-385.79	544.7	0	3.5949	0	0.31133	-26.97	-13.138	0	0.10521	0	0.010985	54.4
-388.48	543.37	0	3.6054	0	0.31232	-26.83	-13.422	0	0.10557	0	0.0089333	54.5
-391.15	542.01	0	3.616	0	0.31311	-26.686	-13.704	0	0.10586	0	0.0068131	54.6
-393.81	540.63	0	3.6266	0	0.31369	-26.54	-13.986	0	0.10606	0	0.0046229	54.7
-396.46	539.22	0	3.6372	0	0.31404	-26.39	-14.267	0	0.10619	0	0.0023611	54.8
-399.09	537.78	0	3.6478	0	0.31416	-26.237	-14.547	0	0.10624	0	0.00060617	54.9
-401.71	536.31	0	3.6585	0	0.31416	-26.081	-14.825	0	0.10625	0	1.5468e-07	55
-404.31	534.81	0	3.6691	0	0.31416	-25.922	-15.101	0	0.10625	0	0	55.1
-406.89	533.29	0	3.6797	0	0.31416	-25.76	-15.376	0	0.10625	0	0	55.2
-409.46	531.74	0	3.6903	0	0.31416	-25.595	-15.648	0	0.10625	0	0	55.3
-412.01	530.16	0	3.701	0	0.31416	-25.427	-15.919	0	0.10625	0	0	55.4
-414.55	528.55	0	3.7116	0	0.31416	-25.257	-16.189	0	0.10625	0	0	55.5
-417.06	526.92	0	3.7222	0	0.31416	-25.083	-16.456	0	0.10625	0	0	55.6
-419.56	525.26	0	3.7328	0	0.31416	-24.907	-16.722	0	0.10625	0	0	55.7
-422.04	523.58	0	3.7435	0	0.31416	-24.728	-16.985	0	0.10625	0	0	55.8
-424.51	521.86	0	3.7541	0	0.31416	-24.546	-17.247	0	0.10625	0	0	55.9
-426.95	520.13	0	3.7647	0	0.31416	-24.361	-17.507	0	0.10625	0	0	56
-429.38	518.36	0	3.7753	0	0.31416	-24.174	-17.765	0	0.10625	0	0	56.1
-431.79	516.57	0	3.786	0	0.31416	-23.984	-18.021	0	0.10625	0	0	56.2
-434.18	514.76	0	3.7966	0	0.31416	-23.791	-18.274	0	0.10625	0	0	56.3
-436.55	512.92	0	3.8072	0	0.31416	-23.595	-18.526	0	0.10625	0	0	56.4
-438.9	511.05	0	3.8178	0	0.31416	-23.397	-18.776	0	0.10625	0	0	56.5
-441.23	509.16	0	3.8285	0	0.31416	-23.196	-19.023	0	0.10625	0	0	56.6
-443.53	507.25	0	3.8391	0	0.31416	-22.993	-19.269	0	0.10625	0	0	56.7
-445.82	505.31	0	3.8497	0	0.31416	-22.787	-19.512	0	0.10625	0	0	56.8
-448.09	503.35	0	3.8603	0	0.31416	-22.578	-19.753	0	0.10625	0	0	56.9
-450.34	501.36	0	3.871	0	0.31416	-22.367	-19.992	0	0.10625	0	0	57
-452.57	499.35	0	3.8816	0	0.31416	-22.154	-20.228	0	0.10625	0	0	57.1
-454.77	497.31	0	3.8922	0	0.31416	-21.938	-20.463	0	0.10625	0	0	57.2
-456.95	495.26	0	3.9028	0	0.31416	-21.719	-20.694	0	0.10625	0	0	57.3
-459.11	493.17	0	3.9135	0	0.31416	-21.498	-20.924	0	0.10625	0	0	57.4
-461.25	491.07	0	3.9241	0	0.31416	-21.274	-21.151	0	0.10625	0	0	57.5
-463.37	488.94	0	3.9347	0	0.31416	-21.048	-21.376	0	0.10625	0	0	57.6
-465.46	486.8	0	3.9453	0	0.31416	-20.82	-21.598	0	0.10625	0	0	57.7
-467.53	484.62	0	3.956	0	0.31416	-20.589	-21.818	0	0.10625	0	0	57.8
-469.58	482.43	0	3.9666	0	0.31416	-20.356	-22.036	0	0.10625	0	0	57.9
-471.6	480.22	0	3.9772	0	0.31416	-20.121	-22.251	0	0.10625	0	0	58
-473.6	477.98	0	3.9878	0	0.31416	-19.884	-22.463	0	0.10625	0	0	58.1
-475.58	475.72	0	3.9985	0	0.31416	-19.644	-22.673	0	0.10625	0	0	58.2
-477.53	473.45	0	4.0091	0	0.31416	-19.402	-22.881	0	0.10625	0	0	58.3
-479.46	471.15	0	4.0197	0	0.31416	-19.158	-23.086	0	0.10625	0	0	58.4
-481.36	468.83	0	4.0303	0	0.31416	-18.911	-23.288	0	0.10625	0	0	58.5
-483.24	466.49	0	4.041	0	0.31416	-18.663	-23.487	0	0.10625	0	0	58.6
-485.1	464.13	0	4.0516	0	0.31416	-18.412	-23.684	0	0.10625	0	0	58.7
-486.93	461.75	0	4.0622	0	0.31416	-18.159	-23.879	0	0.10625	0	0	58.8
-488.73	459.36	0	4.0728	0	0.31416	-17.905	-24.07	0	0.10625	0	0	58.9
-490.51	456.94	0	4.0835	0	0.31416	-17.648	-24.259	0	0.10625	0	0	59
-492.26	454.5	0	4.0941	0	0.31416	-17.389	-24.446	0	0.10625	0	0	59.1
-493.98	452.05	0	4.1047	0	0.31416	-17.129	-24.629	0	0.10625	0	0	59.2
-495.68	449.58	0	4.1153	0	0.31416	-16.866	-24.809	0	0.10625	0	0	59.3
-497.36	447.09	0	4.126	0	0.31416	-16.601	-24.987	0	0.10625	0	0	59.4
-499	444.58	0	4.1366	0	0.31416	-16.335	-25.162	0	0.10625	0	0	59.5
-500.62	442.06	0	4.1472	0	0.31416	-16.067	-25.334	0	0.10625	0	0	59.6
-502.22	439.51	0	4.1578	0	0.31416	-15.797	-25.504	0	0.10625	0	0	59.7
-503.78	436.96	0	4.1685	0	0.31416	-15.525	-25.67	0	0.10625	0	0	59.8
-505.32	434.38	0	4.1791	0	0.31416	-15.251	-25.834	0	0.10625	0	0	59.9
-506.83	431.79	0	4.1897	0	0.31416	-14.976	-25.994	0	0.10625	0	0	60
-508.32	429.18	0	4.2003	0	0.31416	-14.699	-26.152	0	0.10625	0	0	60.1
-509.77	426.56	0	4.211	0	0.31416	-14.42	-26.306	0	0.10625	0	0	60.2
-511.2	423.92	0	4.2216	0	0.31416	-14.14	-26.458	0	0.10625	0	0	60.3
-512.6	421.27	0	4.2322	0	0.31416	-13.858	-26.607	0	0.10625	0	0	60.4
-513.97	418.6	0	4.2428	0	0.31416	-13.574	-26.753	0	0.10625	0	0	60.5
-515.32	415.92	0	4.2535	0	0.31416	-13.289	-26.895	0	0.10625	0	0	60.6
-516.63	413.22	0	4.2641	0	0.31416	-13.003	-27.035	0	0.10625	0	0	60.7
-517.92	410.51	0	4.2747	0	0.31416	-12.715	-27.172	0	0.10625	0	0	60.8
-519.17	407.79	0	4.2853	0	0.31416	-12.425	-27.305	0	0.10625	0	0	60.9
-520.4	405.05	0	4.296	0	0.31416	-12.135	-27.436	0	0.10625	0	0	61
-521.6	402.3	0	4.3066	0	0.31416	-11.842	-27.563	0	0.10625	0	0	61.1
-522.77	399.54	0	4.3172	0	0.31416	-11.549	-27.687	0	0.10625	0	0	61.2
-523.91	396.76	0	4.3278	0	0.31416	-11.254	-27.808	0	0.10625	0	0	61.3
-525.02	393.97	0	4.3385	0	0.31416	-10.958	-27.926	0	0.10625	0	0	61.4
-526.1	391.18	0	4.3491	0	0.31416	-10.661	-28.041	0	0.10625	0	0	61.5
-527.15	388.37	0	4.3597	0	0.31416	-10.362	-28.153	0	0.10625	0	0	61.6
-528.18	385.54	0	4.3703	0	0.31416	-10.063	-28.261	0	0.10625	0	0	61.7
-529.17	382.71	0	4.381	0	0.31416	-9.7618	-28.367	0	0.10625	0	0	61.8
-530.13	379.87	0	4.3916	0	0.31416	-9.4599	-28.469	0	0.10625	0	0	61.9
-531.06	377.02	0	4.4022	0	0.31416	-9.1569	-28.568	0	0.10625	0	0	62
-531.96	374.16	0	4.4128	0	0.31416	-8.8528	-28.663	0	0.10625	0	0	62.1
-532.83	371.29	0	4.4235	0	0.31416	-8.5477	-28.756	0	0.10625	0	0	62.2
-533.67	368.41	0	4.4341	0	0.31416	-8.2417	-28.845	0	0.10625	0	0	62.3
-534.48	365.52	0	4.4447	0	0.31416	-7.9347	-28.931	0	0.10625	0	0	62.4
-535.26	362.62	0	4.4553	0	0.31416	-7.6269	-29.014	0	0.10625	0	0	62.5
-536	359.72	0	4.466	0	0.31416	-7.3182	-29.093	0	0.10625	0	0	62.6
-536.72	356.8	0	4.4766	0	0.31416	-7.0087	-29.169	0	0.10625	0	0	62.7
-537.4	353.88	0	4.4872	0	0.31416	-6.6984	-29.242	0	0.10625	0	0	62.8
-538.06	350.95	0	4.4978	0	0.31416	-6.3874	-29.312	0	0.10625	0	0	62.9
-538.68	348.02	0	4.5085	0	0.31416	-6.0755	-29.378	0	0.10625	0	0	63
-539.27	345.08	0	4.5191	0	0.31416	-5.763	-29.441	0	0.10625	0	0	63.1
-539.83	342.13	0	4.5297	0	0.31416	-5.45	-29.5	0	0.10625	0	0	63.2
-540.36	339.18	0	4.5403	0	0.31416	-5.1362	-29.557	0	0.10625	0	0	63.3
-540.86	336.22	0	4.551	0	0.31416	-4.8219	-29.609	0	0.10625	0	0	63.4
-541.33	333.26	0	4.5616	0	0.31416	-4.5071	-29.659	0	0.10625	0	0	63.5
-541.76	330.29	0	4.5722	0	0.31416	-4.1916	-29.705	0	0.10625	0	0	63.6
-542.17	327.32	0	4.5828	0	0.31416	-3.8757	-29.748	0	0.10625	0	0	63.7
-542.54	324.34	0	4.5935	0	0.31416	-3.5595	-29.788	0	0.10625	0	0	63.8
-542.88	321.36	0	4.6041	0	0.31416	-3.2428	-29.823	0	0.10625	0	0	63.9
-543.19	318.37	0	4.6147	0	0.31416	-2.9258	-29.856	0	0.10625	0	0	64
-543.46	315.39	0	4.6253	0	0.31416	-2.6084	-29.886	0	0.10625	0	0	64.1
-543.71	312.4	0	4.636	0	0.31416	-2.2907	-29.912	0	0.10625	0	0	64.2
-543.92	309.4	0	4.6466	0	0.31416	-1.9728	-29.935	0	0.10625	0	0	64.3
-544.1	306.41	0	4.6572	0	0.31416	-1.6546	-29.954	0	0.10625	0	0	64.4
-544.25	303.41	0	4.6678	0	0.31416	-1.3363	-29.97	0	0.10625	0	0	64.5
-544.37	300.42	0	4.6785	0	0.31416	-1.0178	-29.982	0	0.10625	0	0	64.6
-544.46	297.42	0	4.6891	0	0.31416	-0.69918	-29.991	0	0.10625	0	0	64.7
-544.51	294.42	0	4.6997	0	0.31416	-0.3805	-29.997	0	0.10625	0	0	64.8
-544.53	291.42	0	4.7103	0	0.31416	-0.061773	-29.999	0	0.10625	0	0	64.9
-544.52	288.42	0	4.721	0	0.31416	0.25695	-29.998	0	0.10625	0	0	65
-544.48	285.42	0	4.7316	0	0.31416	0.57565	-29.994	0	0.10625	0	0	65.1
-544.41	282.42	0	4.7422	0	0.31416	0.89429	-29.986	0	0.10625	0	0	65.2
-544.3	279.42	0	4.7528	0	0.31416	1.2128	-29.975	0	0.10625	0	0	65.3
-544.17	276.42	0	4.7635	0	0.31416	1.5312	-29.96	0	0.10625	0	0	65.4
-544	273.43	0	4.7741	0	0.31416	1.8492	-29.942	0	0.10625	0	0	65.5
-543.8	270.44	0	4.7847	0	0.31416	2.1673	-29.921	0	0.10625	0	0	65.6
-543.56	267.44	0	4.7953	0	0.31416	2.4856	-29.896	0	0.10625	0	0	65.7
-543.3	264.46	0	4.806	0	0.31416	2.803	-29.868	0	0.10625	0	0	65.8
-543	261.47	0	4.8166	0	0.31416	3.12	-29.837	0	0.10625	0	0	65.9
-542.67	258.49	0	4.8272	0	0.31416	3.4368	-29.802	0	0.10625	0	0	66
-542.31	255.51	0	4.8378	0	0.31416	3.7532	-29.764	0	0.10625	0	0	66.1
-541.92	252.54	0	4.8485	0	0.31416	4.0695	-29.722	0	0.10625	0	0	66.2
-541.5	249.57	0	4.8591	0	0.31416	4.3848	-29.677	0	0.10625	0	0	66.3
-541.05	246.6	0	4.8697	0	0.31416	4.6996	-29.629	0	0.10625	0	0	66.4
-540.56	243.64	0	4.8803	0	0.31416	5.0142	-29.577	0	0.10625	0	0	66.5
-540.04	240.68	0	4.891	0	0.31416	5.3284	-29.522	0	0.10625	0	0	66.6
-539.5	237.74	0	4.9016	0	0.31416	5.642	-29.464	0	0.10625	0	0	66.7
-538.92	234.79	0	4.9122	0	0.31416	5.9545	-29.403	0	0.10625	0	0	66.8
-538.3	231.85	0	4.9228	0	0.31416	6.2665	-29.338	0	0.10625	0	0	66.9
-537.66	228.92	0	4.9335	0	0.31416	6.5778	-29.269	0	0.10625	0	0	67
-536.99	226	0	4.9441	0	0.31416	6.8885	-29.198	0	0.10625	0	0	67.1
-536.28	223.08	0	4.9547	0	0.31416	7.1983	-29.123	0	0.10625	0	0	67.2
-535.55	220.18	0	4.9653	0	0.31416	7.5074	-29.045	0	0.10625	0	0	67.3
-534.78	217.28	0	4.976	0	0.31416	7.8155	-28.964	0	0.10625	0	0	67.4
-533.99	214.38	0	4.9866	0	0.31416	8.1227	-28.879	0	0.10625	0	0	67.5
-533.16	211.5	0	4.9972	0	0.31416	8.4291	-28.791	0	0.10625	0	0	67.6
-532.3	208.63	0	5.0078	0	0.31416	8.7346	-28.7	0	0.10625	0	0	67.7
-531.41	205.76	0	5.0185	0	0.31416	9.0391	-28.605	0	0.10625	0	0	67.8
-530.49	202.9	0	5.0291	0	0.31416	9.3424	-28.508	0	0.10625	0	0	67.9
-529.54	200.06	0	5.0397	0	0.31416	9.6444	-28.407	0	0.10625	0	0	68
-528.56	197.22	0	5.0503	0	0.31416	9.946	-28.303	0	0.10625	0	0	68.1
-527.55	194.4	0	5.061	0	0.31416	10.247	-28.195	0	0.10625	0	0	68.2
-526.51	191.58	0	5.0716	0	0.31416	10.545	-28.085	0	0.10625	0	0	68.3
-525.44	188.78	0	5.0822	0	0.31416	10.843	-27.971	0	0.10625	0	0	68.4
-524.35	185.99	0	5.0928	0	0.31416	11.14	-27.854	0	0.10625	0	0	68.5
-523.22	183.21	0	5.1034	0	0.31416	11.435	-27.735	0	0.10625	0	0	68.6
-522.06	180.44	0	5.1141	0	0.31416	11.729	-27.612	0	0.10625	0	0	68.7
-520.87	177.69	0	5.1247	0	0.31416	12.022	-27.485	0	0.10625	0	0	68.8
-519.65	174.95	0	5.1353	0	0.31416	12.313	-27.356	0	0.10625	0	0	68.9
-518.41	172.22	0	5.1459	0	0.31416	12.603	-27.224	0	0.10625	0	0	69
-517.13	169.5	0	5.1566	0	0.31416	12.891	-27.088	0	0.10625	0	0	69.1
-515.83	166.8	0	5.1672	0	0.31416	13.179	-26.95	0	0.10625	0	0	69.2
-514.5	164.11	0	5.1778	0	0.31416	13.464	-26.808	0	0.10625	0	0	69.3
-513.14	161.44	0	5.1884	0	0.31416	13.748	-26.664	0	0.10625	0	0	69.4
-511.75	158.78	0	5.1991	0	0.31416	14.031	-26.516	0	0.10625	0	0	69.5
-510.33	156.13	0	5.2097	0	0.31416	14.312	-26.366	0	0.10625	0	0	69.6
-508.89	153.51	0	5.2203	0	0.31416	14.591	-26.212	0	0.10625	0	0	69.7
-507.41	150.89	0	5.2309	0	0.31416	14.869	-26.056	0	0.10625	0	0	69.8
-505.91	148.29	0	5.2416	0	0.31416	15.145	-25.896	0	0.10625	0	0	69.9
-504.38	145.71	0	5.2522	0	0.31416	15.419	-25.734	0	0.10625	0	0	70
-502.83	143.15	0	5.2628	0	0.31416	15.691	-25.568	0	0.10625	0	0	70.1
-501.25	140.6	0	5.2734	0	0.31416	15.962	-25.4	0	0.10625	0	0	70.2
-499.64	138.07	0	5.2841	0	0.31416	16.231	-25.229	0	0.10625	0	0	70.3
-498	135.55	0	5.2947	0	0.31416	16.498	-25.055	0	0.10625	0	0	70.4
-496.34	133.06	0	5.3053	0	0.31416	16.764	-24.879	0	0.10625	0	0	70.5
-494.65	130.58	0	5.3159	0	0.31416	17.027	-24.699	0	0.10625	0	0	70.6
-492.93	128.12	0	5.3266	0	0.31416	17.288	-24.517	0	0.10625	0	0	70.7
-491.19	125.67	0	5.3372	0	0.31416	17.548	-24.332	0	0.10625	0	0	70.8
-489.42	123.25	0	5.3478	0	0.31416	17.806	-24.144	0	0.10625	0	0	70.9
-487.63	120.85	0	5.3584	0	0.31416	18.061	-23.953	0	0.10625	0	0	71
-485.81	118.46	0	5.3691	0	0.31416	18.314	-23.76	0	0.10625	0	0	71.1
-483.97	116.09	0	5.3797	0	0.31416	18.566	-23.564	0	0.10625	0	0	71.2
-482.1	113.75	0	5.3903	0	0.31416	18.815	-23.366	0	0.10625	0	0	71.3
-480.2	111.42	0	5.4009	0	0.31416	19.062	-23.164	0	0.10625	0	0	71.4
-478.28	109.11	0	5.4116	0	0.31416	19.307	-22.961	0	0.10625	0	0	71.5
-476.34	106.83	0	5.4222	0	0.31416	19.55	-22.754	0	0.10625	0	0	71.6
-474.37	104.56	0	5.4328	0	0.31416	19.791	-22.545	0	0.10625	0	0	71.7
-472.38	102.32	0	5.4434	0	0.31416	20.029	-22.334	0	0.10625	0	0	71.8
-470.37	100.1	0	5.4541	0	0.31416	20.265	-22.12	0	0.10625	0	0	71.9
-468.33	97.895	0	5.4647	0	0.31416	20.499	-21.903	0	0.10625	0	0	72
-466.27	95.715	0	5.4753	0	0.31416	20.731	-21.684	0	0.10625	0	0	72.1
-464.18	93.558	0	5.4859	0	0.31416	20.96	-21.462	0	0.10625	0	0	72.2
-462.08	91.423	0	5.4966	0	0.31416	21.187	-21.239	0	0.10625	0	0	72.3
-459.95	89.31	0	5.5072	0	0.31416	21.411	-21.012	0	0.10625	0	0	72.4
-457.79	87.22	0	5.5178	0	0.31416	21.633	-20.784	0	0.10625	0	0	72.5
-455.62	85.153	0	5.5284	0	0.31416	21.853	-20.553	0	0.10625	0	0	72.6
-453.42	83.11	0	5.5391	0	0.31416	22.07	-20.319	0	0.10625	0	0	72.7
-451.21	81.09	0	5.5497	0	0.31416	22.285	-20.084	0	0.10625	0	0	72.8
-448.97	79.093	0	5.5603	0	0.31416	22.497	-19.846	0	0.10625	0	0	72.9
-446.71	77.12	0	5.5709	0	0.31416	22.707	-19.606	0	0.10625	0	0	73
-444.42	75.172	0	5.5816	0	0.31416	22.914	-19.363	0	0.10625	0	0	73.1
-442.12	73.248	0	5.5922	0	0.31416	23.118	-19.119	0	0.10625	0	0	73.2
-439.8	71.348	0	5.6028	0	0.31416	23.32	-18.872	0	0.10625	0	0	73.3
-437.46	69.473	0	5.6134	0	0.31416	23.519	-18.623	0	0.10625	0	0	73.4
-435.1	67.624	0	5.6241	0	0.31416	23.715	-18.372	0	0.10625	0	0	73.5
-432.72	65.799	0	5.6347	0	0.31416	23.909	-18.119	0	0.10625	0	0	73.6
-430.32	64	0	5.6453	0	0.31416	24.101	-17.864	0	0.10625	0	0	73.7
-427.9	62.226	0	5.6559	0	0.31416	24.289	-17.607	0	0.10625	0	-0.00017127	73.8
-425.46	60.478	0	5.6666	0	0.31413	24.475	-17.348	0	0.10623	0	-0.00071353	73.9
-423	58.757	0	5.6772	0	0.31402	24.658	-17.087	0	0.10619	0	-0.0014638	74
-420.53	57.061	0	5.6878	0	0.31383	24.838	-16.824	0	0.10613	0	-0.00223	74.1
-418.03	55.392	0	5.6984	0	0.31357	25.015	-16.56	0	0.10603	0	-0.0030112	74.2
-415.52	53.749	0	5.709	0	0.31323	25.189	-16.294	0	0.10591	0	-0.0038068	74.3
-413	52.133	0	5.7196	0	0.31281	25.36	-16.026	0	0.10576	0	-0.0046159	74.4
-410.45	50.544	0	5.7302	0	0.31231	25.528	-15.758	0	0.10557	0	-0.0054379	74.5
-407.89	48.981	0	5.7407	0	0.31172	25.692	-15.488	0	0.10536	0	-0.0062719	74.6
-405.31	47.446	0	5.7512	0	0.31105	25.854	-15.216	0	0.10512	0	-0.0071174	74.7
-402.72	45.938	0	5.7617	0	0.3103	26.012	-14.944	0	0.10485	0	-0.0079735	74.8
-400.11	44.457	0	5.7722	0	0.30946	26.167	-14.671	0	0.10455	0	-0.0088396	74.9
-397.49	43.004	0	5.7826	0	0.30853	26.319	-14.397	0	0.10421	0	-0.0097148	75
-394.85	41.578	0	5.793	0	0.30751	26.467	-14.122	0	0.10385	0	-0.010599	75.1
-392.19	40.179	0	5.8034	0	0.30641	26.612	-13.847	0	0.10345	0	-0.01149	75.2
-389.52	38.809	0	5.8137	0	0.30522	26.754	-13.572	0	0.10302	0	-0.012389	75.3
-386.84	37.465	0	5.824	0	0.30393	26.892	-13.296	0	0.10256	0	-0.013294	75.4
-384.15	36.149	0	5.8343	0	0.30256	27.027	-13.02	0	0.10206	0	-0.014205	75.5
-381.44	34.861	0	5.8444	0	0.30109	27.158	-12.744	0	0.10154	0	-0.01512	75.6
-378.71	33.6	0	5.8546	0	0.29953	27.286	-12.469	0	0.10098	0	-0.01604	75.7
-375.98	32.367	0	5.8646	0	0.29788	27.41	-12.193	0	0.10039	0	-0.016963	75.8
-373.23	31.162	0	5.8746	0	0.29614	27.53	-11.918	0	0.099767	0	-0.017889	75.9
-370.47	29.984	0	5.8846	0	0.29431	27.648	-11.644	0	0.099111	0	-0.018817	76
-367.7	28.833	0	5.8945	0	0.29238	27.761	-11.37	0	0.098423	0	-0.019746	76.1
-364.92	27.71	0	5.9043	0	0.29036	27.871	-11.098	0	0.097703	0	-0.020675	76.2
-362.13	26.613	0	5.914	0	0.28824	27.978	-10.826	0	0.09695	0	-0.021604	76.3
-359.33	25.544	0	5.9237	0	0.28604	28.081	-10.555	0	0.096166	0	-0.022532	76.4
-356.51	24.502	0	5.9332	0	0.28374	28.181	-10.286	0	0.095349	0	-0.023458	76.5
-353.69	23.487	0	5.9427	0	0.28134	28.277	-10.018	0	0.094501	0	-0.024381	76.6
-350.86	22.499	0	5.9521	0	0.27886	28.37	-9.7515	0	0.093622	0	-0.025301	76.7
-348.01	21.537	0	5.9614	0	0.27628	28.46	-9.4867	0	0.092711	0	-0.026216	76.8
-345.16	20.601	0	5.9707	0	0.27362	28.546	-9.2238	0	0.091769	0	-0.027125	76.9
-342.31	19.692	0	5.9798	0	0.27086	28.629	-8.9628	0	0.090797	0	-0.028029	77
-339.44	18.809	0	5.9888	0	0.26801	28.709	-8.704	0	0.089795	0	-0.028925	77.1
-336.56	17.951	0	5.9978	0	0.26507	28.786	-8.4478	0	0.088763	0	-0.029813	77.2
-333.68	17.119	0	6.0066	0	0.26205	28.859	-8.193	0	0.087702	0	-0.030692	77.3
-330.79	16.313	0	6.0153	0	0.25894	28.93	-7.9406	0	0.086612	0	-0.031562	77.4
-327.9	15.531	0	6.0239	0	0.25574	28.997	-7.6919	0	0.085493	0	-0.03242	77.5
-324.99	14.774	0	6.0324	0	0.25245	29.061	-7.4454	0	0.084347	0	-0.033267	77.6
-322.08	14.042	0	6.0408	0	0.24908	29.122	-7.2017	0	0.083173	0	-0.034101	77.7
-319.17	13.334	0	6.049	0	0.24563	29.181	-6.961	0	0.081972	0	-0.034921	77.8
-316.25	12.65	0	6.0572	0	0.2421	29.237	-6.7233	0	0.080746	0	-0.035726	77.9
-313.32	11.989	0	6.0652	0	0.23849	29.289	-6.4889	0	0.079494	0	-0.036515	78
-310.39	11.352	0	6.0731	0	0.2348	29.34	-6.2577	0	0.078217	0	-0.037287	78.1
-307.45	10.738	0	6.0808	0	0.23103	29.387	-6.0299	0	0.076916	0	-0.038041	78.2
-304.51	10.146	0	6.0885	0	0.22719	29.433	-5.8057	0	0.075592	0	-0.038776	78.3
-301.57	9.5767	0	6.0959	0	0.22327	29.475	-5.585	0	0.074245	0	-0.039491	78.4
-298.62	9.0292	0	6.1033	0	0.21929	29.516	-5.368	0	0.072876	0	-0.040184	78.5
-295.66	8.5031	0	6.1105	0	0.21524	29.554	-5.1548	0	0.071487	0	-0.040854	78.6
-292.71	7.9982	0	6.1176	0	0.21112	29.589	-4.9455	0	0.070077	0	-0.041501	78.7
-289.75	7.514	0	6.1245	0	0.20694	29.623	-4.7402	0	0.068648	0	-0.042122	78.8
-286.78	7.0502	0	6.1313	0	0.20269	29.654	-4.5388	0	0.067201	0	-0.042718	78.9
-283.81	6.6062	0	6.138	0	0.19839	29.684	-4.3416	0	0.065737	0	-0.043286	79
-280.84	6.1818	0	6.1445	0	0.19404	29.712	-4.1486	0	0.064256	0	-0.043826	79.1
-277.87	5.7765	0	6.1508	0	0.18963	29.738	-3.9598	0	0.06276	0	-0.044336	79.2
-274.9	5.3899	0	6.157	0	0.18517	29.761	-3.7754	0	0.06125	0	-0.044815	79.3
-271.92	5.0214	0	6.1631	0	0.18067	29.784	-3.5953	0	0.059727	0	-0.045261	79.4
-268.94	4.6708	0	6.169	0	0.17612	29.804	-3.4196	0	0.058192	0	-0.045674	79.5
-265.96	4.3375	0	6.1747	0	0.17153	29.823	-3.2484	0	0.056645	0	-0.046053	79.6
-262.98	4.0211	0	6.1803	0	0.16691	29.841	-3.0818	0	0.05509	0	-0.046396	79.7
-259.99	3.7212	0	6.1857	0	0.16225	29.857	-2.9197	0	0.053525	0	-0.046701	79.8
-257	3.4372	0	6.191	0	0.15757	29.872	-2.7621	0	0.051954	0	-0.046968	79.9
-254.02	3.1687	0	6.1961	0	0.15286	29.886	-2.6093	0	0.050377	0	-0.047196	80
-251.03	2.9153	0	6.2011	0	0.14813	29.899	-2.461	0	0.048795	0	-0.047383	80.1
-248.04	2.6765	0	6.2059	0	0.14338	29.91	-2.3175	0	0.047209	0	-0.047527	80.2
-245.04	2.4518	0	6.2105	0	0.13862	29.921	-2.1786	0	0.045622	0	-0.047629	80.3
-242.05	2.2408	0	6.215	0	0.13386	29.93	-2.0445	0	0.044034	0	-0.047686	80.4
-239.06	2.0429	0	6.2193	0	0.12908	29.939	-1.9151	0	0.042447	0	-0.047697	80.5
-236.06	1.8578	0	6.2235	0	0.12432	29.946	-1.7903	0	0.040863	0	-0.047662	80.6
-233.07	1.6849	0	6.2275	0	0.11955	29.953	-1.6703	0	0.039282	0	-0.047578	80.7
-230.07	1.5237	0	6.2314	0	0.1148	29.96	-1.555	0	0.037707	0	-0.047446	80.8
-227.08	1.3739	0	6.235	0	0.11006	29.965	-1.4444	0	0.036138	0	-0.047263	80.9
-224.08	1.2349	0	6.2386	0	0.10535	29.97	-1.3384	0	0.034578	0	-0.047029	81
-221.08	1.1062	0	6.242	0	0.10066	29.974	-1.2371	0	0.033029	0	-0.046743	81.1
-218.09	0.98744	0	6.2452	0	0.095999	29.978	-1.1404	0	0.031491	0	-0.046403	81.2
-215.09	0.87812	0	6.2483	0	0.091377	29.982	-1.0483	0	0.029966	0	-0.046008	81.3
-212.09	0.77778	0	6.2512	0	0.086797	29.985	-0.9607	0	0.028457	0	-0.045558	81.4
-209.09	0.68598	0	6.254	0	0.082265	29.987	-0.87761	0	0.026965	0	-0.045052	81.5
-206.09	0.60226	0	6.2566	0	0.077787	29.989	-0.79896	0	0.025491	0	-0.044488	81.6
-203.09	0.52618	0	6.2591	0	0.073368	29.991	-0.7247	0	0.024038	0	-0.043866	81.7
-200.09	0.45732	0	6.2614	0	0.069014	29.993	-0.65475	0	0.022607	0	-0.043184	81.8
-197.09	0.39523	0	6.2636	0	0.064731	29.994	-0.58906	0	0.021201	0	-0.042442	81.9
-194.1	0.33951	0	6.2656	0	0.060526	29.995	-0.52755	0	0.019821	0	-0.041638	82
-191.1	0.28972	0	6.2675	0	0.056403	29.996	-0.47013	0	0.018469	0	-0.040773	82.1
-188.1	0.24548	0	6.2693	0	0.052371	29.997	-0.41672	0	0.017146	0	-0.039844	82.2
-185.1	0.20638	0	6.271	0	0.048435	29.998	-0.36723	0	0.015856	0	-0.038852	82.3
-182.1	0.17204	0	6.2725	0	0.044601	29.998	-0.32155	0	0.0146	0	-0.037795	82.4
-179.1	0.14207	0	6.2739	0	0.040876	29.999	-0.2796	0	0.01338	0	-0.036672	82.5
-176.1	0.11612	0	6.2752	0	0.037266	29.999	-0.24124	0	0.012198	0	-0.035483	82.6
-173.1	0.093822	0	6.2763	0	0.033779	29.999	-0.20637	0	0.011057	0	-0.034227	82.7
-170.1	0.074843	0	6.2774	0	0.030421	29.999	-0.17486	0	0.0099582	0	-0.032903	82.8
-167.1	0.058851	0	6.2783	0	0.027199	30	-0.14657	0	0.008904	0	-0.03151	82.9
-164.1	0.045529	0	6.2792	0	0.024119	30	-0.12139	0	0.0078966	0	-0.030047	83
-161.1	0.034574	0	6.2799	0	0.021189	30	-0.099146	0	0.0069385	0	-0.028514	83.1
-158.1	0.025699	0	6.2805	0	0.018416	30	-0.079704	0	0.0060317	0	-0.02691	83.2
-155.1	0.018633	0	6.2811	0	0.015807	30	-0.062902	0	0.0051787	0	-0.025234	83.3
-152.1	0.013119	0	6.2816	0	0.013369	30	-0.048576	0	0.0043818	0	-0.023485	83.4
-149.1	0.0089179	0	6.282	0	0.01111	30	-0.036553	0	0.0036433	0	-0.021662	83.5
-146.1	0.0058084	0	6.2823	0	0.009037	30	-0.026655	0	0.0029657	0	-0.019765	83.6
-143.1	0.003587	0	6.2826	0	0.0071572	30	-0.018695	0	0.0023514	0	-0.017793	83.7
-140.1	0.0020694	0	6.2828	0	0.0054785	30	-0.01248	0	0.0018029	0	-0.015744	83.8
-137.1	0.0010909	0	6.2829	0	0.0040085	30	-0.0078096	0	0.0013226	0	-0.013618	83.9
-134.1	0.00050748	0	6.283	0	0.0027549	30	-0.0044741	0	0.00091309	0	-0.011414	84
-131.1	0.00019611	0	6.2831	0	0.0017257	30	-0.0022577	0	0.00057696	0	-0.0091313	84.1
-128.1	5.5946e-05	0	6.2832	0	0.00092868	30	-0.00093637	0	0.00031677	0	-0.0067686	84.2
-125.1	8.8407e-06	0	6.2832	0	0.00037195	30	-0.00027845	0	0.00013517	0	-0.0043252	84.3
-122.1	2.5488e-07	0	6.2832	0	6.3628e-05	30	-4.4204e-05	0	3.4597e-05	0	-0.0018598	84.4
-119.1	-5.056e-13	0	6.2832	0	0	30	-1.2743e-06	0	2.4283e-06	0	-0.00031814	84.5
-116.1	7.9637e-12	0	6.2832	0	0	30	3.0913e-09	0	0	0	0	84.6
-113.1	6.1776e-10	0	6.2832	0	0	30	-4.0804e-11	0	0	0	0	84.7
-110.1	-1.9718e-13	0	6.2832	0	0	30	-3.0892e-09	0	0	0	0	84.8
-107.1	-7.2387e-14	0	6.2832	0	0	30	-1.2963e-11	0	0	0	0	84.9
-104.1	-2.7897e-12	0	6.2832	0	0	30	1.5288e-11	0	0	0	0	85
-101.1	2.9853e-12	0	6.2832	0	0	30	1.6149e-11	0	0	0	0	85.1
-98.097	4.4009e-13	0	6.2832	0	0	30	-2.1285e-11	0	0	0	0	85.2
-95.097	-1.2717e-12	0	6.2832	0	0	30	4.6451e-12	0	0	0	0	85.3
-92.097	1.3691e-12	0	6.2832	0	0	30	7.3204e-12	0	0	0	0	85.4
-89.097	1.9234e-13	0	6.2832	0	0	30	-6.0701e-12	0	0	0	0	85.5
-86.097	1.5509e-13	0	6.2832	0	0	30	1.2761e-11	0	0	0	0	85.6
-83.097	2.7445e-12	0	6.2832	0	0	30	-1.9148e-13	0	0	0	0	85.7
-80.097	1.168e-13	0	6.2832	0	0	30	-1.1568e-11	0	0	0	0	85.8
-77.097	4.31e-13	0	6.2832	0	0	30	-2.1403e-11	0	0	0	0	85.9
-74.097	-4.1638e-12	0	6.2832	0	0	30	1.0598e-12	0	0	0	0	86
-71.097	6.4297e-13	0	6.2832	0	0	30	2.2803e-11	0	0	0	0	86.1
-68.097	3.9679e-13	0	6.2832	0	0	30	-1.3649e-11	0	0	0	0	86.2
-65.097	-2.0868e-12	0	6.2832	0	0	30	9.6871e-12	0	0	0	0	86.3
-62.097	2.3342e-12	0	6.2832	0	0	30	1.1218e-12	0	0	0	0	86.4
-59.097	-1.8624e-12	0	6.2832	0	0	30	-7.3398e-12	0	0	0	0	86.5
-56.097	8.6625e-13	0	6.2832	0	0	30	7.62e-12	0	0	0	0	86.6
-53.097	-3.3842e-13	0	6.2832	0	0	30	-1.7359e-11	0	0	0	0	86.7
-50.097	-2.6056e-12	0	6.2832	0	0	30	7.3504e-12	0	0	0	0	86.8
-47.097	1.1317e-12	0	6.2832	0	0	30	-3.1068e-11	0	0	0	0	86.9
-44.097	-8.8192e-12	0	6.2832	0	0	30	-4.2493e-12	0	0	0	0	87
-41.097	2.8179e-13	0	6.2832	0	0	30	4.4493e-11	0	0	0	0	87.1
-38.097	7.9367e-14	0	6.2832	0	0	30	5.8816e-12	0	0	0	0	87.2
-35.097	1.4581e-12	0	6.2832	0	0	30	1.4712e-11	0	0	0	0	87.3
-32.097	3.0218e-12	0	6.2832	0	0	30	1.8696e-12	0	0	0	0	87.4
-29.097	1.832e-12	0	6.2832	0	0	30	-2.9499e-11	0	0	0	0	87.5
-26.097	-2.8779e-12	0	6.2832	0	0	30	2.6533e-12	0	0	0	0	87.6
-23.097	2.3627e-12	0	6.2832	0	0	30	5.9345e-12	0	0	0	0	87.7
-20.097	-1.6911e-12	0	6.2832	0	0	30	-2.1377e-12	0	0	0	0	87.8
-17.097	1.9351e-12	0	6.2832	0	0	30	-2.3579e-11	0	0	0	0	87.9
-14.097	-6.4069e-12	0	6.2832	0	0	30	-1.149e-11	0	0	0	0	88
-11.097	-3.6285e-13	0	6.2832	0	0	30	2.3821e-11	0	0	0	0	88.1
-8.0969	-1.6427e-12	0	6.2832	0	0	30	1.4139e-11	0	0	0	0	88.2
-5.0969	2.465e-12	0	6.2832	0	0	30	3.7147e-12	0	0	0	0	88.3
-2.0969	-8.9972e-13	0	6.2832	0	0	30	3.7147e-12	0	0	0	0	88.4
