493	13	0.523599	0.279253
0	0	0	0	0	1.1851e-30	30	0.00019323	0	0	0	0	0
3	2.3094e-06	0	3.115e-06	0	0.00029124	30	0.00019323	0	0.0001316	0	0.0062468	0.1
6	3.8646e-05	0	2.632e-05	0	0.0012494	30	0.0010083	0	0.00045131	0	0.013503	0.2
9	0.00020396	0	9.3377e-05	0	0.0029918	30	0.003157	0	0.0010268	0	0.021873	0.3
12	0.00067005	0	0.00023169	0	0.0056239	30	0.0074597	0	0.0018926	0	0.031233	0.4
15	0.0016959	0	0.0004719	0	0.0092385	30	0.014834	0	0.0030791	0	0.041462	0.5
18	0.0036368	0	0.0008475	0	0.013916	30	0.026281	0	0.0046126	0	0.052433	0.6
21	0.0069521	0	0.0013944	0	0.019725	30	0.042879	0	0.0065158	0	0.064022	0.7
24	0.012213	0	0.0021506	0	0.026721	30	0.065764	0	0.0088069	0	0.076099	0.8
27	0.020105	0	0.0031558	0	0.034945	30	0.096123	0	0.011501	0	0.088533	0.9
30	0.031437	0	0.0044508	0	0.044427	30	0.13518	0	0.014607	0	0.10119	1
33	0.047141	0	0.0060773	0	0.055182	29.999	0.18419	0	0.018133	0	0.11392	1.1
36	0.068274	0	0.0080775	0	0.067212	29.999	0.2444	0	0.022082	0	0.12659	1.2
39	0.096021	0	0.010494	0	0.080501	29.998	0.31709	0	0.02645	0	0.13905	1.3
42	0.13169	0	0.013368	0	0.095022	29.997	0.40351	0	0.031234	0	0.15115	1.4
44.999	0.17672	0	0.01674	0	0.11073	29.996	0.50488	0	0.036423	0	0.16272	1.5
47.999	0.23267	0	0.020652	0	0.12757	29.993	0.62241	0	0.042005	0	0.17361	1.6
50.998	0.3012	0	0.025141	0	0.14545	29.99	0.75722	0	0.047961	0	0.18367	1.7
53.997	0.38411	0	0.030244	0	0.1643	29.986	0.91042	0	0.05427	0	0.19274	1.8
56.995	0.48329	0	0.035995	0	0.184	29.98	1.083	0	0.060907	0	0.20068	1.9
59.993	0.60072	0	0.042426	0	0.20444	29.973	1.2759	0	0.067842	0	0.20735	2
62.99	0.73847	0	0.049564	0	0.22547	29.963	1.4899	0	0.075043	0	0.21263	2.1
65.985	0.89871	0	0.057434	0	0.24696	29.95	1.7258	0	0.082471	0	0.21641	2.2
68.98	1.0836	0	0.066058	0	0.26875	29.934	1.9841	0	0.090085	0	0.21861	2.3
71.972	1.2955	0	0.075451	0	0.29068	29.914	2.2653	0	0.09784	0	0.21916	2.4
74.962	1.5367	0	0.085626	0	0.31259	29.889	2.5695	0	0.10569	0	0.21802	2.5
77.95	1.8094	0	0.096589	0	0.33429	29.859	2.897	0	0.11357	0	0.21516	2.6
80.934	2.1161	0	0.10834	0	0.35562	29.823	3.2477	0	0.12144	0	0.21058	2.7
83.915	2.459	0	0.12088	0	0.3764	29.78	3.6212	0	0.12922	0	0.20429	2.8
86.89	2.8403	0	0.13418	0	0.39648	29.729	4.0171	0	0.13686	0	0.19632	2.9
89.86	3.2624	0	0.14825	0	0.41567	29.669	4.4346	0	0.14428	0	0.18669	3
92.824	3.7273	0	0.16304	0	0.43381	29.6	4.8729	0	0.15142	0	0.17545	3.1
95.78	4.237	0	0.17853	0	0.45076	29.521	5.3306	0	0.15819	0	0.16262	3.2
98.728	4.7934	0	0.19468	0	0.46634	29.431	5.8063	0	0.16451	0	0.14822	3.3
101.67	5.3982	0	0.21143	0	0.4804	29.33	6.2983	0	0.1703	0	0.13225	3.4
104.59	6.053	0	0.22874	0	0.49279	29.217	6.8045	0	0.17547	0	0.11468	3.5
107.51	6.7591	0	0.24653	0	0.50334	29.091	7.3228	0	0.17992	0	0.095472	3.6
110.41	7.5176	0	0.26473	0	0.51188	28.953	7.8504	0	0.18357	0	0.074521	3.7
113.3	8.3292	0	0.28324	0	0.51824	28.803	8.3847	0	0.18629	0	0.051692	3.8
116.17	9.1945	0	0.30198	0	0.52222	28.641	8.9225	0	0.188	0	0.026791	3.9
119.03	10.114	0	0.32084	0	0.5236	28.467	9.4605	0	0.18869	0	0.006897	4
121.87	11.087	0	0.33972	0	0.5236	28.284	9.9962	0	0.18879	0	0	4.1
124.69	12.113	0	0.3586	0	0.5236	28.09	10.528	0	0.18879	0	0	4.2
127.48	13.192	0	0.37748	0	0.5236	27.886	11.057	0	0.18879	0	0	4.3
130.26	14.324	0	0.39636	0	0.5236	27.673	11.581	0	0.18879	0	0	4.4
133.02	15.509	0	0.41524	0	0.5236	27.449	12.102	0	0.18879	0	0	4.5
135.75	16.745	0	0.43412	0	0.5236	27.216	12.618	0	0.18879	0	0	4.6
138.46	18.032	0	0.453	0	0.5236	26.973	13.129	0	0.18879	0	0	4.7
141.15	19.37	0	0.47188	0	0.5236	26.72	13.636	0	0.18879	0	0	4.8
143.81	20.759	0	0.49076	0	0.5236	26.458	14.138	0	0.18879	0	0	4.9
146.44	22.198	0	0.50964	0	0.5236	26.186	14.635	0	0.18879	0	0	5
149.04	23.686	0	0.52852	0	0.5236	25.905	15.127	0	0.18879	0	0	5.1
151.62	25.223	0	0.5474	0	0.5236	25.615	15.613	0	0.18879	0	0	5.2
154.17	26.809	0	0.56627	0	0.5236	25.316	16.094	0	0.18879	0	0	5.3
156.68	28.442	0	0.58515	0	0.5236	25.007	16.569	0	0.18879	0	0	5.4
159.17	30.123	0	0.60403	0	0.5236	24.69	17.038	0	0.18879	0	0	5.5
161.62	31.85	0	0.62291	0	0.5236	24.364	17.501	0	0.18879	0	0	5.6
164.04	33.623	0	0.64179	0	0.5236	24.029	17.958	0	0.18879	0	0	5.7
166.43	35.441	0	0.66067	0	0.5236	23.686	18.408	0	0.18879	0	0	5.8
168.78	37.304	0	0.67955	0	0.5236	23.334	18.852	0	0.18879	0	0	5.9
171.09	39.212	0	0.69843	0	0.5236	22.974	19.289	0	0.18879	0	0	6
173.37	41.162	0	0.71731	0	0.5236	22.606	19.72	0	0.18879	0	0	6.1
175.61	43.156	0	0.73619	0	0.5236	22.23	20.143	0	0.18879	0	0	6.2
177.82	45.191	0	0.75507	0	0.5236	21.845	20.559	0	0.18879	0	0	6.3
179.98	47.267	0	0.77395	0	0.5236	21.453	20.968	0	0.18879	0	0	6.4
182.11	49.384	0	0.79283	0	0.5236	21.054	21.369	0	0.18879	0	0	6.5
184.19	51.541	0	0.81171	0	0.5236	20.647	21.763	0	0.18879	0	0	6.6
186.24	53.737	0	0.83059	0	0.5236	20.232	22.148	0	0.18879	0	0	6.7
188.24	55.971	0	0.84947	0	0.5236	19.81	22.526	0	0.18879	0	0	6.8
190.2	58.242	0	0.86834	0	0.5236	19.382	22.896	0	0.18879	0	0	6.9
192.12	60.55	0	0.88722	0	0.5236	18.946	23.258	0	0.18879	0	0	7
193.99	62.894	0	0.9061	0	0.5236	18.503	23.612	0	0.18879	0	0	7.1
195.82	65.273	0	0.92498	0	0.5236	18.054	23.957	0	0.18879	0	0	7.2
197.6	67.685	0	0.94386	0	0.5236	17.599	24.293	0	0.18879	0	0	7.3
199.34	70.131	0	0.96274	0	0.5236	17.137	24.621	0	0.18879	0	0	7.4
201.03	72.61	0	0.98162	0	0.5236	16.669	24.94	0	0.18879	0	0	7.5
202.67	75.119	0	1.0005	0	0.5236	16.195	25.251	0	0.18879	0	0	7.6
204.27	77.66	0	1.0194	0	0.5236	15.716	25.552	0	0.18879	0	0	7.7
205.81	80.23	0	1.0383	0	0.5236	15.231	25.844	0	0.18879	0	0	7.8
207.31	82.829	0	1.0571	0	0.5236	14.74	26.127	0	0.18879	0	0	7.9
208.76	85.455	0	1.076	0	0.5236	14.244	26.401	0	0.18879	0	0	8
210.16	88.109	0	1.0949	0	0.5236	13.743	26.665	0	0.18879	0	0	8.1
211.51	90.788	0	1.1138	0	0.5236	13.237	26.92	0	0.18879	0	0	8.2
212.81	93.493	0	1.1327	0	0.5236	12.727	27.165	0	0.18879	0	0	8.3
214.06	96.221	0	1.1515	0	0.5236	12.212	27.4	0	0.18879	0	0	8.4
215.25	98.973	0	1.1704	0	0.5236	11.692	27.626	0	0.18879	0	0	8.5
216.4	101.75	0	1.1893	0	0.5236	11.169	27.842	0	0.18879	0	0	8.6
217.49	104.54	0	1.2082	0	0.5236	10.641	28.047	0	0.18879	0	0	8.7
218.52	107.36	0	1.2271	0	0.5236	10.11	28.243	0	0.18879	0	0	8.8
219.51	110.19	0	1.2459	0	0.5236	9.5749	28.429	0	0.18879	0	0	8.9
220.44	113.04	0	1.2648	0	0.5236	9.0364	28.605	0	0.18879	0	0	9
221.32	115.91	0	1.2837	0	0.5236	8.4948	28.77	0	0.18879	0	0	9.1
222.14	118.8	0	1.3026	0	0.5236	7.9502	28.926	0	0.18879	0	0	9.2
222.91	121.7	0	1.3214	0	0.5236	7.4027	29.071	0	0.18879	0	0	9.3
223.62	124.61	0	1.3403	0	0.5236	6.8526	29.205	0	0.18879	0	0	9.4
224.28	127.54	0	1.3592	0	0.5236	6.3	29.329	0	0.18879	0	0	9.5
224.88	130.48	0	1.3781	0	0.5236	5.7452	29.443	0	0.18879	0	0	9.6
225.42	133.43	0	1.397	0	0.5236	5.1884	29.546	0	0.18879	0	0	9.7
225.92	136.38	0	1.4158	0	0.5236	4.6297	29.639	0	0.18879	0	0	9.8
226.35	139.35	0	1.4347	0	0.5236	4.0693	29.721	0	0.18879	0	0	9.9
226.73	142.33	0	1.4536	0	0.5236	3.5075	29.792	0	0.18879	0	0	10
227.05	145.31	0	1.4725	0	0.5236	2.9444	29.853	0	0.18879	0	0	10.1
227.32	148.3	0	1.4914	0	0.5236	2.3804	29.904	0	0.18879	0	0	10.2
227.53	151.29	0	1.5102	0	0.5236	1.8154	29.943	0	0.18879	0	0	10.3
227.68	154.29	0	1.5291	0	0.5236	1.2498	29.972	0	0.18879	0	0	10.4
227.78	157.29	0	1.548	0	0.5236	0.68375	29.99	0	0.18879	0	0	10.5
227.82	160.29	0	1.5669	0	0.5236	0.11747	29.998	0	0.18879	0	0	10.6
227.8	163.29	0	1.5858	0	0.5236	-0.44887	29.995	0	0.18879	0	0	10.7
227.73	166.29	0	1.6046	0	0.5236	-1.015	29.981	0	0.18879	0	0	10.8
227.6	169.28	0	1.6235	0	0.5236	-1.5808	29.957	0	0.18879	0	0	10.9
227.41	172.28	0	1.6424	0	0.5236	-2.1461	29.921	0	0.18879	0	0	11
227.17	175.27	0	1.6613	0	0.5236	-2.7106	29.876	0	0.18879	0	0	11.1
226.87	178.25	0	1.6802	0	0.5236	-3.2741	29.819	0	0.18879	0	0	11.2
226.51	181.23	0	1.699	0	0.5236	-3.8364	29.752	0	0.18879	0	0	11.3
226.1	184.2	0	1.7179	0	0.5236	-4.3974	29.674	0	0.18879	0	0	11.4
225.64	187.17	0	1.7368	0	0.5236	-4.9568	29.586	0	0.18879	0	0	11.5
225.11	190.12	0	1.7557	0	0.5236	-5.5145	29.487	0	0.18879	0	0	11.6
224.53	193.06	0	1.7746	0	0.5236	-6.0701	29.378	0	0.18879	0	0	11.7
223.9	195.99	0	1.7934	0	0.5236	-6.6237	29.258	0	0.18879	0	0	11.8
223.21	198.91	0	1.8123	0	0.5236	-7.1748	29.128	0	0.18879	0	0	11.9
222.46	201.82	0	1.8312	0	0.5236	-7.7234	28.987	0	0.18879	0	0	12
221.66	204.71	0	1.8501	0	0.5236	-8.2693	28.836	0	0.18879	0	0	12.1
220.81	207.59	0	1.869	0	0.5236	-8.8122	28.675	0	0.18879	0	0	12.2
219.9	210.45	0	1.8878	0	0.5236	-9.3519	28.503	0	0.18879	0	0	12.3
218.94	213.29	0	1.9067	0	0.5236	-9.8883	28.322	0	0.18879	0	0	12.4
217.92	216.11	0	1.9256	0	0.5236	-10.421	28.13	0	0.18879	0	0	12.5
216.85	218.91	0	1.9445	0	0.5236	-10.95	27.928	0	0.18879	0	0	12.6
215.73	221.7	0	1.9633	0	0.5236	-11.476	27.716	0	0.18879	0	0	12.7
214.56	224.46	0	1.9822	0	0.5236	-11.997	27.495	0	0.18879	0	0	12.8
213.33	227.2	0	2.0011	0	0.5236	-12.514	27.263	0	0.18879	0	0	12.9
212.06	229.91	0	2.02	0	0.5236	-13.026	27.022	0	0.18879	0	0	13
210.73	232.6	0	2.0389	0	0.5236	-13.534	26.772	0	0.18879	0	0	13.1
209.35	235.26	0	2.0577	0	0.5236	-14.037	26.511	0	0.18879	0	0	13.2
207.92	237.9	0	2.0766	0	0.5236	-14.535	26.242	0	0.18879	0	0	13.3
206.44	240.51	0	2.0955	0	0.5236	-15.028	25.963	0	0.18879	0	0	13.4
204.91	243.09	0	2.1144	0	0.5236	-15.515	25.674	0	0.18879	0	0	13.5
203.34	245.65	0	2.1333	0	0.5236	-15.997	25.377	0	0.18879	0	0	13.6
201.72	248.17	0	2.1521	0	0.5236	-16.473	25.07	0	0.18879	0	0	13.7
200.04	250.66	0	2.171	0	0.5236	-16.944	24.755	0	0.18879	0	0	13.8
198.33	253.12	0	2.1899	0	0.5236	-17.408	24.431	0	0.18879	0	0	13.9
196.56	255.55	0	2.2088	0	0.5236	-17.866	24.098	0	0.18879	0	0	14
194.75	257.94	0	2.2277	0	0.5236	-18.318	23.756	0	0.18879	0	0	14.1
192.9	260.3	0	2.2465	0	0.5236	-18.763	23.406	0	0.18879	0	0	14.2
191	262.62	0	2.2654	0	0.5236	-19.202	23.047	0	0.18879	0	0	14.3
189.06	264.91	0	2.2843	0	0.5236	-19.633	22.681	0	0.18879	0	0	14.4
187.07	267.16	0	2.3032	0	0.5236	-20.058	22.306	0	0.18879	0	0	14.5
185.05	269.37	0	2.3221	0	0.5236	-20.476	21.924	0	0.18879	0	0	14.6
182.98	271.54	0	2.3409	0	0.5236	-20.886	21.533	0	0.18879	0	0	14.7
180.87	273.68	0	2.3598	0	0.5236	-21.289	21.135	0	0.18879	0	0	14.8
178.72	275.77	0	2.3787	0	0.5236	-21.684	20.729	0	0.18879	0	0	14.9
176.53	277.82	0	2.3976	0	0.5236	-22.071	20.316	0	0.18879	0	0	15
174.31	279.83	0	2.4165	0	0.5236	-22.451	19.896	0	0.18879	0	0	15.1
172.04	281.8	0	2.4353	0	0.5236	-22.822	19.469	0	0.18879	0	0	15.2
169.74	283.73	0	2.4542	0	0.5236	-23.186	19.034	0	0.18879	0	0	15.3
167.41	285.61	0	2.4731	0	0.5236	-23.541	18.593	0	0.18879	0	0	15.4
165.03	287.45	0	2.492	0	0.5236	-23.888	18.146	0	0.18879	0	0	15.5
162.63	289.24	0	2.5108	0	0.5236	-24.226	17.691	0	0.18879	0	0	15.6
160.19	290.98	0	2.5297	0	0.5236	-24.556	17.231	0	0.18879	0	0	15.7
157.72	292.68	0	2.5486	0	0.5236	-24.877	16.764	0	0.18879	0	0	15.8
155.21	294.34	0	2.5675	0	0.5236	-25.189	16.292	0	0.18879	0	0	15.9
152.68	295.94	0	2.5864	0	0.5236	-25.492	15.813	0	0.18879	0	0	16
150.12	297.5	0	2.6052	0	0.5236	-25.786	15.329	0	0.18879	0	0	16.1
147.52	299.01	0	2.6241	0	0.5236	-26.071	14.84	0	0.18879	0	0	16.2
144.9	300.47	0	2.643	0	0.5236	-26.346	14.345	0	0.18879	0	0	16.3
142.25	301.88	0	2.6619	0	0.5236	-26.612	13.845	0	0.18879	0	0	16.4
139.58	303.24	0	2.6808	0	0.5236	-26.869	13.34	0	0.18879	0	0	16.5
136.88	304.54	0	2.6996	0	0.5236	-27.116	12.83	0	0.18879	0	-0.00037672	16.6
134.16	305.8	0	2.7185	0	0.52352	-27.353	12.316	0	0.18873	0	-0.0029057	16.7
131.41	307.01	0	2.7374	0	0.52302	-27.581	11.798	0	0.1885	0	-0.0078328	16.8
128.64	308.16	0	2.7562	0	0.52196	-27.798	11.277	0	0.18803	0	-0.013808	16.9
125.85	309.26	0	2.775	0	0.52026	-28.005	10.753	0	0.18729	0	-0.020596	17
123.04	310.31	0	2.7937	0	0.51784	-28.201	10.228	0	0.18623	0	-0.028127	17.1
120.21	311.31	0	2.8122	0	0.51463	-28.386	9.7031	0	0.18484	0	-0.036336	17.2
117.36	312.25	0	2.8306	0	0.51057	-28.559	9.1792	0	0.18309	0	-0.04516	17.3
114.5	313.14	0	2.8489	0	0.5056	-28.722	8.6577	0	0.18096	0	-0.05454	17.4
111.62	313.98	0	2.8668	0	0.49966	-28.873	8.1402	0	0.17843	0	-0.064418	17.5
108.72	314.77	0	2.8845	0	0.49272	-29.012	7.6279	0	0.17549	0	-0.074736	17.6
105.81	315.51	0	2.9019	0	0.48472	-29.141	7.1224	0	0.17213	0	-0.085437	17.7
102.89	316.2	0	2.919	0	0.47563	-29.258	6.6252	0	0.16836	0	-0.096458	17.8
99.963	316.84	0	2.9356	0	0.46542	-29.364	6.1378	0	0.16416	0	-0.10773	17.9
97.022	317.42	0	2.9518	0	0.45408	-29.46	5.6617	0	0.15954	0	-0.11919	18
94.071	317.97	0	2.9675	0	0.44159	-29.545	5.1983	0	0.15451	0	-0.13074	18.1
91.113	318.46	0	2.9827	0	0.42793	-29.621	4.7492	0	0.14909	0	-0.1423	18.2
88.147	318.92	0	2.9973	0	0.41313	-29.687	4.3156	0	0.14328	0	-0.15376	18.3
85.175	319.33	0	3.0114	0	0.39718	-29.745	3.8989	0	0.13711	0	-0.16501	18.4
82.198	319.7	0	3.0248	0	0.38012	-29.794	3.5004	0	0.1306	0	-0.1759	18.5
79.216	320.03	0	3.0375	0	0.362	-29.836	3.1211	0	0.12378	0	-0.18629	18.6
76.231	320.32	0	3.0495	0	0.34287	-29.872	2.762	0	0.11669	0	-0.19602	18.7
73.242	320.58	0	3.0608	0	0.32279	-29.901	2.4242	0	0.10935	0	-0.20491	18.8
70.251	320.81	0	3.0714	0	0.30188	-29.925	2.1084	0	0.1018	0	-0.21276	18.9
67.257	321	0	3.0812	0	0.28024	-29.945	1.8151	0	0.094097	0	-0.21938	19
64.262	321.17	0	3.0902	0	0.25801	-29.96	1.545	0	0.086281	0	-0.22455	19.1
61.265	321.31	0	3.0984	0	0.23533	-29.972	1.2982	0	0.078405	0	-0.22807	19.2
58.267	321.43	0	3.1059	0	0.21239	-29.98	1.075	0	0.070525	0	-0.22973	19.3
55.269	321.53	0	3.1125	0	0.18939	-29.987	0.8753	0	0.0627	0	-0.22933	19.4
52.27	321.6	0	3.1184	0	0.16653	-29.992	0.69885	0	0.054994	0	-0.2267	19.5
49.271	321.67	0	3.1235	0	0.14405	-29.995	0.54527	0	0.047475	0	-0.22165	19.6
46.271	321.71	0	3.1279	0	0.1222	-29.997	0.41384	0	0.040214	0	-0.21405	19.7
43.271	321.75	0	3.1316	0	0.10124	-29.998	0.30367	0	0.033287	0	-0.20376	19.8
40.271	321.77	0	3.1346	0	0.081444	-29.999	0.21372	0	0.026774	0	-0.19069	19.9
37.271	321.79	0	3.1369	0	0.063099	-30	0.14253	0	0.020758	0	-0.17474	20
34.271	321.8	0	3.1387	0	0.046496	-30	0.088521	0	0.015328	0	-0.15583	20.1
31.271	321.81	0	3.14	0	0.031932	-30	0.04987	0	0.010574	0	-0.13391	20.2
28.271	321.81	0	3.1408	0	0.019714	-30	0.024319	0	0.0065926	0	-0.10889	20.3
25.271	321.81	0	3.1413	0	0.010155	-30	0.0094426	0	0.0034832	0	-0.080698	20.4
22.271	321.81	0	3.1415	0	0.0035749	-30	0.0024897	0	0.0013494	0	-0.049249	20.5
19.271	321.81	0	3.1416	0	0.00030501	-30	0.00031863	0	0.00027651	0	-0.017874	20.6
16.271	321.81	0	3.1416	0	0	-30	4.4171e-05	0	6.7303e-06	0	-0.001525	20.7
13.271	321.81	0	3.1416	0	0	-30	4.6279e-05	0	0	0	0	20.8
10.271	321.81	0	3.1416	0	0	-30	2.7329e-05	0	0	0	0	20.9
7.2713	321.81	0	3.1416	0	0	-30	-5.7951e-07	0	0	0	0	21
4.2713	321.81	0	3.1416	0	0	-30	-3.8561e-05	0	0	0	0	21.1
1.2713	321.81	0	3.1416	0	0	-30	-5.5313e-05	0	0	0	0	21.2
-1.7287	321.81	0	3.1416	0	0	-30	-5.4784e-05	0	0	0	0	21.3
-4.7287	321.81	0	3.1416	0	0	-30	-4.0662e-05	0	0	0	0	21.4
-7.7287	321.81	0	3.1416	0	0	-30	-2.4751e-05	0	0	0	0	21.5
-10.729	321.81	0	3.1416	0	0	-30	-8.0863e-06	0	0	0	0	21.6
-13.729	321.81	0	3.1416	0	0	-30	3.9236e-05	0	0	0	0	21.7
-16.729	321.81	0	3.1416	0	0	-30	4.6454e-05	0	0	0	0	21.8
-19.729	321.81	0	3.1416	0	0	-30	1.715e-05	0	0	0	0	21.9
-22.729	321.81	0	3.1416	0	0	-30	1.3222e-06	0	0	0	0	22
-25.729	321.81	0	3.1416	0	0	-30	8.8342e-06	0	0	0	0	22.1
-28.729	321.81	0	3.1416	0	0	-30	2.1687e-05	0	0	0	0	22.2
-31.729	321.81	0	3.1416	0	0	-30	3.8551e-06	0	0	0	0	22.3
-34.729	321.81	0	3.1416	0	0	-30	-2.1797e-06	0	0	0	0	22.4
-37.729	321.81	0	3.1416	0	0	-30	-8.107e-06	0	0	0	0	22.5
-40.729	321.81	0	3.1416	0	0	-30	-1.9777e-05	0	0	0	0	22.6
-43.729	321.81	0	3.1416	0	0	-30	-6.9141e-05	0	0	0	0	22.7
-46.729	321.81	0	3.1416	0	0	-30	-0.00011259	0	0	0	0	22.8
-49.729	321.81	0	3.1416	0	0	-30	-6.5831e-05	0	0	0	0	22.9
-52.729	321.81	0	3.1416	0	0	-30	4.2327e-05	0	0	0	0	23
-55.729	321.81	0	3.1416	0	0	-30	0.00014722	0	0	0	0	23.1
-58.729	321.81	0	3.1416	0	0	-30	8.7728e-05	0	0	0	0	23.2
-61.729	321.81	0	3.1416	0	0	-30	-1.0963e-05	0	0	0	0	23.3
-64.729	321.81	0	3.1416	0	0	-30	-1.0255e-05	0	0	0	0	23.4
-67.729	321.81	0	3.1416	0	0	-30	-2.9207e-06	0	0	0	0	23.5
-70.729	321.81	0	3.1416	0	0	-30	1.6775e-05	0	0	0	0	23.6
-73.729	321.81	0	3.1416	0	0	-30	6.054e-06	0	0	0	0	23.7
-76.729	321.81	0	3.1416	0	0	-30	-8.1365e-06	0	0	0	0	23.8
-79.729	321.81	0	3.1416	0	0	-30	3.6147e-06	0	0	0	0	23.9
-82.729	321.81	0	3.1416	0	0	-30	-1.1741e-06	0	0	0	0	24
-85.729	321.81	0	3.1416	0	0	-30	-1.2715e-05	0	0	0	0	24.1
-88.729	321.81	0	3.1416	0	0	-30	6.0652e-07	0	0	0	0	24.2
-91.729	321.81	0	3.1416	0	0	-30	-1.3945e-05	0	0	0	0	24.3
-94.729	321.81	0	3.1416	0	0	-30	-2.3219e-07	0	0	0	0	24.4
-97.729	321.81	0	3.1416	0	0	-30	2.5211e-05	0	0	0	0	24.5
-100.73	321.81	0	3.1416	0	0	-30	-0.00016513	0	3.2269e-06	0	0.00050227	24.6
-103.73	321.81	0	3.1416	0	0.00010045	-30	-7.6862e-05	0	6.5504e-05	0	0.003873	24.7
-106.73	321.81	0	3.1416	0	0.00077459	-30	-0.00040314	0	0.00029356	0	0.010433	24.8
-109.73	321.81	0	3.1417	0	0.0021871	-30	-0.0020687	0	0.00076147	0	0.018368	24.9
-112.73	321.81	0	3.1418	0	0.0044483	-30	-0.0054017	0	0.0015062	0	0.027344	25
-115.73	321.81	0	3.142	0	0.0076559	-30	-0.01145	0	0.0025598	0	0.037237	25.1
-118.73	321.81	0	3.1423	0	0.011896	-30	-0.021093	0	0.0039503	0	0.047923	25.2
-121.73	321.81	0	3.1427	0	0.017241	-30	-0.035485	0	0.0057019	0	0.059278	25.3
-124.73	321.8	0	3.1434	0	0.023751	-30	-0.055698	0	0.0078345	0	0.071174	25.4
-127.73	321.8	0	3.1443	0	0.031475	-30	-0.082892	0	0.010364	0	0.08348	25.5
-130.73	321.79	0	3.1455	0	0.040447	-30	-0.11829	0	0.013303	0	0.096062	25.6
-133.73	321.77	0	3.147	0	0.050688	-30	-0.16313	0	0.01666	0	0.10878	25.7
-136.73	321.76	0	3.1488	0	0.062204	-29.999	-0.21866	0	0.020437	0	0.1215	25.8
-139.73	321.73	0	3.1511	0	0.074987	-29.999	-0.28617	0	0.024637	0	0.13406	25.9
-142.73	321.7	0	3.1537	0	0.089016	-29.998	-0.3669	0	0.029254	0	0.14632	26
-145.73	321.66	0	3.1569	0	0.10425	-29.996	-0.46209	0	0.034281	0	0.15812	26.1
-148.73	321.61	0	3.1606	0	0.12064	-29.994	-0.57296	0	0.039706	0	0.16931	26.2
-151.73	321.54	0	3.1649	0	0.13811	-29.992	-0.70064	0	0.045513	0	0.17972	26.3
-154.73	321.47	0	3.1697	0	0.15658	-29.988	-0.84632	0	0.051682	0	0.18921	26.4
-157.72	321.37	0	3.1752	0	0.17596	-29.983	-1.0111	0	0.05819	0	0.19762	26.5
-160.72	321.26	0	3.1813	0	0.19611	-29.976	-1.1958	0	0.065009	0	0.20482	26.6
-163.72	321.13	0	3.1882	0	0.21692	-29.967	-1.4008	0	0.072107	0	0.21067	26.7
-166.72	320.98	0	3.1958	0	0.23824	-29.955	-1.6277	0	0.079448	0	0.21507	26.8
-169.71	320.81	0	3.2041	0	0.25993	-29.941	-1.8771	0	0.086992	0	0.21792	26.9
-172.7	320.61	0	3.2132	0	0.28183	-29.923	-2.149	0	0.094696	0	0.21914	27
-175.7	320.38	0	3.223	0	0.30376	-29.9	-2.444	0	0.10251	0	0.21868	27.1
-178.68	320.12	0	3.2337	0	0.32556	-29.872	-2.762	0	0.11039	0	0.21652	27.2
-181.67	319.83	0	3.2451	0	0.34706	-29.838	-3.1033	0	0.11827	0	0.21263	27.3
-184.65	319.5	0	3.2573	0	0.36809	-29.798	-3.4677	0	0.12609	0	0.20703	27.4
-187.63	319.13	0	3.2703	0	0.38847	-29.75	-3.8547	0	0.1338	0	0.19973	27.5
-190.6	318.73	0	3.2841	0	0.40804	-29.694	-4.2635	0	0.14132	0	0.19077	27.6
-193.57	318.28	0	3.2986	0	0.42663	-29.629	-4.6936	0	0.14858	0	0.18018	27.7
-196.53	317.79	0	3.3138	0	0.44407	-29.555	-5.144	0	0.15551	0	0.16799	27.8
-199.48	317.25	0	3.3297	0	0.46022	-29.469	-5.6122	0	0.16202	0	0.15422	27.9
-202.42	316.67	0	3.3462	0	0.47492	-29.372	-6.0975	0	0.16804	0	0.13888	28
-205.35	316.03	0	3.3633	0	0.488	-29.264	-6.5986	0	0.17347	0	0.12197	28.1
-208.27	315.35	0	3.3809	0	0.49931	-29.143	-7.1123	0	0.17822	0	0.10343	28.2
-211.18	314.61	0	3.3989	0	0.50868	-29.01	-7.6365	0	0.1822	0	0.083194	28.3
-214.08	313.82	0	3.4173	0	0.51595	-28.865	-8.1685	0	0.18531	0	0.061143	28.4
-216.96	312.98	0	3.436	0	0.52091	-28.707	-8.7052	0	0.18744	0	0.037106	28.5
-219.82	312.08	0	3.4548	0	0.52337	-28.539	-9.2435	0	0.18852	0	0.013427	28.6
-222.66	311.13	0	3.4737	0	0.5236	-28.359	-9.7804	0	0.18879	0	0.0011439	28.7
-225.49	310.12	0	3.4926	0	0.5236	-28.169	-10.314	0	0.18879	0	0	28.8
-228.3	309.06	0	3.5115	0	0.5236	-27.97	-10.844	0	0.18879	0	0	28.9
-231.08	307.95	0	3.5303	0	0.5236	-27.76	-11.37	0	0.18879	0	0	29
-233.85	306.79	0	3.5492	0	0.5236	-27.54	-11.892	0	0.18879	0	0	29.1
-236.59	305.57	0	3.5681	0	0.5236	-27.311	-12.41	0	0.18879	0	0	29.2
-239.31	304.31	0	3.587	0	0.5236	-27.072	-12.923	0	0.18879	0	0	29.3
-242.01	302.99	0	3.6059	0	0.5236	-26.823	-13.432	0	0.18879	0	0	29.4
-244.68	301.62	0	3.6247	0	0.5236	-26.565	-13.936	0	0.18879	0	0	29.5
-247.32	300.2	0	3.6436	0	0.5236	-26.297	-14.435	0	0.18879	0	0	29.6
-249.93	298.73	0	3.6625	0	0.5236	-26.02	-14.929	0	0.18879	0	0	29.7
-252.52	297.22	0	3.6814	0	0.5236	-25.733	-15.417	0	0.18879	0	0	29.8
-255.08	295.65	0	3.7002	0	0.5236	-25.438	-15.9	0	0.18879	0	0	29.9
-257.61	294.04	0	3.7191	0	0.5236	-25.133	-16.378	0	0.18879	0	0	30
-260.11	292.38	0	3.738	0	0.5236	-24.819	-16.849	0	0.18879	0	0	30.1
-262.57	290.67	0	3.7569	0	0.5236	-24.497	-17.315	0	0.18879	0	0	30.2
-265.01	288.91	0	3.7758	0	0.5236	-24.165	-17.774	0	0.18879	0	0	30.3
-267.41	287.11	0	3.7946	0	0.5236	-23.826	-18.227	0	0.18879	0	0	30.4
-269.77	285.27	0	3.8135	0	0.5236	-23.477	-18.674	0	0.18879	0	0	30.5
-272.1	283.38	0	3.8324	0	0.5236	-23.121	-19.114	0	0.18879	0	0	30.6
-274.4	281.44	0	3.8513	0	0.5236	-22.756	-19.547	0	0.18879	0	0	30.7
-276.65	279.47	0	3.8702	0	0.5236	-22.383	-19.973	0	0.18879	0	0	30.8
-278.87	277.45	0	3.889	0	0.5236	-22.001	-20.392	0	0.18879	0	0	30.9
-281.05	275.39	0	3.9079	0	0.5236	-21.613	-20.804	0	0.18879	0	0	31
-283.2	273.29	0	3.9268	0	0.5236	-21.216	-21.208	0	0.18879	0	0	31.1
-285.3	271.15	0	3.9457	0	0.5236	-20.812	-21.605	0	0.18879	0	0	31.2
-287.36	268.97	0	3.9646	0	0.5236	-20.4	-21.994	0	0.18879	0	0	31.3
-289.38	266.75	0	3.9834	0	0.5236	-19.982	-22.375	0	0.18879	0	0	31.4
-291.35	264.49	0	4.0023	0	0.5236	-19.556	-22.748	0	0.18879	0	0	31.5
-293.29	262.2	0	4.0212	0	0.5236	-19.123	-23.113	0	0.18879	0	0	31.6
-295.18	259.87	0	4.0401	0	0.5236	-18.683	-23.47	0	0.18879	0	0	31.7
-297.02	257.51	0	4.059	0	0.5236	-18.236	-23.819	0	0.18879	0	0	31.8
-298.83	255.11	0	4.0778	0	0.5236	-17.783	-24.159	0	0.18879	0	0	31.9
-300.58	252.67	0	4.0967	0	0.5236	-17.324	-24.49	0	0.18879	0	0	32
-302.29	250.21	0	4.1156	0	0.5236	-16.859	-24.813	0	0.18879	0	0	32.1
-303.95	247.71	0	4.1345	0	0.5236	-16.387	-25.127	0	0.18879	0	0	32.2
-305.57	245.18	0	4.1534	0	0.5236	-15.91	-25.431	0	0.18879	0	0	32.3
-307.14	242.63	0	4.1722	0	0.5236	-15.427	-25.727	0	0.18879	0	0	32.4
-308.65	240.04	0	4.1911	0	0.5236	-14.939	-26.014	0	0.18879	0	0	32.5
-310.12	237.42	0	4.21	0	0.5236	-14.445	-26.291	0	0.18879	0	0	32.6
-311.54	234.78	0	4.2289	0	0.5236	-13.946	-26.559	0	0.18879	0	0	32.7
-312.91	232.11	0	4.2477	0	0.5236	-13.442	-26.818	0	0.18879	0	0	32.8
-314.23	229.42	0	4.2666	0	0.5236	-12.934	-27.067	0	0.18879	0	0	32.9
-315.5	226.7	0	4.2855	0	0.5236	-12.42	-27.306	0	0.18879	0	0	33
-316.72	223.95	0	4.3044	0	0.5236	-11.903	-27.536	0	0.18879	0	0	33.1
-317.88	221.19	0	4.3233	0	0.5236	-11.381	-27.755	0	0.18879	0	0	33.2
-318.99	218.4	0	4.3421	0	0.5236	-10.855	-27.965	0	0.18879	0	0	33.3
-320.05	215.6	0	4.361	0	0.5236	-10.325	-28.166	0	0.18879	0	0	33.4
-321.06	212.77	0	4.3799	0	0.5236	-9.7912	-28.355	0	0.18879	0	0	33.5
-322.01	209.93	0	4.3988	0	0.5236	-9.2543	-28.535	0	0.18879	0	0	33.6
-322.91	207.06	0	4.4177	0	0.5236	-8.7139	-28.705	0	0.18879	0	0	33.7
-323.75	204.18	0	4.4365	0	0.5236	-8.1702	-28.865	0	0.18879	0	0	33.8
-324.54	201.29	0	4.4554	0	0.5236	-7.6239	-29.013	0	0.18879	0	0	33.9
-325.28	198.38	0	4.4743	0	0.5236	-7.075	-29.152	0	0.18879	0	0	34
-325.96	195.46	0	4.4932	0	0.5236	-6.5236	-29.28	0	0.18879	0	0	34.1
-326.58	192.53	0	4.5121	0	0.5236	-5.9694	-29.398	0	0.18879	0	0	34.2
-327.15	189.58	0	4.5309	0	0.5236	-5.4131	-29.506	0	0.18879	0	0	34.3
-327.66	186.62	0	4.5498	0	0.5236	-4.8554	-29.603	0	0.18879	0	0	34.4
-328.12	183.66	0	4.5687	0	0.5236	-4.2957	-29.689	0	0.18879	0	0	34.5
-328.52	180.69	0	4.5876	0	0.5236	-3.7344	-29.765	0	0.18879	0	0	34.6
-328.87	177.71	0	4.6065	0	0.5236	-3.1719	-29.83	0	0.18879	0	0	34.7
-329.16	174.72	0	4.6253	0	0.5236	-2.6082	-29.885	0	0.18879	0	0	34.8
-329.39	171.73	0	4.6442	0	0.5236	-2.0435	-29.929	0	0.18879	0	0	34.9
-329.57	168.74	0	4.6631	0	0.5236	-1.4781	-29.962	0	0.18879	0	0	35
-329.69	165.74	0	4.682	0	0.5236	-0.91223	-29.984	0	0.18879	0	0	35.1
-329.75	162.74	0	4.7009	0	0.5236	-0.34605	-29.996	0	0.18879	0	0	35.2
-329.75	159.74	0	4.7197	0	0.5236	0.22031	-29.997	0	0.18879	0	0	35.3
-329.7	156.74	0	4.7386	0	0.5236	0.78657	-29.988	0	0.18879	0	0	35.4
-329.6	153.74	0	4.7575	0	0.5236	1.3525	-29.968	0	0.18879	0	0	35.5
-329.43	150.75	0	4.7764	0	0.5236	1.918	-29.937	0	0.18879	0	0	35.6
-329.21	147.75	0	4.7953	0	0.5236	2.4829	-29.895	0	0.18879	0	0	35.7
-328.94	144.77	0	4.8141	0	0.5236	3.0468	-29.843	0	0.18879	0	0	35.8
-328.6	141.79	0	4.833	0	0.5236	3.6095	-29.78	0	0.18879	0	0	35.9
-328.22	138.81	0	4.8519	0	0.5236	4.1712	-29.707	0	0.18879	0	0	36
-327.77	135.84	0	4.8708	0	0.5236	4.7313	-29.623	0	0.18879	0	0	36.1
-327.27	132.89	0	4.8896	0	0.5236	5.2897	-29.528	0	0.18879	0	0	36.2
-326.71	129.94	0	4.9085	0	0.5236	5.8461	-29.423	0	0.18879	0	0	36.3
-326.1	127	0	4.9274	0	0.5236	6.4005	-29.307	0	0.18879	0	0	36.4
-325.43	124.08	0	4.9463	0	0.5236	6.9527	-29.181	0	0.18879	0	0	36.5
-324.71	121.17	0	4.9652	0	0.5236	7.5023	-29.045	0	0.18879	0	0	36.6
-323.93	118.27	0	4.984	0	0.5236	8.0493	-28.898	0	0.18879	0	0	36.7
-323.1	115.39	0	5.0029	0	0.5236	8.5934	-28.741	0	0.18879	0	0	36.8
-322.21	112.52	0	5.0218	0	0.5236	9.1343	-28.574	0	0.18879	0	0	36.9
-321.27	109.67	0	5.0407	0	0.5236	9.6721	-28.396	0	0.18879	0	0	37
-320.28	106.84	0	5.0596	0	0.5236	10.207	-28.208	0	0.18879	0	0	37.1
-319.23	104.03	0	5.0784	0	0.5236	10.737	-28.011	0	0.18879	0	0	37.2
-318.13	101.24	0	5.0973	0	0.5236	11.264	-27.803	0	0.18879	0	0	37.3
-316.98	98.468	0	5.1162	0	0.5236	11.787	-27.585	0	0.18879	0	0	37.4
-315.77	95.721	0	5.1351	0	0.5236	12.306	-27.358	0	0.18879	0	0	37.5
-314.52	92.997	0	5.154	0	0.5236	12.82	-27.121	0	0.18879	0	0	37.6
-313.21	90.297	0	5.1728	0	0.5236	13.33	-26.874	0	0.18879	0	0	37.7
-311.85	87.622	0	5.1917	0	0.5236	13.835	-26.618	0	0.18879	0	0	37.8
-310.44	84.973	0	5.2106	0	0.5236	14.335	-26.352	0	0.18879	0	0	37.9
-308.98	82.352	0	5.2295	0	0.5236	14.829	-26.076	0	0.18879	0	0	38
-307.48	79.758	0	5.2484	0	0.5236	15.319	-25.792	0	0.18879	0	0	38.1
-305.92	77.193	0	5.2672	0	0.5236	15.804	-25.498	0	0.18879	0	0	38.2
-304.32	74.658	0	5.2861	0	0.5236	16.282	-25.195	0	0.18879	0	0	38.3
-302.66	72.154	0	5.305	0	0.5236	16.755	-24.883	0	0.18879	0	0	38.4
-300.97	69.682	0	5.3239	0	0.5236	17.221	-24.562	0	0.18879	0	0	38.5
-299.22	67.242	0	5.3428	0	0.5236	17.682	-24.233	0	0.18879	0	0	38.6
-297.43	64.835	0	5.3616	0	0.5236	18.136	-23.895	0	0.18879	0	0	38.7
-295.59	62.463	0	5.3805	0	0.5236	18.584	-23.548	0	0.18879	0	0	38.8
-293.71	60.125	0	5.3994	0	0.5236	19.025	-23.193	0	0.18879	0	0	38.9
-291.79	57.824	0	5.4183	0	0.5236	19.46	-22.83	0	0.18879	0	0	39
-289.82	55.56	0	5.4371	0	0.5236	19.887	-22.458	0	0.18879	0	0	39.1
-287.81	53.332	0	5.456	0	0.5236	20.308	-22.079	0	0.18879	0	0	39.2
-285.76	51.144	0	5.4749	0	0.5236	20.721	-21.692	0	0.18879	0	0	39.3
-283.67	48.994	0	5.4938	0	0.5236	21.127	-21.297	0	0.18879	0	0	39.4
-281.53	46.884	0	5.5127	0	0.5236	21.525	-20.894	0	0.18879	0	0	39.5
-279.36	44.815	0	5.5315	0	0.5236	21.916	-20.484	0	0.18879	0	0	39.6
-277.15	42.788	0	5.5504	0	0.5236	22.299	-20.067	0	0.18879	0	0	39.7
-274.9	40.802	0	5.5693	0	0.5236	22.673	-19.642	0	0.18879	0	0	39.8
-272.62	38.859	0	5.5882	0	0.5236	23.04	-19.21	0	0.18879	0	0	39.9
-270.29	36.96	0	5.6071	0	0.5236	23.399	-18.772	0	0.18879	0	0	40
-267.94	35.105	0	5.6259	0	0.5236	23.749	-18.327	0	0.18879	0	0	40.1
-265.54	33.294	0	5.6448	0	0.5236	24.091	-17.875	0	0.18879	0	0	40.2
-263.12	31.53	0	5.6637	0	0.5236	24.424	-17.417	0	0.18879	0	0	40.3
-260.66	29.811	0	5.6826	0	0.5236	24.748	-16.953	0	0.18879	0	0	40.4
-258.17	28.139	0	5.7015	0	0.5236	25.064	-16.483	0	0.18879	0	0	40.5
-255.65	26.514	0	5.7203	0	0.5236	25.371	-16.007	0	0.18879	0	0	40.6
-253.09	24.938	0	5.7392	0	0.5236	25.668	-15.525	0	0.18879	0	0	40.7
-250.51	23.409	0	5.7581	0	0.5236	25.957	-15.038	0	0.18879	0	0	40.8
-247.9	21.93	0	5.777	0	0.5236	26.236	-14.545	0	0.18879	0	0	40.9
-245.26	20.5	0	5.7959	0	0.5236	26.506	-14.047	0	0.18879	0	0	41
-242.6	19.121	0	5.8147	0	0.5236	26.766	-13.544	0	0.18879	0	0	41.1
-239.91	17.791	0	5.8336	0	0.5236	27.017	-13.037	0	0.18879	0	-3.811e-05	41.2
-237.2	16.513	0	5.8525	0	0.52359	27.259	-12.524	0	0.18877	0	-0.0015762	41.3
-234.46	15.287	0	5.8714	0	0.52328	27.49	-12.008	0	0.18862	0	-0.0056687	41.4
-231.7	14.112	0	5.8902	0	0.52246	27.712	-11.488	0	0.18825	0	-0.011294	41.5
-228.92	12.989	0	5.909	0	0.52102	27.923	-10.965	0	0.18762	0	-0.017763	41.6
-226.11	11.919	0	5.9277	0	0.5189	28.123	-10.44	0	0.1867	0	-0.025002	41.7
-223.29	10.901	0	5.9464	0	0.51602	28.312	-9.9149	0	0.18545	0	-0.032945	41.8
-220.45	9.9359	0	5.9648	0	0.51232	28.491	-9.3904	0	0.18384	0	-0.041528	41.9
-217.59	9.023	0	5.9831	0	0.50772	28.658	-8.8678	0	0.18187	0	-0.050691	42
-214.72	8.1623	0	6.0012	0	0.50218	28.813	-8.3485	0	0.1795	0	-0.060374	42.1
-211.83	7.3533	0	6.019	0	0.49564	28.958	-7.834	0	0.17673	0	-0.070522	42.2
-208.93	6.5955	0	6.0366	0	0.48807	29.09	-7.3255	0	0.17354	0	-0.081076	42.3
-206.01	5.8882	0	6.0537	0	0.47943	29.212	-6.8248	0	0.16993	0	-0.091975	42.4
-203.09	5.2306	0	6.0705	0	0.46968	29.322	-6.3333	0	0.1659	0	-0.10316	42.5
-200.15	4.6216	0	6.0869	0	0.4588	29.422	-5.8524	0	0.16145	0	-0.11455	42.6
-197.2	4.0601	0	6.1028	0	0.44677	29.512	-5.3837	0	0.15659	0	-0.12607	42.7
-194.25	3.5448	0	6.1182	0	0.43358	29.591	-4.9287	0	0.15132	0	-0.13764	42.8
-191.28	3.0743	0	6.1331	0	0.41924	29.661	-4.4886	0	0.14567	0	-0.14916	42.9
-188.31	2.6471	0	6.1474	0	0.40375	29.722	-4.065	0	0.13964	0	-0.1605	43
-185.34	2.2614	0	6.161	0	0.38714	29.775	-3.659	0	0.13327	0	-0.17156	43.1
-182.36	1.9153	0	6.174	0	0.36944	29.82	-3.2718	0	0.12657	0	-0.18217	43.2
-179.38	1.607	0	6.1863	0	0.35071	29.858	-2.9044	0	0.11958	0	-0.19219	43.3
-176.39	1.3344	0	6.1979	0	0.331	29.89	-2.558	0	0.11234	0	-0.20144	43.4
-173.4	1.0954	0	6.2088	0	0.31042	29.916	-2.2332	0	0.10487	0	-0.20973	43.5
-170.4	0.88778	0	6.2189	0	0.28906	29.937	-1.9307	0	0.097223	0	-0.21687	43.6
-167.41	0.70926	0	6.2282	0	0.26704	29.954	-1.6512	0	0.089446	0	-0.22265	43.7
-164.41	0.55753	0	6.2368	0	0.24453	29.967	-1.395	0	0.081588	0	-0.22686	43.8
-161.42	0.43026	0	6.2446	0	0.22167	29.977	-1.1623	0	0.073702	0	-0.2293	43.9
-158.42	0.32508	0	6.2515	0	0.19867	29.985	-0.9531	0	0.065848	0	-0.22975	44
-155.42	0.23964	0	6.2577	0	0.17572	29.99	-0.76731	0	0.058086	0	-0.22804	44.1
-152.42	0.17162	0	6.2632	0	0.15306	29.994	-0.60455	0	0.050482	0	-0.22399	44.2
-149.42	0.11873	0	6.2678	0	0.13092	29.996	-0.46425	0	0.043108	0	-0.21743	44.3
-146.42	0.078769	0	6.2718	0	0.10957	29.998	-0.34563	0	0.036037	0	-0.20824	44.4
-143.42	0.049607	0	6.275	0	0.089274	29.999	-0.24766	0	0.029348	0	-0.19631	44.5
-140.42	0.029237	0	6.2776	0	0.07031	29.999	-0.16909	0	0.023121	0	-0.18153	44.6
-137.42	0.015789	0	6.2797	0	0.052969	30	-0.10839	0	0.017443	0	-0.16382	44.7
-134.42	0.0075585	0	6.2811	0	0.037545	30	-0.06379	0	0.012405	0	-0.14313	44.8
-131.42	0.0030312	0	6.2821	0	0.024344	30	-0.033227	0	0.0081003	0	-0.11936	44.9
-128.42	0.00091315	0	6.2828	0	0.013673	30	-0.014357	0	0.0046267	0	-0.092462	45
-125.42	0.00015984	0	6.2831	0	0.0058511	30	-0.0045334	0	0.0020864	0	-0.062341	45.1
-122.42	6.4827e-06	0	6.2832	0	0.0012047	30	-0.0007992	0	0.00058462	0	-0.029255	45.2
-119.42	-2.6801e-13	0	6.2832	0	0	30	-3.2413e-05	0	5.3337e-05	0	-0.0060237	45.3
-116.42	-2.0476e-12	0	6.2832	0	0	30	1.6709e-13	0	0	0	0	45.4
-113.42	-2.3459e-13	0	6.2832	0	0	30	9.6909e-12	0	0	0	0	45.5
-110.42	-1.0943e-13	0	6.2832	0	0	30	4.926e-12	0	0	0	0	45.6
-107.42	7.5061e-13	0	6.2832	0	0	30	-2.2051e-12	0	0	0	0	45.7
-104.42	-5.5045e-13	0	6.2832	0	0	30	-5.9178e-12	0	0	0	0	45.8
-101.42	-4.3296e-13	0	6.2832	0	0	30	2.7605e-12	0	0	0	0	45.9
-98.422	1.6584e-15	0	6.2832	0	0	30	-3.2425e-12	0	0	0	0	46
-95.422	-1.0815e-12	0	6.2832	0	0	30	1.1651e-12	0	0	0	0	46.1
-92.422	2.3467e-13	0	6.2832	0	0	30	-1.6158e-11	0	0	0	0	46.2
-89.422	-4.3131e-12	0	6.2832	0	0	30	-1.2407e-11	0	0	0	0	46.3
-86.422	-2.2468e-12	0	6.2832	0	0	30	2.0681e-11	0	0	0	0	46.4
-83.422	-1.7681e-13	0	6.2832	0	0	30	1.2095e-11	0	0	0	0	46.5
-80.422	1.7211e-13	0	6.2832	0	0	30	1.129e-12	0	0	0	0	46.6
-77.422	4.8987e-14	0	6.2832	0	0	30	4.3958e-14	0	0	0	0	46.7
-74.422	1.809e-13	0	6.2832	0	0	30	-2.68e-12	0	0	0	0	46.8
-71.422	-4.8701e-13	0	6.2832	0	0	30	-3.5091e-12	0	0	0	0	46.9
-68.422	-5.2092e-13	0	6.2832	0	0	30	-6.967e-12	0	0	0	0	47
-65.422	-1.8804e-12	0	6.2832	0	0	30	1.2568e-11	0	0	0	0	47.1
-62.422	1.9927e-12	0	6.2832	0	0	30	-7.2158e-10	0	0	0	0	47.2
-59.422	-1.462e-10	0	6.2832	0	0	30	-1.1844e-11	0	0	0	0	47.3
-56.422	-3.7609e-13	0	6.2832	0	0	30	7.3115e-10	0	0	0	0	47.4
-53.422	3.2817e-14	0	6.2832	0	0	30	2.1005e-12	0	0	0	0	47.5
-50.422	4.4017e-14	0	6.2832	0	0	30	1.8751e-12	0	0	0	0	47.6
-47.422	4.0784e-13	0	6.2832	0	0	30	-2.5893e-11	0	0	0	0	47.7
-44.422	-5.1347e-12	0	6.2832	0	0	30	-3.2531e-12	0	0	0	0	47.8
-41.422	-2.4278e-13	0	6.2832	0	0	30	1.9654e-11	0	0	0	0	47.9
-38.422	-1.2038e-12	0	6.2832	0	0	30	-1.4137e-11	0	0	0	0	48
-35.422	-3.0701e-12	0	6.2832	0	0	30	-1.6832e-11	0	0	0	0	48.1
-32.422	-4.5701e-12	0	6.2832	0	0	30	3.6932e-11	0	0	0	0	48.2
-29.422	4.3164e-12	0	6.2832	0	0	30	2.4747e-11	0	0	0	0	48.3
-26.422	3.7936e-13	0	6.2832	0	0	30	-4.7403e-08	0	0	0	0	48.4
-23.422	-9.4763e-09	0	6.2832	0	0	30	-1.8084e-12	0	0	0	0	48.5
-20.422	1.768e-14	0	6.2832	0	0	30	4.7382e-08	0	0	0	0	48.6
-17.422	2.2486e-13	0	6.2832	0	0	30	-5.1716e-13	0	0	0	0	48.7
-14.422	-8.5751e-14	0	6.2832	0	0	30	-3.1176e-12	0	0	0	0	48.8
-11.422	-3.9865e-13	0	6.2832	0	0	30	6.5774e-13	0	0	0	0	48.9
-8.4217	4.5797e-14	0	6.2832	0	0	30	2.8153e-12	0	0	0	0	49
-5.4217	1.6441e-13	0	6.2832	0	0	30	1.3903e-11	0	0	0	0	49.1
-2.4217	2.8264e-12	0	6.2832	0	0	30	1.3903e-11	0	0	0	0	49.2
