1202	13	0.174533	0.209440
0	0	0	0	0	6.5376e-30	30	0.0015793	0	0	0	0	0
3	2.0561e-05	0	2.7138e-05	0	0.0024476	30	0.0015793	0	0.0010313	0	0.045672	0.1
6	0.00031586	0	0.00020626	0	0.0091345	30	0.0075689	0	0.0031675	0	0.083431	0.2
9	0.0015343	0	0.00066065	0	0.019134	30	0.021672	0	0.0063918	0	0.1123	0.3
12	0.0046502	0	0.0014846	0	0.031594	30	0.04673	0	0.010427	0	0.13302	0.4
15	0.01088	0	0.002746	0	0.045738	30	0.084792	0	0.015021	0	0.14635	0.5
18	0.021609	0	0.0044889	0	0.060865	30	0.13719	0	0.019949	0	0.15307	0.6
21	0.038318	0	0.0067357	0	0.076352	29.999	0.20461	0	0.025008	0	0.15397	0.7
24	0.062531	0	0.0094904	0	0.091659	29.999	0.28719	0	0.030024	0	0.14986	0.8
27	0.095756	0	0.01274	0	0.10632	29.997	0.38455	0	0.034846	0	0.14157	0.9
29.999	0.13944	0	0.01646	0	0.11997	29.996	0.49592	0	0.03935	0	0.12993	1
32.999	0.19494	0	0.02061	0	0.13231	29.993	0.6202	0	0.043437	0	0.11575	1.1
35.998	0.26348	0	0.025147	0	0.14312	29.99	0.756	0	0.047033	0	0.099846	1.2
38.997	0.34614	0	0.030017	0	0.15228	29.986	0.90176	0	0.050089	0	0.082988	1.3
41.995	0.44383	0	0.035165	0	0.15972	29.981	1.0558	0	0.052583	0	0.065939	1.4
44.993	0.55731	0	0.040534	0	0.16547	29.975	1.2165	0	0.054518	0	0.049442	1.5
47.99	0.68713	0	0.046068	0	0.16961	29.968	1.3821	0	0.05592	0	0.034229	1.6
50.987	0.83373	0	0.051718	0	0.17231	29.96	1.5512	0	0.056843	0	0.021028	1.7
53.982	0.99737	0	0.057437	0	0.17382	29.95	1.7223	0	0.057367	0	0.010568	1.8
56.977	1.1782	0	0.063191	0	0.17443	29.94	1.8945	0	0.057595	0	0.0035869	1.9
59.97	1.3763	0	0.068956	0	0.17453	29.929	2.067	0	0.057654	0	0.00052928	2
62.963	1.5916	0	0.074722	0	0.17453	29.916	2.2396	0	0.057659	0	0	2.1
65.953	1.8242	0	0.080488	0	0.17453	29.903	2.412	0	0.057659	0	0	2.2
68.943	2.074	0	0.086254	0	0.17453	29.888	2.5844	0	0.057659	0	0	2.3
71.931	2.3411	0	0.09202	0	0.17453	29.873	2.7567	0	0.057659	0	0	2.4
74.918	2.6253	0	0.097786	0	0.17453	29.857	2.9289	0	0.057659	0	0	2.5
77.902	2.9268	0	0.10355	0	0.17453	29.839	3.101	0	0.057659	0	0	2.6
80.885	3.2455	0	0.10932	0	0.17453	29.821	3.273	0	0.057659	0	0	2.7
83.867	3.5814	0	0.11508	0	0.17453	29.801	3.4449	0	0.057659	0	0	2.8
86.846	3.9345	0	0.12085	0	0.17453	29.781	3.6166	0	0.057659	0	0	2.9
89.823	4.3048	0	0.12661	0	0.17453	29.76	3.7883	0	0.057659	0	0	3
92.798	4.6922	0	0.13238	0	0.17453	29.737	3.9598	0	0.057659	0	0	3.1
95.77	5.0967	0	0.13815	0	0.17453	29.714	4.1312	0	0.057659	0	0	3.2
98.74	5.5184	0	0.14391	0	0.17453	29.69	4.3025	0	0.057659	0	0	3.3
101.71	5.9572	0	0.14968	0	0.17453	29.664	4.4736	0	0.057659	0	0	3.4
104.67	6.4131	0	0.15544	0	0.17453	29.638	4.6445	0	0.057659	0	0	3.5
107.64	6.8861	0	0.16121	0	0.17453	29.611	4.8154	0	0.057659	0	0	3.6
110.6	7.3762	0	0.16698	0	0.17453	29.583	4.986	0	0.057659	0	0	3.7
113.55	7.8833	0	0.17274	0	0.17453	29.553	5.1565	0	0.057659	0	0	3.8
116.51	8.4075	0	0.17851	0	0.17453	29.523	5.3268	0	0.057659	0	0	3.9
119.46	8.9487	0	0.18427	0	0.17453	29.492	5.497	0	0.057659	0	0	4
122.4	9.5069	0	0.19004	0	0.17453	29.46	5.6669	0	0.057659	0	0	4.1
125.35	10.082	0	0.19581	0	0.17453	29.427	5.8367	0	0.057659	0	0	4.2
128.29	10.674	0	0.20157	0	0.17453	29.392	6.0062	0	0.057659	0	0	4.3
131.23	11.283	0	0.20734	0	0.17453	29.357	6.1756	0	0.057659	0	0	4.4
134.16	11.909	0	0.2131	0	0.17453	29.321	6.3448	0	0.057659	0	0	4.5
137.09	12.552	0	0.21887	0	0.17453	29.284	6.5137	0	0.057659	0	0	4.6
140.02	13.212	0	0.22464	0	0.17453	29.246	6.6825	0	0.057659	0	0	4.7
142.94	13.889	0	0.2304	0	0.17453	29.207	6.851	0	0.057659	0	0	4.8
145.86	14.582	0	0.23617	0	0.17453	29.167	7.0193	0	0.057659	0	0	4.9
148.77	15.293	0	0.24193	0	0.17453	29.126	7.1873	0	0.057659	0	0	5
151.68	16.02	0	0.2477	0	0.17453	29.084	7.3552	0	0.057659	0	0	5.1
154.59	16.764	0	0.25346	0	0.17453	29.041	7.5227	0	0.057659	0	0	5.2
157.49	17.524	0	0.25923	0	0.17453	28.997	7.6901	0	0.057659	0	0	5.3
160.39	18.302	0	0.265	0	0.17453	28.953	7.8571	0	0.057659	0	0	5.4
163.28	19.096	0	0.27076	0	0.17453	28.907	8.0239	0	0.057659	0	0	5.5
166.17	19.906	0	0.27653	0	0.17453	28.86	8.1905	0	0.057659	0	0	5.6
169.06	20.734	0	0.28229	0	0.17453	28.812	8.3567	0	0.057659	0	0	5.7
171.93	21.578	0	0.28806	0	0.17453	28.764	8.5227	0	0.057659	0	0	5.8
174.81	22.438	0	0.29383	0	0.17453	28.714	8.6884	0	0.057659	0	0	5.9
177.68	23.316	0	0.29959	0	0.17453	28.664	8.8539	0	0.057659	0	0	6
180.54	24.209	0	0.30536	0	0.17453	28.612	9.019	0	0.057659	0	0	6.1
183.4	25.119	0	0.31112	0	0.17453	28.56	9.1838	0	0.057659	0	0	6.2
186.25	26.046	0	0.31689	0	0.17453	28.506	9.3483	0	0.057659	0	0	6.3
189.1	26.989	0	0.32266	0	0.17453	28.452	9.5125	0	0.057659	0	0	6.4
191.94	27.948	0	0.32842	0	0.17453	28.396	9.6764	0	0.057659	0	0	6.5
194.78	28.924	0	0.33419	0	0.17453	28.34	9.84	0	0.057659	0	0	6.6
197.61	29.916	0	0.33995	0	0.17453	28.283	10.003	0	0.057659	0	0	6.7
200.44	30.925	0	0.34572	0	0.17453	28.225	10.166	0	0.057659	0	0	6.8
203.26	31.95	0	0.35148	0	0.17453	28.166	10.329	0	0.057659	0	0	6.9
206.07	32.991	0	0.35725	0	0.17453	28.106	10.491	0	0.057659	0	0	7
208.88	34.048	0	0.36302	0	0.17453	28.045	10.653	0	0.057659	0	0	7.1
211.68	35.121	0	0.36878	0	0.17453	27.983	10.814	0	0.057659	0	0	7.2
214.47	36.211	0	0.37455	0	0.17453	27.92	10.976	0	0.057659	0	0	7.3
217.26	37.316	0	0.38031	0	0.17453	27.856	11.136	0	0.057659	0	0	7.4
220.05	38.438	0	0.38608	0	0.17453	27.792	11.297	0	0.057659	0	0	7.5
222.82	39.576	0	0.39185	0	0.17453	27.726	11.457	0	0.057659	0	0	7.6
225.59	40.729	0	0.39761	0	0.17453	27.659	11.616	0	0.057659	0	0	7.7
228.35	41.899	0	0.40338	0	0.17453	27.592	11.776	0	0.057659	0	0	7.8
231.11	43.084	0	0.40914	0	0.17453	27.524	11.935	0	0.057659	0	0	7.9
233.86	44.286	0	0.41491	0	0.17453	27.454	12.093	0	0.057659	0	0	8
236.6	45.503	0	0.42068	0	0.17453	27.384	12.251	0	0.057659	0	0	8.1
239.33	46.736	0	0.42644	0	0.17453	27.313	12.409	0	0.057659	0	0	8.2
242.06	47.985	0	0.43221	0	0.17453	27.241	12.566	0	0.057659	0	0	8.3
244.78	49.249	0	0.43797	0	0.17453	27.168	12.723	0	0.057659	0	0	8.4
247.5	50.529	0	0.44374	0	0.17453	27.094	12.88	0	0.057659	0	0	8.5
250.2	51.825	0	0.4495	0	0.17453	27.02	13.036	0	0.057659	0	0	8.6
252.9	53.137	0	0.45527	0	0.17453	26.944	13.191	0	0.057659	0	0	8.7
255.59	54.463	0	0.46104	0	0.17453	26.868	13.346	0	0.057659	0	0	8.8
258.27	55.806	0	0.4668	0	0.17453	26.79	13.501	0	0.057659	0	0	8.9
260.95	57.164	0	0.47257	0	0.17453	26.712	13.655	0	0.057659	0	0	9
263.62	58.537	0	0.47833	0	0.17453	26.633	13.809	0	0.057659	0	0	9.1
266.28	59.925	0	0.4841	0	0.17453	26.553	13.962	0	0.057659	0	0	9.2
268.93	61.329	0	0.48987	0	0.17453	26.472	14.115	0	0.057659	0	0	9.3
271.57	62.748	0	0.49563	0	0.17453	26.39	14.268	0	0.057659	0	0	9.4
274.2	64.183	0	0.5014	0	0.17453	26.307	14.419	0	0.057659	0	0	9.5
276.83	65.632	0	0.50716	0	0.17453	26.224	14.571	0	0.057659	0	0	9.6
279.45	67.097	0	0.51293	0	0.17453	26.139	14.722	0	0.057659	0	0	9.7
282.06	68.577	0	0.5187	0	0.17453	26.054	14.872	0	0.057659	0	0	9.8
284.66	70.072	0	0.52446	0	0.17453	25.968	15.022	0	0.057659	0	0	9.9
287.25	71.581	0	0.53023	0	0.17453	25.881	15.172	0	0.057659	0	0	10
289.84	73.106	0	0.53599	0	0.17453	25.793	15.321	0	0.057659	0	0	10.1
292.41	74.645	0	0.54176	0	0.17453	25.704	15.469	0	0.057659	0	0	10.2
294.98	76.2	0	0.54753	0	0.17453	25.614	15.617	0	0.057659	0	0	10.3
297.53	77.769	0	0.55329	0	0.17453	25.524	15.765	0	0.057659	0	0	10.4
300.08	79.353	0	0.55906	0	0.17453	25.433	15.912	0	0.057659	0	0	10.5
302.62	80.951	0	0.56482	0	0.17453	25.34	16.058	0	0.057659	0	0	10.6
305.15	82.564	0	0.57059	0	0.17453	25.247	16.204	0	0.057659	0	0	10.7
307.67	84.192	0	0.57635	0	0.17453	25.154	16.349	0	0.057659	0	0	10.8
310.18	85.834	0	0.58212	0	0.17453	25.059	16.494	0	0.057659	0	0	10.9
312.68	87.491	0	0.58789	0	0.17453	24.963	16.638	0	0.057659	0	0	11
315.17	89.162	0	0.59365	0	0.17453	24.867	16.782	0	0.057659	0	0	11.1
317.65	90.847	0	0.59942	0	0.17453	24.77	16.925	0	0.057659	0	0	11.2
320.13	92.547	0	0.60518	0	0.17453	24.672	17.067	0	0.057659	0	0	11.3
322.59	94.26	0	0.61095	0	0.17453	24.573	17.209	0	0.057659	0	0	11.4
325.04	95.988	0	0.61672	0	0.17453	24.473	17.351	0	0.057659	0	0	11.5
327.48	97.731	0	0.62248	0	0.17453	24.373	17.491	0	0.057659	0	0	11.6
329.92	99.487	0	0.62825	0	0.17453	24.272	17.632	0	0.057659	0	0	11.7
332.34	101.26	0	0.63401	0	0.17453	24.17	17.771	0	0.057659	0	0	11.8
334.75	103.04	0	0.63978	0	0.17453	24.067	17.91	0	0.057659	0	0	11.9
337.15	104.84	0	0.64555	0	0.17453	23.963	18.049	0	0.057659	0	0	12
339.54	106.65	0	0.65131	0	0.17453	23.859	18.187	0	0.057659	0	0	12.1
341.92	108.48	0	0.65708	0	0.17453	23.753	18.324	0	0.057659	0	0	12.2
344.29	110.32	0	0.66284	0	0.17453	23.647	18.461	0	0.057659	0	0	12.3
346.65	112.17	0	0.66861	0	0.17453	23.54	18.597	0	0.057659	0	0	12.4
349	114.03	0	0.67437	0	0.17453	23.433	18.732	0	0.057659	0	0	12.5
351.34	115.91	0	0.68014	0	0.17453	23.324	18.867	0	0.057659	0	0	12.6
353.67	117.81	0	0.68591	0	0.17453	23.215	19.001	0	0.057659	0	0	12.7
355.98	119.72	0	0.69167	0	0.17453	23.105	19.135	0	0.057659	0	0	12.8
358.29	121.64	0	0.69744	0	0.17453	22.995	19.268	0	0.057659	0	0	12.9
360.58	123.57	0	0.7032	0	0.17453	22.883	19.4	0	0.057659	0	0	13
362.86	125.52	0	0.70897	0	0.17453	22.771	19.531	0	0.057659	0	0	13.1
365.14	127.47	0	0.71474	0	0.17453	22.658	19.662	0	0.057659	0	0	13.2
367.4	129.45	0	0.7205	0	0.17453	22.544	19.793	0	0.057659	0	0	13.3
369.64	131.43	0	0.72627	0	0.17453	22.43	19.922	0	0.057659	0	0	13.4
371.88	133.43	0	0.73203	0	0.17453	22.314	20.051	0	0.057659	0	0	13.5
374.11	135.44	0	0.7378	0	0.17453	22.198	20.18	0	0.057659	0	0	13.6
376.32	137.47	0	0.74357	0	0.17453	22.082	20.307	0	0.057659	0	0	13.7
378.52	139.51	0	0.74933	0	0.17453	21.964	20.434	0	0.057659	0	0	13.8
380.71	141.56	0	0.7551	0	0.17453	21.846	20.561	0	0.057659	0	0	13.9
382.89	143.62	0	0.76086	0	0.17453	21.727	20.686	0	0.057659	0	0	14
385.06	145.69	0	0.76663	0	0.17453	21.607	20.811	0	0.057659	0	0	14.1
387.21	147.78	0	0.77239	0	0.17453	21.487	20.935	0	0.057659	0	0	14.2
389.36	149.88	0	0.77816	0	0.17453	21.366	21.059	0	0.057659	0	0	14.3
391.49	151.99	0	0.78393	0	0.17453	21.244	21.182	0	0.057659	0	0	14.4
393.61	154.12	0	0.78969	0	0.17453	21.122	21.304	0	0.057659	0	0	14.5
395.71	156.25	0	0.79546	0	0.17453	20.999	21.425	0	0.057659	0	0	14.6
397.81	158.4	0	0.80122	0	0.17453	20.875	21.546	0	0.057659	0	0	14.7
399.89	160.56	0	0.80699	0	0.17453	20.75	21.666	0	0.057659	0	0	14.8
401.96	162.73	0	0.81276	0	0.17453	20.625	21.785	0	0.057659	0	0	14.9
404.01	164.92	0	0.81852	0	0.17453	20.499	21.904	0	0.057659	0	0	15
406.06	167.11	0	0.82429	0	0.17453	20.372	22.022	0	0.057659	0	0	15.1
408.09	169.32	0	0.83005	0	0.17453	20.245	22.139	0	0.057659	0	0	15.2
410.1	171.54	0	0.83582	0	0.17453	20.117	22.255	0	0.057659	0	0	15.3
412.11	173.77	0	0.84159	0	0.17453	19.988	22.371	0	0.057659	0	0	15.4
414.1	176.02	0	0.84735	0	0.17453	19.859	22.486	0	0.057659	0	0	15.5
416.08	178.27	0	0.85312	0	0.17453	19.729	22.6	0	0.057659	0	0	15.6
418.05	180.54	0	0.85888	0	0.17453	19.598	22.713	0	0.057659	0	0	15.7
420	182.81	0	0.86465	0	0.17453	19.467	22.826	0	0.057659	0	0	15.8
421.94	185.1	0	0.87042	0	0.17453	19.335	22.938	0	0.057659	0	0	15.9
423.87	187.4	0	0.87618	0	0.17453	19.203	23.049	0	0.057659	0	0	16
425.78	189.71	0	0.88195	0	0.17453	19.069	23.159	0	0.057659	0	0	16.1
427.68	192.03	0	0.88771	0	0.17453	18.936	23.269	0	0.057659	0	0	16.2
429.57	194.37	0	0.89348	0	0.17453	18.801	23.378	0	0.057659	0	0	16.3
431.44	196.71	0	0.89924	0	0.17453	18.666	23.486	0	0.057659	0	0	16.4
433.3	199.06	0	0.90501	0	0.17453	18.53	23.593	0	0.057659	0	0	16.5
435.15	201.43	0	0.91078	0	0.17453	18.394	23.699	0	0.057659	0	0	16.6
436.98	203.8	0	0.91654	0	0.17453	18.257	23.805	0	0.057659	0	0	16.7
438.8	206.19	0	0.92231	0	0.17453	18.119	23.91	0	0.057659	0	0	16.8
440.6	208.58	0	0.92807	0	0.17453	17.981	24.014	0	0.057659	0	0	16.9
442.4	210.99	0	0.93384	0	0.17453	17.842	24.117	0	0.057659	0	0	17
444.17	213.41	0	0.93961	0	0.17453	17.703	24.22	0	0.057659	0	0	17.1
445.94	215.83	0	0.94537	0	0.17453	17.563	24.321	0	0.057659	0	0	17.2
447.69	218.27	0	0.95114	0	0.17453	17.423	24.422	0	0.057659	0	0	17.3
449.42	220.72	0	0.9569	0	0.17453	17.282	24.522	0	0.057659	0	0	17.4
451.14	223.18	0	0.96267	0	0.17453	17.14	24.621	0	0.057659	0	0	17.5
452.85	225.64	0	0.96844	0	0.17453	16.998	24.72	0	0.057659	0	0	17.6
454.54	228.12	0	0.9742	0	0.17453	16.855	24.817	0	0.057659	0	0	17.7
456.22	230.61	0	0.97997	0	0.17453	16.711	24.914	0	0.057659	0	0	17.8
457.88	233.1	0	0.98573	0	0.17453	16.567	25.01	0	0.057659	0	0	17.9
459.53	235.61	0	0.9915	0	0.17453	16.423	25.105	0	0.057659	0	0	18
461.17	238.12	0	0.99726	0	0.17453	16.278	25.2	0	0.057659	0	0	18.1
462.79	240.65	0	1.003	0	0.17453	16.132	25.293	0	0.057659	0	0	18.2
464.39	243.18	0	1.0088	0	0.17453	15.986	25.386	0	0.057659	0	0	18.3
465.99	245.73	0	1.0146	0	0.17453	15.84	25.477	0	0.057659	0	0	18.4
467.56	248.28	0	1.0203	0	0.17453	15.692	25.568	0	0.057659	0	0	18.5
469.12	250.84	0	1.0261	0	0.17453	15.545	25.658	0	0.057659	0	0	18.6
470.67	253.41	0	1.0319	0	0.17453	15.397	25.748	0	0.057659	0	0	18.7
472.2	255.99	0	1.0376	0	0.17453	15.248	25.836	0	0.057659	0	0	18.8
473.72	258.58	0	1.0434	0	0.17453	15.099	25.923	0	0.057659	0	0	18.9
475.22	261.17	0	1.0492	0	0.17453	14.949	26.01	0	0.057659	0	0	19
476.71	263.78	0	1.0549	0	0.17453	14.799	26.096	0	0.057659	0	0	19.1
478.18	266.39	0	1.0607	0	0.17453	14.648	26.181	0	0.057659	0	0	19.2
479.64	269.02	0	1.0665	0	0.17453	14.497	26.265	0	0.057659	0	0	19.3
481.08	271.65	0	1.0722	0	0.17453	14.345	26.348	0	0.057659	0	0	19.4
482.51	274.29	0	1.078	0	0.17453	14.193	26.43	0	0.057659	0	0	19.5
483.92	276.93	0	1.0838	0	0.17453	14.04	26.511	0	0.057659	0	0	19.6
485.32	279.59	0	1.0895	0	0.17453	13.887	26.592	0	0.057659	0	0	19.7
486.7	282.25	0	1.0953	0	0.17453	13.734	26.672	0	0.057659	0	0	19.8
488.06	284.92	0	1.1011	0	0.17453	13.58	26.75	0	0.057659	0	0	19.9
489.41	287.6	0	1.1068	0	0.17453	13.425	26.828	0	0.057659	0	0	20
490.75	290.29	0	1.1126	0	0.17453	13.27	26.905	0	0.057659	0	0	20.1
492.07	292.98	0	1.1183	0	0.17453	13.115	26.981	0	0.057659	0	0	20.2
493.37	295.68	0	1.1241	0	0.17453	12.959	27.056	0	0.057659	0	0	20.3
494.66	298.39	0	1.1299	0	0.17453	12.803	27.131	0	0.057659	0	0	20.4
495.93	301.11	0	1.1356	0	0.17453	12.646	27.204	0	0.057659	0	0	20.5
497.19	303.83	0	1.1414	0	0.17453	12.489	27.277	0	0.057659	0	0	20.6
498.43	306.56	0	1.1472	0	0.17453	12.332	27.348	0	0.057659	0	0	20.7
499.66	309.3	0	1.1529	0	0.17453	12.174	27.419	0	0.057659	0	0	20.8
500.87	312.05	0	1.1587	0	0.17453	12.016	27.488	0	0.057659	0	0	20.9
502.06	314.8	0	1.1645	0	0.17453	11.857	27.557	0	0.057659	0	0	21
503.24	317.56	0	1.1702	0	0.17453	11.698	27.625	0	0.057659	0	0	21.1
504.4	320.33	0	1.176	0	0.17453	11.538	27.692	0	0.057659	0	0	21.2
505.54	323.1	0	1.1818	0	0.17453	11.378	27.758	0	0.057659	0	0	21.3
506.67	325.88	0	1.1875	0	0.17453	11.218	27.823	0	0.057659	0	0	21.4
507.79	328.66	0	1.1933	0	0.17453	11.058	27.888	0	0.057659	0	0	21.5
508.89	331.46	0	1.1991	0	0.17453	10.897	27.951	0	0.057659	0	0	21.6
509.97	334.25	0	1.2048	0	0.17453	10.735	28.013	0	0.057659	0	0	21.7
511.03	337.06	0	1.2106	0	0.17453	10.574	28.075	0	0.057659	0	0	21.8
512.08	339.87	0	1.2164	0	0.17453	10.412	28.135	0	0.057659	0	0	21.9
513.12	342.68	0	1.2221	0	0.17453	10.249	28.195	0	0.057659	0	0	22
514.13	345.51	0	1.2279	0	0.17453	10.086	28.253	0	0.057659	0	0	22.1
515.13	348.34	0	1.2337	0	0.17453	9.9233	28.311	0	0.057659	0	0	22.2
516.12	351.17	0	1.2394	0	0.17453	9.7599	28.368	0	0.057659	0	0	22.3
517.08	354.01	0	1.2452	0	0.17453	9.5962	28.424	0	0.057659	0	0	22.4
518.04	356.85	0	1.251	0	0.17453	9.4322	28.478	0	0.057659	0	0	22.5
518.97	359.7	0	1.2567	0	0.17453	9.2678	28.532	0	0.057659	0	0	22.6
519.89	362.56	0	1.2625	0	0.17453	9.1031	28.585	0	0.057659	0	0	22.7
520.79	365.42	0	1.2683	0	0.17453	8.9382	28.637	0	0.057659	0	0	22.8
521.68	368.29	0	1.274	0	0.17453	8.7729	28.688	0	0.057659	0	0	22.9
522.55	371.16	0	1.2798	0	0.17453	8.6073	28.739	0	0.057659	0	0	23
523.4	374.04	0	1.2856	0	0.17453	8.4415	28.788	0	0.057659	0	0	23.1
524.23	376.92	0	1.2913	0	0.17453	8.2754	28.836	0	0.057659	0	0	23.2
525.05	379.8	0	1.2971	0	0.17453	8.109	28.883	0	0.057659	0	0	23.3
525.86	382.69	0	1.3029	0	0.17453	7.9423	28.929	0	0.057659	0	0	23.4
526.64	385.59	0	1.3086	0	0.17453	7.7754	28.975	0	0.057659	0	0	23.5
527.41	388.49	0	1.3144	0	0.17453	7.6082	29.019	0	0.057659	0	0	23.6
528.16	391.39	0	1.3202	0	0.17453	7.4407	29.062	0	0.057659	0	0	23.7
528.9	394.3	0	1.3259	0	0.17453	7.273	29.105	0	0.057659	0	0	23.8
529.62	397.21	0	1.3317	0	0.17453	7.1051	29.146	0	0.057659	0	0	23.9
530.32	400.13	0	1.3375	0	0.17453	6.9369	29.187	0	0.057659	0	0	24
531.01	403.05	0	1.3432	0	0.17453	6.7685	29.226	0	0.057659	0	0	24.1
531.67	405.98	0	1.349	0	0.17453	6.5999	29.265	0	0.057659	0	0	24.2
532.33	408.9	0	1.3548	0	0.17453	6.4311	29.302	0	0.057659	0	0	24.3
532.96	411.84	0	1.3605	0	0.17453	6.262	29.339	0	0.057659	0	0	24.4
533.58	414.77	0	1.3663	0	0.17453	6.0927	29.375	0	0.057659	0	0	24.5
534.18	417.71	0	1.372	0	0.17453	5.9232	29.409	0	0.057659	0	0	24.6
534.76	420.65	0	1.3778	0	0.17453	5.7536	29.443	0	0.057659	0	0	24.7
535.33	423.6	0	1.3836	0	0.17453	5.5837	29.476	0	0.057659	0	0	24.8
535.88	426.55	0	1.3893	0	0.17453	5.4137	29.507	0	0.057659	0	0	24.9
536.41	429.5	0	1.3951	0	0.17453	5.2435	29.538	0	0.057659	0	0	25
536.93	432.46	0	1.4009	0	0.17453	5.0731	29.568	0	0.057659	0	0	25.1
537.43	435.41	0	1.4066	0	0.17453	4.9025	29.597	0	0.057659	0	0	25.2
537.91	438.38	0	1.4124	0	0.17453	4.7318	29.624	0	0.057659	0	0	25.3
538.37	441.34	0	1.4182	0	0.17453	4.5609	29.651	0	0.057659	0	0	25.4
538.82	444.31	0	1.4239	0	0.17453	4.3898	29.677	0	0.057659	0	0	25.5
539.25	447.28	0	1.4297	0	0.17453	4.2186	29.702	0	0.057659	0	0	25.6
539.67	450.25	0	1.4355	0	0.17453	4.0473	29.726	0	0.057659	0	0	25.7
540.06	453.22	0	1.4412	0	0.17453	3.8759	29.748	0	0.057659	0	0	25.8
540.44	456.2	0	1.447	0	0.17453	3.7043	29.77	0	0.057659	0	0	25.9
540.8	459.17	0	1.4528	0	0.17453	3.5325	29.791	0	0.057659	0	0	26
541.15	462.15	0	1.4585	0	0.17453	3.3607	29.811	0	0.057659	0	0	26.1
541.47	465.14	0	1.4643	0	0.17453	3.1888	29.83	0	0.057659	0	0	26.2
541.78	468.12	0	1.4701	0	0.17453	3.0167	29.848	0	0.057659	0	0	26.3
542.08	471.11	0	1.4758	0	0.17453	2.8446	29.865	0	0.057659	0	0	26.4
542.35	474.09	0	1.4816	0	0.17453	2.6723	29.881	0	0.057659	0	0	26.5
542.61	477.08	0	1.4874	0	0.17453	2.5	29.895	0	0.057659	0	0	26.6
542.85	480.07	0	1.4931	0	0.17453	2.3276	29.909	0	0.057659	0	0	26.7
543.08	483.06	0	1.4989	0	0.17453	2.1551	29.922	0	0.057659	0	0	26.8
543.28	486.06	0	1.5047	0	0.17453	1.9825	29.934	0	0.057659	0	0	26.9
543.47	489.05	0	1.5104	0	0.17453	1.8099	29.945	0	0.057659	0	0	27
543.65	492.05	0	1.5162	0	0.17453	1.6372	29.955	0	0.057659	0	0	27.1
543.8	495.04	0	1.522	0	0.17453	1.4645	29.964	0	0.057659	0	0	27.2
543.94	498.04	0	1.5277	0	0.17453	1.2917	29.972	0	0.057659	0	0	27.3
544.06	501.04	0	1.5335	0	0.17453	1.1188	29.979	0	0.057659	0	0	27.4
544.16	504.03	0	1.5393	0	0.17453	0.94597	29.985	0	0.057659	0	0	27.5
544.25	507.03	0	1.545	0	0.17453	0.77307	29.99	0	0.057659	0	0	27.6
544.32	510.03	0	1.5508	0	0.17453	0.60014	29.994	0	0.057659	0	0	27.7
544.37	513.03	0	1.5566	0	0.17453	0.42719	29.997	0	0.057659	0	0	27.8
544.4	516.03	0	1.5623	0	0.17453	0.25422	29.999	0	0.057659	0	0	27.9
544.42	519.03	0	1.5681	0	0.17453	0.081248	30	0	0.057659	0	0	28
544.42	522.03	0	1.5739	0	0.17453	-0.091727	30	0	0.057659	0	0	28.1
544.4	525.03	0	1.5796	0	0.17453	-0.2647	29.999	0	0.057659	0	0	28.2
544.37	528.03	0	1.5854	0	0.17453	-0.43766	29.997	0	0.057659	0	0	28.3
544.31	531.03	0	1.5912	0	0.17453	-0.61061	29.994	0	0.057659	0	0	28.4
544.24	534.03	0	1.5969	0	0.17453	-0.78354	29.99	0	0.057659	0	0	28.5
544.16	537.03	0	1.6027	0	0.17453	-0.95644	29.985	0	0.057659	0	0	28.6
544.05	540.03	0	1.6084	0	0.17453	-1.1293	29.979	0	0.057659	0	0	28.7
543.93	543.02	0	1.6142	0	0.17453	-1.3021	29.972	0	0.057659	0	0	28.8
543.79	546.02	0	1.62	0	0.17453	-1.4749	29.964	0	0.057659	0	0	28.9
543.64	549.02	0	1.6257	0	0.17453	-1.6477	29.955	0	0.057659	0	0	29
543.46	552.01	0	1.6315	0	0.17453	-1.8204	29.945	0	0.057659	0	0	29.1
543.27	555.01	0	1.6373	0	0.17453	-1.993	29.934	0	0.057659	0	0	29.2
543.06	558	0	1.643	0	0.17453	-2.1656	29.922	0	0.057659	0	0	29.3
542.84	560.99	0	1.6488	0	0.17453	-2.338	29.909	0	0.057659	0	0	29.4
542.6	563.98	0	1.6546	0	0.17453	-2.5104	29.895	0	0.057659	0	0	29.5
542.34	566.97	0	1.6603	0	0.17453	-2.6828	29.88	0	0.057659	0	0	29.6
542.06	569.96	0	1.6661	0	0.17453	-2.855	29.864	0	0.057659	0	0	29.7
541.77	572.94	0	1.6719	0	0.17453	-3.0272	29.847	0	0.057659	0	0	29.8
541.45	575.93	0	1.6776	0	0.17453	-3.1992	29.829	0	0.057659	0	0	29.9
541.13	578.91	0	1.6834	0	0.17453	-3.3711	29.81	0	0.057659	0	0	30
540.78	581.89	0	1.6892	0	0.17453	-3.543	29.79	0	0.057659	0	0	30.1
540.42	584.87	0	1.6949	0	0.17453	-3.7147	29.769	0	0.057659	0	0	30.2
540.04	587.84	0	1.7007	0	0.17453	-3.8862	29.747	0	0.057659	0	0	30.3
539.64	590.82	0	1.7065	0	0.17453	-4.0577	29.724	0	0.057659	0	0	30.4
539.23	593.79	0	1.7122	0	0.17453	-4.229	29.7	0	0.057659	0	0	30.5
538.79	596.76	0	1.718	0	0.17453	-4.4002	29.675	0	0.057659	0	0	30.6
538.35	599.72	0	1.7238	0	0.17453	-4.5712	29.65	0	0.057659	0	0	30.7
537.88	602.69	0	1.7295	0	0.17453	-4.7421	29.623	0	0.057659	0	0	30.8
537.4	605.65	0	1.7353	0	0.17453	-4.9128	29.595	0	0.057659	0	0	30.9
536.9	608.6	0	1.7411	0	0.17453	-5.0834	29.566	0	0.057659	0	0	31
536.38	611.56	0	1.7468	0	0.17453	-5.2538	29.536	0	0.057659	0	0	31.1
535.85	614.51	0	1.7526	0	0.17453	-5.424	29.505	0	0.057659	0	0	31.2
535.3	617.46	0	1.7584	0	0.17453	-5.594	29.474	0	0.057659	0	0	31.3
534.73	620.41	0	1.7641	0	0.17453	-5.7639	29.441	0	0.057659	0	0	31.4
534.14	623.35	0	1.7699	0	0.17453	-5.9335	29.407	0	0.057659	0	0	31.5
533.54	626.29	0	1.7757	0	0.17453	-6.103	29.372	0	0.057659	0	0	31.6
532.92	629.22	0	1.7814	0	0.17453	-6.2722	29.337	0	0.057659	0	0	31.7
532.29	632.16	0	1.7872	0	0.17453	-6.4413	29.3	0	0.057659	0	0	31.8
531.63	635.08	0	1.793	0	0.17453	-6.6101	29.263	0	0.057659	0	0	31.9
530.97	638.01	0	1.7987	0	0.17453	-6.7787	29.224	0	0.057659	0	0	32
530.28	640.93	0	1.8045	0	0.17453	-6.9471	29.184	0	0.057659	0	0	32.1
529.58	643.84	0	1.8103	0	0.17453	-7.1153	29.144	0	0.057659	0	0	32.2
528.86	646.76	0	1.816	0	0.17453	-7.2832	29.102	0	0.057659	0	0	32.3
528.12	649.66	0	1.8218	0	0.17453	-7.4509	29.06	0	0.057659	0	0	32.4
527.37	652.57	0	1.8276	0	0.17453	-7.6183	29.016	0	0.057659	0	0	32.5
526.6	655.47	0	1.8333	0	0.17453	-7.7855	28.972	0	0.057659	0	0	32.6
525.81	658.36	0	1.8391	0	0.17453	-7.9524	28.927	0	0.057659	0	0	32.7
525.01	661.25	0	1.8449	0	0.17453	-8.1191	28.88	0	0.057659	0	0	32.8
524.18	664.14	0	1.8506	0	0.17453	-8.2854	28.833	0	0.057659	0	0	32.9
523.35	667.02	0	1.8564	0	0.17453	-8.4516	28.785	0	0.057659	0	0	33
522.49	669.9	0	1.8621	0	0.17453	-8.6174	28.736	0	0.057659	0	0	33.1
521.62	672.77	0	1.8679	0	0.17453	-8.7829	28.685	0	0.057659	0	0	33.2
520.74	675.63	0	1.8737	0	0.17453	-8.9482	28.634	0	0.057659	0	0	33.3
519.83	678.49	0	1.8794	0	0.17453	-9.1131	28.582	0	0.057659	0	0	33.4
518.92	681.35	0	1.8852	0	0.17453	-9.2778	28.529	0	0.057659	0	0	33.5
517.98	684.2	0	1.891	0	0.17453	-9.4421	28.475	0	0.057659	0	0	33.6
517.03	687.04	0	1.8967	0	0.17453	-9.6061	28.42	0	0.057659	0	0	33.7
516.06	689.88	0	1.9025	0	0.17453	-9.7699	28.364	0	0.057659	0	0	33.8
515.07	692.72	0	1.9083	0	0.17453	-9.9332	28.308	0	0.057659	0	0	33.9
514.07	695.55	0	1.914	0	0.17453	-10.096	28.25	0	0.057659	0	0	34
513.05	698.37	0	1.9198	0	0.17453	-10.259	28.191	0	0.057659	0	0	34.1
512.02	701.18	0	1.9256	0	0.17453	-10.421	28.132	0	0.057659	0	0	34.2
510.97	703.99	0	1.9313	0	0.17453	-10.583	28.071	0	0.057659	0	0	34.3
509.9	706.8	0	1.9371	0	0.17453	-10.745	28.01	0	0.057659	0	0	34.4
508.82	709.6	0	1.9429	0	0.17453	-10.906	27.947	0	0.057659	0	0	34.5
507.72	712.39	0	1.9486	0	0.17453	-11.067	27.884	0	0.057659	0	0	34.6
506.61	715.17	0	1.9544	0	0.17453	-11.228	27.819	0	0.057659	0	0	34.7
505.48	717.95	0	1.9602	0	0.17453	-11.388	27.754	0	0.057659	0	0	34.8
504.33	720.72	0	1.9659	0	0.17453	-11.548	27.688	0	0.057659	0	0	34.9
503.17	723.49	0	1.9717	0	0.17453	-11.707	27.621	0	0.057659	0	0	35
501.99	726.25	0	1.9775	0	0.17453	-11.867	27.553	0	0.057659	0	0	35.1
500.79	729	0	1.9832	0	0.17453	-12.025	27.484	0	0.057659	0	0	35.2
499.58	731.74	0	1.989	0	0.17453	-12.183	27.414	0	0.057659	0	0	35.3
498.36	734.48	0	1.9948	0	0.17453	-12.341	27.344	0	0.057659	0	0	35.4
497.11	737.21	0	2.0005	0	0.17453	-12.499	27.272	0	0.057659	0	0	35.5
495.86	739.94	0	2.0063	0	0.17453	-12.656	27.2	0	0.057659	0	0	35.6
494.58	742.65	0	2.0121	0	0.17453	-12.812	27.126	0	0.057659	0	0	35.7
493.29	745.36	0	2.0178	0	0.17453	-12.969	27.052	0	0.057659	0	0	35.8
491.99	748.06	0	2.0236	0	0.17453	-13.124	26.977	0	0.057659	0	0	35.9
490.67	750.76	0	2.0294	0	0.17453	-13.28	26.901	0	0.057659	0	0	36
489.33	753.44	0	2.0351	0	0.17453	-13.435	26.824	0	0.057659	0	0	36.1
487.98	756.12	0	2.0409	0	0.17453	-13.589	26.746	0	0.057659	0	0	36.2
486.62	758.79	0	2.0467	0	0.17453	-13.743	26.667	0	0.057659	0	0	36.3
485.23	761.46	0	2.0524	0	0.17453	-13.897	26.587	0	0.057659	0	0	36.4
483.84	764.11	0	2.0582	0	0.17453	-14.05	26.507	0	0.057659	0	0	36.5
482.42	766.76	0	2.064	0	0.17453	-14.202	26.425	0	0.057659	0	0	36.6
481	769.4	0	2.0697	0	0.17453	-14.354	26.343	0	0.057659	0	0	36.7
479.55	772.03	0	2.0755	0	0.17453	-14.506	26.26	0	0.057659	0	0	36.8
478.09	774.65	0	2.0813	0	0.17453	-14.657	26.176	0	0.057659	0	0	36.9
476.62	777.26	0	2.087	0	0.17453	-14.808	26.091	0	0.057659	0	0	37
475.13	779.87	0	2.0928	0	0.17453	-14.958	26.005	0	0.057659	0	0	37.1
473.63	782.46	0	2.0986	0	0.17453	-15.108	25.918	0	0.057659	0	0	37.2
472.11	785.05	0	2.1043	0	0.17453	-15.257	25.831	0	0.057659	0	0	37.3
470.58	787.63	0	2.1101	0	0.17453	-15.406	25.742	0	0.057659	0	0	37.4
469.03	790.2	0	2.1158	0	0.17453	-15.554	25.653	0	0.057659	0	0	37.5
467.47	792.76	0	2.1216	0	0.17453	-15.701	25.563	0	0.057659	0	0	37.6
465.89	795.31	0	2.1274	0	0.17453	-15.849	25.472	0	0.057659	0	0	37.7
464.3	797.85	0	2.1331	0	0.17453	-15.995	25.38	0	0.057659	0	0	37.8
462.69	800.39	0	2.1389	0	0.17453	-16.141	25.287	0	0.057659	0	0	37.9
461.07	802.91	0	2.1447	0	0.17453	-16.287	25.194	0	0.057659	0	0	38
459.43	805.42	0	2.1504	0	0.17453	-16.432	25.1	0	0.057659	0	0	38.1
457.78	807.93	0	2.1562	0	0.17453	-16.576	25.004	0	0.057659	0	0	38.2
456.12	810.43	0	2.162	0	0.17453	-16.72	24.908	0	0.057659	0	0	38.3
454.44	812.91	0	2.1677	0	0.17453	-16.863	24.812	0	0.057659	0	0	38.4
452.75	815.39	0	2.1735	0	0.17453	-17.006	24.714	0	0.057659	0	0	38.5
451.04	817.85	0	2.1793	0	0.17453	-17.148	24.615	0	0.057659	0	0	38.6
449.32	820.31	0	2.185	0	0.17453	-17.29	24.516	0	0.057659	0	0	38.7
447.58	822.76	0	2.1908	0	0.17453	-17.431	24.416	0	0.057659	0	0	38.8
445.83	825.19	0	2.1966	0	0.17453	-17.572	24.315	0	0.057659	0	0	38.9
444.07	827.62	0	2.2023	0	0.17453	-17.712	24.213	0	0.057659	0	0	39
442.29	830.04	0	2.2081	0	0.17453	-17.851	24.111	0	0.057659	0	0	39.1
440.5	832.44	0	2.2139	0	0.17453	-17.99	24.008	0	0.057659	0	0	39.2
438.69	834.84	0	2.2196	0	0.17453	-18.128	23.903	0	0.057659	0	0	39.3
436.87	837.22	0	2.2254	0	0.17453	-18.265	23.799	0	0.057659	0	0	39.4
435.04	839.6	0	2.2312	0	0.17453	-18.402	23.693	0	0.057659	0	0	39.5
433.19	841.96	0	2.2369	0	0.17453	-18.538	23.586	0	0.057659	0	0	39.6
431.33	844.32	0	2.2427	0	0.17453	-18.674	23.479	0	0.057659	0	0	39.7
429.45	846.66	0	2.2485	0	0.17453	-18.809	23.371	0	0.057659	0	0	39.8
427.57	848.99	0	2.2542	0	0.17453	-18.944	23.262	0	0.057659	0	0	39.9
425.67	851.31	0	2.26	0	0.17453	-19.077	23.153	0	0.057659	0	0	40
423.75	853.62	0	2.2658	0	0.17453	-19.211	23.042	0	0.057659	0	0	40.1
421.82	855.92	0	2.2715	0	0.17453	-19.343	22.931	0	0.057659	0	0	40.2
419.88	858.21	0	2.2773	0	0.17453	-19.475	22.819	0	0.057659	0	0	40.3
417.93	860.48	0	2.2831	0	0.17453	-19.606	22.706	0	0.057659	0	0	40.4
415.96	862.75	0	2.2888	0	0.17453	-19.737	22.593	0	0.057659	0	0	40.5
413.98	865	0	2.2946	0	0.17453	-19.867	22.479	0	0.057659	0	0	40.6
411.99	867.24	0	2.3004	0	0.17453	-19.996	22.364	0	0.057659	0	0	40.7
409.98	869.47	0	2.3061	0	0.17453	-20.125	22.248	0	0.057659	0	0	40.8
407.96	871.69	0	2.3119	0	0.17453	-20.253	22.132	0	0.057659	0	0	40.9
405.93	873.9	0	2.3177	0	0.17453	-20.38	22.015	0	0.057659	0	0	41
403.89	876.1	0	2.3234	0	0.17453	-20.507	21.897	0	0.057659	0	0	41.1
401.83	878.28	0	2.3292	0	0.17453	-20.632	21.778	0	0.057659	0	0	41.2
399.76	880.45	0	2.335	0	0.17453	-20.758	21.659	0	0.057659	0	0	41.3
397.68	882.61	0	2.3407	0	0.17453	-20.882	21.539	0	0.057659	0	0	41.4
395.58	884.76	0	2.3465	0	0.17453	-21.006	21.418	0	0.057659	0	0	41.5
393.48	886.89	0	2.3522	0	0.17453	-21.129	21.297	0	0.057659	0	0	41.6
391.36	889.02	0	2.358	0	0.17453	-21.252	21.174	0	0.057659	0	0	41.7
389.23	891.13	0	2.3638	0	0.17453	-21.373	21.052	0	0.057659	0	0	41.8
387.08	893.23	0	2.3695	0	0.17453	-21.494	20.928	0	0.057659	0	0	41.9
384.93	895.32	0	2.3753	0	0.17453	-21.615	20.804	0	0.057659	0	0	42
382.76	897.39	0	2.3811	0	0.17453	-21.734	20.679	0	0.057659	0	0	42.1
380.58	899.45	0	2.3868	0	0.17453	-21.853	20.553	0	0.057659	0	0	42.2
378.39	901.5	0	2.3926	0	0.17453	-21.971	20.427	0	0.057659	0	0	42.3
376.19	903.54	0	2.3984	0	0.17453	-22.089	20.3	0	0.057659	0	0	42.4
373.97	905.56	0	2.4041	0	0.17453	-22.205	20.172	0	0.057659	0	0	42.5
371.75	907.57	0	2.4099	0	0.17453	-22.321	20.044	0	0.057659	0	0	42.6
369.51	909.57	0	2.4157	0	0.17453	-22.437	19.915	0	0.057659	0	0	42.7
367.26	911.55	0	2.4214	0	0.17453	-22.551	19.785	0	0.057659	0	0	42.8
365	913.53	0	2.4272	0	0.17453	-22.665	19.655	0	0.057659	0	0	42.9
362.73	915.48	0	2.433	0	0.17453	-22.778	19.524	0	0.057659	0	0	43
360.44	917.43	0	2.4387	0	0.17453	-22.89	19.392	0	0.057659	0	0	43.1
358.15	919.36	0	2.4445	0	0.17453	-23.001	19.26	0	0.057659	0	0	43.2
355.84	921.28	0	2.4503	0	0.17453	-23.112	19.127	0	0.057659	0	0	43.3
353.53	923.19	0	2.456	0	0.17453	-23.222	18.993	0	0.057659	0	0	43.4
351.2	925.08	0	2.4618	0	0.17453	-23.331	18.859	0	0.057659	0	0	43.5
348.86	926.96	0	2.4676	0	0.17453	-23.439	18.724	0	0.057659	0	0	43.6
346.51	928.83	0	2.4733	0	0.17453	-23.547	18.589	0	0.057659	0	0	43.7
344.15	930.68	0	2.4791	0	0.17453	-23.654	18.452	0	0.057659	0	0	43.8
341.78	932.52	0	2.4849	0	0.17453	-23.76	18.316	0	0.057659	0	0	43.9
339.4	934.34	0	2.4906	0	0.17453	-23.865	18.178	0	0.057659	0	0	44
337.01	936.15	0	2.4964	0	0.17453	-23.969	18.041	0	0.057659	0	0	44.1
334.6	937.95	0	2.5022	0	0.17453	-24.073	17.902	0	0.057659	0	0	44.2
332.19	939.73	0	2.5079	0	0.17453	-24.176	17.763	0	0.057659	0	0	44.3
329.77	941.5	0	2.5137	0	0.17453	-24.278	17.623	0	0.057659	0	0	44.4
327.34	943.26	0	2.5195	0	0.17453	-24.379	17.483	0	0.057659	0	0	44.5
324.89	945	0	2.5252	0	0.17453	-24.479	17.342	0	0.057659	0	0	44.6
322.44	946.73	0	2.531	0	0.17453	-24.579	17.201	0	0.057659	0	0	44.7
319.98	948.44	0	2.5368	0	0.17453	-24.678	17.059	0	0.057659	0	0	44.8
317.5	950.14	0	2.5425	0	0.17453	-24.776	16.916	0	0.057659	0	0	44.9
315.02	951.82	0	2.5483	0	0.17453	-24.873	16.773	0	0.057659	0	0	45
312.53	953.49	0	2.5541	0	0.17453	-24.969	16.629	0	0.057659	0	0	45.1
310.03	955.15	0	2.5598	0	0.17453	-25.065	16.485	0	0.057659	0	0	45.2
307.52	956.79	0	2.5656	0	0.17453	-25.159	16.34	0	0.057659	0	0	45.3
305	958.42	0	2.5714	0	0.17453	-25.253	16.195	0	0.057659	0	0	45.4
302.47	960.03	0	2.5771	0	0.17453	-25.346	16.049	0	0.057659	0	0	45.5
299.93	961.63	0	2.5829	0	0.17453	-25.438	15.903	0	0.057659	0	0	45.6
297.38	963.21	0	2.5887	0	0.17453	-25.529	15.756	0	0.057659	0	0	45.7
294.82	964.78	0	2.5944	0	0.17453	-25.62	15.608	0	0.057659	0	0	45.8
292.26	966.33	0	2.6002	0	0.17453	-25.709	15.46	0	0.057659	0	0	45.9
289.68	967.87	0	2.6059	0	0.17453	-25.798	15.312	0	0.057659	0	0	46
287.1	969.39	0	2.6117	0	0.17453	-25.886	15.163	0	0.057659	0	0	46.1
284.5	970.9	0	2.6175	0	0.17453	-25.973	15.013	0	0.057659	0	0	46.2
281.9	972.4	0	2.6232	0	0.17453	-26.059	14.863	0	0.057659	0	0	46.3
279.29	973.87	0	2.629	0	0.17453	-26.144	14.713	0	0.057659	0	0	46.4
276.67	975.34	0	2.6348	0	0.17453	-26.229	14.562	0	0.057659	0	0	46.5
274.05	976.79	0	2.6405	0	0.17453	-26.312	14.41	0	0.057659	0	0	46.6
271.41	978.22	0	2.6463	0	0.17453	-26.395	14.258	0	0.057659	0	0	46.7
268.77	979.64	0	2.6521	0	0.17453	-26.477	14.106	0	0.057659	0	0	46.8
266.11	981.04	0	2.6578	0	0.17453	-26.558	13.953	0	0.057659	0	0	46.9
263.45	982.43	0	2.6636	0	0.17453	-26.638	13.8	0	0.057659	0	0	47
260.79	983.8	0	2.6694	0	0.17453	-26.717	13.646	0	0.057659	0	0	47.1
258.11	985.16	0	2.6751	0	0.17453	-26.795	13.492	0	0.057659	0	0	47.2
255.43	986.5	0	2.6809	0	0.17453	-26.872	13.337	0	0.057659	0	0	47.3
252.74	987.82	0	2.6867	0	0.17453	-26.949	13.182	0	0.057659	0	0	47.4
250.04	989.14	0	2.6924	0	0.17453	-27.024	13.026	0	0.057659	0	0	47.5
247.33	990.43	0	2.6982	0	0.17453	-27.099	12.87	0	0.057659	0	0	47.6
244.62	991.71	0	2.704	0	0.17453	-27.173	12.714	0	0.057659	0	0	47.7
241.9	992.97	0	2.7097	0	0.17453	-27.246	12.557	0	0.057659	0	0	47.8
239.17	994.22	0	2.7155	0	0.17453	-27.317	12.399	0	0.057659	0	0	47.9
236.43	995.45	0	2.7213	0	0.17453	-27.389	12.242	0	0.057659	0	0	48
233.69	996.67	0	2.727	0	0.17453	-27.459	12.084	0	0.057659	0	0	48.1
230.94	997.87	0	2.7328	0	0.17453	-27.528	11.925	0	0.057659	0	0	48.2
228.19	999.05	0	2.7386	0	0.17453	-27.596	11.766	0	0.057659	0	0	48.3
225.42	1000.2	0	2.7443	0	0.17453	-27.664	11.607	0	0.057659	0	0	48.4
222.65	1001.4	0	2.7501	0	0.17453	-27.73	11.447	0	0.057659	0	0	48.5
219.88	1002.5	0	2.7559	0	0.17453	-27.796	11.287	0	0.057659	0	0	48.6
217.09	1003.6	0	2.7616	0	0.17453	-27.86	11.127	0	0.057659	0	0	48.7
214.3	1004.7	0	2.7674	0	0.17453	-27.924	10.966	0	0.057659	0	0	48.8
211.51	1005.8	0	2.7732	0	0.17453	-27.987	10.805	0	0.057659	0	0	48.9
208.71	1006.9	0	2.7789	0	0.17453	-28.048	10.643	0	0.057659	0	0	49
205.9	1008	0	2.7847	0	0.17453	-28.109	10.481	0	0.057659	0	0	49.1
203.09	1009	0	2.7905	0	0.17453	-28.169	10.319	0	0.057659	0	0	49.2
200.27	1010	0	2.7962	0	0.17453	-28.228	10.156	0	0.057659	0	0	49.3
197.44	1011	0	2.802	0	0.17453	-28.286	9.9933	0	0.057659	0	0	49.4
194.61	1012	0	2.8078	0	0.17453	-28.344	9.8301	0	0.057659	0	0	49.5
191.77	1013	0	2.8135	0	0.17453	-28.4	9.6665	0	0.057659	0	0	49.6
188.93	1014	0	2.8193	0	0.17453	-28.455	9.5026	0	0.057659	0	0	49.7
186.08	1014.9	0	2.8251	0	0.17453	-28.509	9.3384	0	0.057659	0	0	49.8
183.23	1015.8	0	2.8308	0	0.17453	-28.563	9.1738	0	0.057659	0	0	49.9
180.37	1016.7	0	2.8366	0	0.17453	-28.615	9.009	0	0.057659	0	0	50
177.5	1017.6	0	2.8424	0	0.17453	-28.667	8.8438	0	0.057659	0	0	50.1
174.63	1018.5	0	2.8481	0	0.17453	-28.717	8.6784	0	0.057659	0	0	50.2
171.76	1019.4	0	2.8539	0	0.17453	-28.767	8.5127	0	0.057659	0	0	50.3
168.88	1020.2	0	2.8596	0	0.17453	-28.815	8.3467	0	0.057659	0	0	50.4
166	1021	0	2.8654	0	0.17453	-28.863	8.1804	0	0.057659	0	0	50.5
163.11	1021.8	0	2.8712	0	0.17453	-28.91	8.0138	0	0.057659	0	0	50.6
160.22	1022.6	0	2.8769	0	0.17453	-28.955	7.847	0	0.057659	0	0	50.7
157.32	1023.4	0	2.8827	0	0.17453	-29	7.6799	0	0.057659	0	0	50.8
154.42	1024.2	0	2.8885	0	0.17453	-29.044	7.5126	0	0.057659	0	0	50.9
151.51	1024.9	0	2.8942	0	0.17453	-29.087	7.345	0	0.057659	0	0	51
148.6	1025.6	0	2.9	0	0.17453	-29.129	7.1772	0	0.057659	0	0	51.1
145.68	1026.3	0	2.9058	0	0.17453	-29.17	7.0091	0	0.057659	0	0	51.2
142.76	1027	0	2.9115	0	0.17453	-29.209	6.8408	0	0.057659	0	0	51.3
139.84	1027.7	0	2.9173	0	0.17453	-29.248	6.6723	0	0.057659	0	0	51.4
136.91	1028.4	0	2.9231	0	0.17453	-29.286	6.5035	0	0.057659	0	0	51.5
133.98	1029	0	2.9288	0	0.17453	-29.323	6.3345	0	0.057659	0	0	51.6
131.05	1029.6	0	2.9346	0	0.17453	-29.359	6.1654	0	0.057659	0	0	51.7
128.11	1030.2	0	2.9404	0	0.17453	-29.395	5.996	0	0.057659	0	0	51.8
125.17	1030.8	0	2.9461	0	0.17453	-29.429	5.8264	0	0.057659	0	0	51.9
122.23	1031.4	0	2.9519	0	0.17453	-29.462	5.6566	0	0.057659	0	0	52
119.28	1032	0	2.9577	0	0.17453	-29.494	5.4867	0	0.057659	0	0	52.1
116.33	1032.5	0	2.9634	0	0.17453	-29.525	5.3165	0	0.057659	0	0	52.2
113.37	1033	0	2.9692	0	0.17453	-29.555	5.1462	0	0.057659	0	0	52.3
110.42	1033.5	0	2.975	0	0.17453	-29.584	4.9757	0	0.057659	0	0	52.4
107.46	1034	0	2.9807	0	0.17453	-29.613	4.805	0	0.057659	0	0	52.5
104.49	1034.5	0	2.9865	0	0.17453	-29.64	4.6342	0	0.057659	0	0	52.6
101.53	1035	0	2.9923	0	0.17453	-29.666	4.4632	0	0.057659	0	0	52.7
98.561	1035.4	0	2.998	0	0.17453	-29.691	4.2921	0	0.057659	0	0	52.8
95.59	1035.8	0	3.0038	0	0.17453	-29.715	4.1208	0	0.057659	0	0	52.9
92.618	1036.2	0	3.0096	0	0.17453	-29.739	3.9494	0	0.057659	0	0	53
89.643	1036.6	0	3.0153	0	0.17453	-29.761	3.7779	0	0.057659	0	0	53.1
86.665	1037	0	3.0211	0	0.17453	-29.782	3.6062	0	0.057659	0	0	53.2
83.686	1037.3	0	3.0269	0	0.17453	-29.803	3.4345	0	0.057659	0	0	53.3
80.705	1037.7	0	3.0326	0	0.17453	-29.822	3.2626	0	0.057659	0	0	53.4
77.722	1038	0	3.0384	0	0.17453	-29.84	3.0906	0	0.057659	0	0	53.5
74.737	1038.3	0	3.0442	0	0.17453	-29.858	2.9184	0	0.057659	0	0	53.6
71.75	1038.6	0	3.0499	0	0.17453	-29.874	2.7462	0	0.057659	0	0	53.7
68.762	1038.8	0	3.0557	0	0.17453	-29.889	2.574	0	0.057659	0	0	53.8
65.772	1039.1	0	3.0615	0	0.17453	-29.904	2.4016	0	0.057659	0	0	53.9
62.781	1039.3	0	3.0672	0	0.17453	-29.917	2.2291	0	0.057659	0	-5.7089e-07	54
59.789	1039.5	0	3.073	0	0.17453	-29.929	2.0566	0	0.057653	0	-0.00062139	54.1
56.795	1039.7	0	3.0788	0	0.17441	-29.941	1.8841	0	0.057587	0	-0.0038972	54.2
53.801	1039.9	0	3.0845	0	0.17375	-29.951	1.7119	0	0.057345	0	-0.01111	54.3
50.805	1040.1	0	3.0902	0	0.17219	-29.96	1.5409	0	0.0568	0	-0.021757	54.4
47.809	1040.2	0	3.0959	0	0.1694	-29.968	1.372	0	0.055849	0	-0.035101	54.5
44.812	1040.3	0	3.1014	0	0.16517	-29.976	1.2066	0	0.054416	0	-0.050413	54.6
41.814	1040.4	0	3.1067	0	0.15932	-29.982	1.0463	0	0.052448	0	-0.066964	54.7
38.815	1040.5	0	3.1119	0	0.15177	-29.987	0.89268	0	0.04992	0	-0.084023	54.8
35.816	1040.6	0	3.1167	0	0.14251	-29.991	0.74747	0	0.04683	0	-0.10084	54.9
32.817	1040.7	0	3.1212	0	0.1316	-29.994	0.61233	0	0.043203	0	-0.11667	55
29.818	1040.7	0	3.1254	0	0.11918	-29.996	0.4888	0	0.039088	0	-0.13071	55.1
26.818	1040.8	0	3.1291	0	0.10546	-29.998	0.37824	0	0.034562	0	-0.14218	55.2
23.818	1040.8	0	3.1323	0	0.090746	-29.999	0.28176	0	0.029724	0	-0.15024	55.3
20.818	1040.8	0	3.135	0	0.075414	-29.999	0.2001	0	0.024701	0	-0.15407	55.4
17.818	1040.9	0	3.1372	0	0.059932	-30	0.13359	0	0.019644	0	-0.15284	55.5
14.818	1040.9	0	3.1389	0	0.044846	-30	0.082088	0	0.014731	0	-0.14574	55.6
11.818	1040.9	0	3.1402	0	0.030784	-30	0.044858	0	0.010164	0	-0.13198	55.7
8.8183	1040.9	0	3.141	0	0.01845	-30	0.020531	0	0.0061707	0	-0.11079	55.8
5.8183	1040.9	0	3.1414	0	0.0086261	-30	0.007006	0	0.0030042	0	-0.081404	55.9
2.8183	1040.9	0	3.1416	0	0.002169	-30	0.001404	0	0.00094332	0	-0.043131	56
-0.18175	1040.9	0	3.1416	0	0	-30	7.692e-05	0	0.00011284	0	-0.010845	56.1
-3.1817	1040.9	0	3.1416	0	0	-30	-1.3283e-05	0	0	0	0	56.2
-6.1817	1040.9	0	3.1416	0	0	-30	9.0848e-06	0	0	0	0	56.3
-9.1817	1040.9	0	3.1416	0	0	-30	3.1108e-05	0	0	0	0	56.4
-12.182	1040.9	0	3.1416	0	0	-30	-6.5661e-05	0	0	0	0	56.5
-15.182	1040.9	0	3.1416	0	0	-30	4.3618e-05	0	0	0	0	56.6
-18.182	1040.9	0	3.1416	0	0	-30	3.9272e-05	0	0	0	0	56.7
-21.182	1040.9	0	3.1416	0	0	-30	-1.5615e-05	0	0	0	0	56.8
-24.182	1040.9	0	3.1416	0	0	-30	-0.00010293	0	0	0	0	56.9
-27.182	1040.9	0	3.1416	0	0	-30	2.056e-05	0	0	0	0	57
-30.182	1040.9	0	3.1416	0	0	-30	0.00016224	0	0	0	0	57.1
-33.182	1040.9	0	3.1416	0	0	-30	-2.9514e-05	0	0	0	0	57.2
-36.182	1040.9	0	3.1416	0	0	-30	-0.00014494	0	0	0	0	57.3
-39.182	1040.9	0	3.1416	0	0	-30	-0.00010825	0	0	0	0	57.4
-42.182	1040.9	0	3.1416	0	0	-30	0.00015474	0	0	0	0	57.5
-45.182	1040.9	0	3.1416	0	0	-30	0.00018339	0	0	0	0	57.6
-48.182	1040.9	0	3.1416	0	0	-30	-2.8571e-05	0	0	0	0	57.7
-51.182	1040.9	0	3.1416	0	0	-30	-0.00021615	0	0	0	0	57.8
-54.182	1040.9	0	3.1416	0	0	-30	-0.00018646	0	0	0	0	57.9
-57.182	1040.9	0	3.1416	0	0	-30	0.0001902	0	0	0	0	58
-60.182	1040.9	0	3.1416	0	0	-30	0.00030355	0	0	0	0	58.1
-63.182	1040.9	0	3.1416	0	0	-30	-0.00012971	0	0	0	0	58.2
-66.182	1040.9	0	3.1416	0	0	-30	-9.4765e-05	0	0	0	0	58.3
-69.182	1040.9	0	3.1416	0	0	-30	-1.9974e-05	0	0	0	0	58.4
-72.182	1040.9	0	3.1416	0	0	-30	-0.00050843	0	0	0	0	58.5
-75.182	1040.9	0	3.1416	0	0	-30	4.9919e-06	0	0	0	0	58.6
-78.182	1040.9	0	3.1416	0	0	-30	0.00049284	0	0	0	0	58.7
-81.182	1040.9	0	3.1416	0	0	-30	2.4324e-05	0	0	0	0	58.8
-84.182	1040.9	0	3.1416	0	0	-30	-0.0010234	0	0	0	0	58.9
-87.182	1040.9	0	3.1416	0	0	-30	4.9283e-06	0	0	0	0	59
-90.182	1040.9	0	3.1416	0	0	-30	0.0010003	0	0	0	0	59.1
-93.182	1040.9	0	3.1416	0	0	-30	8.2857e-06	0	0	0	0	59.2
-96.182	1040.9	0	3.1416	0	0	-30	-2.5215e-06	0	0	0	0	59.3
-99.182	1040.9	0	3.1416	0	0	-30	-0.0014535	0	0	0	0	59.4
-102.18	1040.9	0	3.1416	0	0	-30	-7.2388e-06	0	0	0	0	59.5
-105.18	1040.9	0	3.1416	0	0	-30	0.0014597	0	0	0	0	59.6
-108.18	1040.9	0	3.1416	0	0	-30	2.8468e-06	0	0	0	0	59.7
-111.18	1040.9	0	3.1416	0	0	-30	4.3427e-06	0	0	0	0	59.8
-114.18	1040.9	0	3.1416	0	0	-30	-0.0018868	0	0	0	0	59.9
-117.18	1040.9	0	3.1416	0	0	-30	-2.3962e-05	0	3.1629e-08	0	4.7849e-05	60
-120.18	1040.9	0	3.1416	0	9.5699e-06	-30	0.0017803	0	0.00016138	0	0.013709	60.1
-123.18	1040.9	0	3.1416	0	0.0027418	-30	-0.0017623	0	0.0011243	0	0.048227	60.2
-126.18	1040.9	0	3.1418	0	0.0096549	-30	-0.008215	0	0.0033348	0	0.085425	60.3
-129.18	1040.9	0	3.1423	0	0.019827	-30	-0.022762	0	0.0066159	0	0.11378	60.4
-132.18	1040.9	0	3.1431	0	0.03241	-30	-0.050033	0	0.010692	0	0.13403	60.5
-135.18	1040.9	0	3.1444	0	0.046633	-30	-0.087582	0	0.015312	0	0.14694	60.6
-138.18	1040.9	0	3.1462	0	0.061799	-30	-0.13928	0	0.020253	0	0.15329	60.7
-141.18	1040.8	0	3.1485	0	0.07729	-29.999	-0.20939	0	0.025314	0	0.15386	60.8
-144.18	1040.8	0	3.1513	0	0.09257	-29.999	-0.29274	0	0.030323	0	0.14947	60.9
-147.18	1040.8	0	3.1545	0	0.10718	-29.997	-0.39065	0	0.035129	0	0.14095	61
-150.18	1040.7	0	3.1583	0	0.12076	-29.996	-0.50338	0	0.03961	0	0.12913	61.1
-153.18	1040.7	0	3.1625	0	0.13301	-29.993	-0.62809	0	0.043669	0	0.11483	61.2
-156.18	1040.6	0	3.167	0	0.14373	-29.99	-0.76421	0	0.047234	0	0.098844	61.3
-159.18	1040.5	0	3.1719	0	0.15278	-29.986	-0.91118	0	0.050257	0	0.081953	61.4
-162.18	1040.4	0	3.1771	0	0.16012	-29.981	-1.0655	0	0.052716	0	0.064917	61.5
-165.17	1040.3	0	3.1825	0	0.16576	-29.975	-1.2261	0	0.054617	0	0.048477	61.6
-168.17	1040.2	0	3.188	0	0.16981	-29.967	-1.3924	0	0.055989	0	0.033365	61.7
-171.17	1040	0	3.1937	0	0.17244	-29.959	-1.5615	0	0.056886	0	0.020309	61.8
-174.16	1039.9	0	3.1994	0	0.17387	-29.95	-1.7326	0	0.057388	0	0.010039	61.9
-177.16	1039.7	0	3.2051	0	0.17444	-29.939	-1.9051	0	0.057602	0	0.0032925	62
-180.15	1039.5	0	3.2109	0	0.17453	-29.928	-2.0774	0	0.057655	0	0.00044656	62.1
-183.14	1039.3	0	3.2167	0	0.17453	-29.915	-2.25	0	0.057659	0	0	62.2
-186.13	1039	0	3.2224	0	0.17453	-29.902	-2.4225	0	0.057659	0	0	62.3
-189.12	1038.8	0	3.2282	0	0.17453	-29.887	-2.5948	0	0.057659	0	0	62.4
-192.11	1038.5	0	3.234	0	0.17453	-29.872	-2.7671	0	0.057659	0	0	62.5
-195.1	1038.2	0	3.2397	0	0.17453	-29.855	-2.9393	0	0.057659	0	0	62.6
-198.08	1037.9	0	3.2455	0	0.17453	-29.838	-3.1115	0	0.057659	0	0	62.7
-201.07	1037.6	0	3.2513	0	0.17453	-29.82	-3.2834	0	0.057659	0	0	62.8
-204.05	1037.3	0	3.257	0	0.17453	-29.8	-3.4552	0	0.057659	0	0	62.9
-207.03	1036.9	0	3.2628	0	0.17453	-29.78	-3.627	0	0.057659	0	0	63
-210	1036.6	0	3.2686	0	0.17453	-29.758	-3.7988	0	0.057659	0	0	63.1
-212.98	1036.2	0	3.2743	0	0.17453	-29.736	-3.9701	0	0.057659	0	0	63.2
-215.95	1035.8	0	3.2801	0	0.17453	-29.713	-4.1415	0	0.057659	0	0	63.3
-218.92	1035.3	0	3.2859	0	0.17453	-29.688	-4.3132	0	0.057659	0	0	63.4
-221.89	1034.9	0	3.2916	0	0.17453	-29.663	-4.4837	0	0.057659	0	0	63.5
-224.85	1034.4	0	3.2974	0	0.17453	-29.637	-4.6545	0	0.057659	0	0	63.6
-227.82	1034	0	3.3032	0	0.17453	-29.609	-4.8263	0	0.057659	0	0	63.7
-230.77	1033.5	0	3.3089	0	0.17453	-29.581	-4.9966	0	0.057659	0	0	63.8
-233.73	1033	0	3.3147	0	0.17453	-29.552	-5.1665	0	0.057659	0	0	63.9
-236.69	1032.4	0	3.3204	0	0.17453	-29.521	-5.337	0	0.057659	0	0	64
-239.64	1031.9	0	3.3262	0	0.17453	-29.49	-5.5077	0	0.057659	0	0	64.1
-242.58	1031.3	0	3.332	0	0.17453	-29.458	-5.6772	0	0.057659	0	0	64.2
-245.53	1030.8	0	3.3377	0	0.17453	-29.424	-5.8465	0	0.057659	0	0	64.3
-248.47	1030.2	0	3.3435	0	0.17453	-29.39	-6.0165	0	0.057659	0	0	64.4
-251.41	1029.6	0	3.3493	0	0.17453	-29.355	-6.1863	0	0.057659	0	0	64.5
-254.34	1028.9	0	3.355	0	0.17453	-29.319	-6.355	0	0.057659	0	0	64.6
-257.27	1028.3	0	3.3608	0	0.17453	-29.282	-6.5235	0	0.057659	0	0	64.7
-260.2	1027.6	0	3.3666	0	0.17453	-29.244	-6.6927	0	0.057659	0	0	64.8
-263.12	1027	0	3.3723	0	0.17453	-29.205	-6.8612	0	0.057659	0	0	64.9
-266.04	1026.3	0	3.3781	0	0.17453	-29.165	-7.0295	0	0.057659	0	0	65
-268.95	1025.5	0	3.3839	0	0.17453	-29.124	-7.1973	0	0.057659	0	0	65.1
-271.86	1024.8	0	3.3896	0	0.17453	-29.082	-7.3654	0	0.057659	0	0	65.2
-274.77	1024.1	0	3.3954	0	0.17453	-29.039	-7.5331	0	0.057659	0	0	65.3
-277.67	1023.3	0	3.4012	0	0.17453	-28.995	-7.7001	0	0.057659	0	0	65.4
-280.57	1022.5	0	3.4069	0	0.17453	-28.95	-7.8673	0	0.057659	0	0	65.5
-283.46	1021.7	0	3.4127	0	0.17453	-28.904	-8.0341	0	0.057659	0	0	65.6
-286.35	1020.9	0	3.4185	0	0.17453	-28.857	-8.2008	0	0.057659	0	0	65.7
-289.23	1020.1	0	3.4242	0	0.17453	-28.809	-8.3664	0	0.057659	0	0	65.8
-292.11	1019.3	0	3.43	0	0.17453	-28.761	-8.5325	0	0.057659	0	0	65.9
-294.98	1018.4	0	3.4358	0	0.17453	-28.711	-8.6988	0	0.057659	0	0	66
-297.85	1017.5	0	3.4415	0	0.17453	-28.66	-8.8637	0	0.057659	0	0	66.1
-300.71	1016.6	0	3.4473	0	0.17453	-28.609	-9.0291	0	0.057659	0	0	66.2
-303.57	1015.7	0	3.4531	0	0.17453	-28.556	-9.194	0	0.057659	0	0	66.3
-306.43	1014.8	0	3.4588	0	0.17453	-28.503	-9.358	0	0.057659	0	0	66.4
-309.27	1013.8	0	3.4646	0	0.17453	-28.448	-9.5225	0	0.057659	0	0	66.5
-312.12	1012.9	0	3.4704	0	0.17453	-28.393	-9.6865	0	0.057659	0	0	66.6
-314.95	1011.9	0	3.4761	0	0.17453	-28.337	-9.8495	0	0.057659	0	0	66.7
-317.78	1010.9	0	3.4819	0	0.17453	-28.279	-10.013	0	0.057659	0	0	66.8
-320.61	1009.9	0	3.4877	0	0.17453	-28.221	-10.176	0	0.057659	0	0	66.9
-323.43	1008.9	0	3.4934	0	0.17453	-28.162	-10.338	0	0.057659	0	0	67
-326.24	1007.8	0	3.4992	0	0.17453	-28.102	-10.501	0	0.057659	0	0	67.1
-329.05	1006.8	0	3.505	0	0.17453	-28.041	-10.663	0	0.057659	0	0	67.2
-331.85	1005.7	0	3.5107	0	0.17453	-27.979	-10.824	0	0.057659	0	0	67.3
-334.64	1004.6	0	3.5165	0	0.17453	-27.916	-10.985	0	0.057659	0	0	67.4
-337.43	1003.5	0	3.5223	0	0.17453	-27.852	-11.147	0	0.057659	0	0	67.5
-340.21	1002.4	0	3.528	0	0.17453	-27.788	-11.306	0	0.057659	0	0	67.6
-342.99	1001.2	0	3.5338	0	0.17453	-27.722	-11.466	0	0.057659	0	0	67.7
-345.76	1000.1	0	3.5396	0	0.17453	-27.655	-11.626	0	0.057659	0	0	67.8
-348.52	998.91	0	3.5453	0	0.17453	-27.588	-11.785	0	0.057659	0	0	67.9
-351.28	997.72	0	3.5511	0	0.17453	-27.52	-11.944	0	0.057659	0	0	68
-354.02	996.52	0	3.5569	0	0.17453	-27.45	-12.103	0	0.057659	0	0	68.1
-356.77	995.3	0	3.5626	0	0.17453	-27.38	-12.261	0	0.057659	0	0	68.2
-359.5	994.07	0	3.5684	0	0.17453	-27.309	-12.418	0	0.057659	0	0	68.3
-362.23	992.82	0	3.5741	0	0.17453	-27.237	-12.576	0	0.057659	0	0	68.4
-364.95	991.56	0	3.5799	0	0.17453	-27.164	-12.733	0	0.057659	0	0	68.5
-367.66	990.27	0	3.5857	0	0.17453	-27.09	-12.889	0	0.057659	0	0	68.6
-370.37	988.98	0	3.5914	0	0.17453	-27.015	-13.045	0	0.057659	0	0	68.7
-373.06	987.67	0	3.5972	0	0.17453	-26.94	-13.201	0	0.057659	0	0	68.8
-375.75	986.34	0	3.603	0	0.17453	-26.863	-13.356	0	0.057659	0	0	68.9
-378.44	984.99	0	3.6087	0	0.17453	-26.785	-13.51	0	0.057659	0	0	69
-381.11	983.64	0	3.6145	0	0.17453	-26.707	-13.665	0	0.057659	0	0	69.1
-383.78	982.26	0	3.6203	0	0.17453	-26.628	-13.818	0	0.057659	0	0	69.2
-386.44	980.87	0	3.626	0	0.17453	-26.548	-13.971	0	0.057659	0	0	69.3
-389.09	979.47	0	3.6318	0	0.17453	-26.467	-14.124	0	0.057659	0	0	69.4
-391.73	978.05	0	3.6376	0	0.17453	-26.385	-14.277	0	0.057659	0	0	69.5
-394.36	976.61	0	3.6433	0	0.17453	-26.302	-14.429	0	0.057659	0	0	69.6
-396.99	975.16	0	3.6491	0	0.17453	-26.219	-14.58	0	0.057659	0	0	69.7
-399.61	973.7	0	3.6549	0	0.17453	-26.134	-14.731	0	0.057659	0	0	69.8
-402.22	972.21	0	3.6606	0	0.17453	-26.049	-14.882	0	0.057659	0	0	69.9
-404.82	970.72	0	3.6664	0	0.17453	-25.962	-15.031	0	0.057659	0	0	70
-407.41	969.21	0	3.6722	0	0.17453	-25.875	-15.181	0	0.057659	0	0	70.1
-409.99	967.68	0	3.6779	0	0.17453	-25.787	-15.33	0	0.057659	0	0	70.2
-412.57	966.14	0	3.6837	0	0.17453	-25.699	-15.478	0	0.057659	0	0	70.3
-415.13	964.59	0	3.6895	0	0.17453	-25.609	-15.626	0	0.057659	0	0	70.4
-417.69	963.02	0	3.6952	0	0.17453	-25.518	-15.774	0	0.057659	0	0	70.5
-420.24	961.43	0	3.701	0	0.17453	-25.427	-15.92	0	0.057659	0	0	70.6
-422.77	959.83	0	3.7068	0	0.17453	-25.335	-16.067	0	0.057659	0	0	70.7
-425.3	958.22	0	3.7125	0	0.17453	-25.242	-16.213	0	0.057659	0	0	70.8
-427.82	956.59	0	3.7183	0	0.17453	-25.148	-16.358	0	0.057659	0	0	70.9
-430.33	954.95	0	3.7241	0	0.17453	-25.053	-16.503	0	0.057659	0	0	71
-432.83	953.29	0	3.7298	0	0.17453	-24.957	-16.647	0	0.057659	0	0	71.1
-435.32	951.62	0	3.7356	0	0.17453	-24.861	-16.79	0	0.057659	0	0	71.2
-437.8	949.93	0	3.7414	0	0.17453	-24.764	-16.933	0	0.057659	0	0	71.3
-440.28	948.23	0	3.7471	0	0.17453	-24.666	-17.076	0	0.057659	0	0	71.4
-442.74	946.52	0	3.7529	0	0.17453	-24.567	-17.218	0	0.057659	0	0	71.5
-445.19	944.79	0	3.7587	0	0.17453	-24.467	-17.359	0	0.057659	0	0	71.6
-447.63	943.05	0	3.7644	0	0.17453	-24.367	-17.5	0	0.057659	0	0	71.7
-450.06	941.29	0	3.7702	0	0.17453	-24.265	-17.64	0	0.057659	0	0	71.8
-452.48	939.52	0	3.776	0	0.17453	-24.163	-17.78	0	0.057659	0	0	71.9
-454.9	937.73	0	3.7817	0	0.17453	-24.06	-17.919	0	0.057659	0	0	72
-457.3	935.93	0	3.7875	0	0.17453	-23.957	-18.057	0	0.057659	0	0	72.1
-459.69	934.12	0	3.7933	0	0.17453	-23.852	-18.195	0	0.057659	0	0	72.2
-462.07	932.29	0	3.799	0	0.17453	-23.747	-18.332	0	0.057659	0	0	72.3
-464.44	930.45	0	3.8048	0	0.17453	-23.641	-18.469	0	0.057659	0	0	72.4
-466.8	928.6	0	3.8106	0	0.17453	-23.534	-18.605	0	0.057659	0	0	72.5
-469.14	926.73	0	3.8163	0	0.17453	-23.426	-18.74	0	0.057659	0	0	72.6
-471.48	924.85	0	3.8221	0	0.17453	-23.318	-18.875	0	0.057659	0	0	72.7
-473.81	922.96	0	3.8278	0	0.17453	-23.209	-19.009	0	0.057659	0	0	72.8
-476.12	921.05	0	3.8336	0	0.17453	-23.099	-19.143	0	0.057659	0	0	72.9
-478.43	919.13	0	3.8394	0	0.17453	-22.988	-19.275	0	0.057659	0	0	73
-480.72	917.2	0	3.8451	0	0.17453	-22.876	-19.408	0	0.057659	0	0	73.1
-483	915.25	0	3.8509	0	0.17453	-22.764	-19.539	0	0.057659	0	0	73.2
-485.27	913.29	0	3.8567	0	0.17453	-22.651	-19.669	0	0.057659	0	0	73.3
-487.53	911.31	0	3.8624	0	0.17453	-22.537	-19.801	0	0.057659	0	0	73.4
-489.78	909.33	0	3.8682	0	0.17453	-22.423	-19.931	0	0.057659	0	0	73.5
-492.02	907.33	0	3.874	0	0.17453	-22.307	-20.059	0	0.057659	0	0	73.6
-494.24	905.32	0	3.8797	0	0.17453	-22.191	-20.188	0	0.057659	0	0	73.7
-496.45	903.29	0	3.8855	0	0.17453	-22.075	-20.315	0	0.057659	0	0	73.8
-498.66	901.25	0	3.8913	0	0.17453	-21.957	-20.442	0	0.057659	0	0	73.9
-500.85	899.2	0	3.897	0	0.17453	-21.839	-20.568	0	0.057659	0	0	74
-503.02	897.14	0	3.9028	0	0.17453	-21.72	-20.694	0	0.057659	0	0	74.1
-505.19	895.06	0	3.9086	0	0.17453	-21.6	-20.819	0	0.057659	0	0	74.2
-507.34	892.98	0	3.9143	0	0.17453	-21.48	-20.943	0	0.057659	0	0	74.3
-509.49	890.87	0	3.9201	0	0.17453	-21.359	-21.066	0	0.057659	0	0	74.4
-511.62	888.76	0	3.9259	0	0.17453	-21.237	-21.189	0	0.057659	0	0	74.5
-513.73	886.64	0	3.9316	0	0.17453	-21.114	-21.311	0	0.057659	0	0	74.6
-515.84	884.5	0	3.9374	0	0.17453	-20.991	-21.433	0	0.057659	0	0	74.7
-517.93	882.35	0	3.9432	0	0.17453	-20.867	-21.554	0	0.057659	0	0	74.8
-520.01	880.19	0	3.9489	0	0.17453	-20.743	-21.673	0	0.057659	0	0	74.9
-522.08	878.02	0	3.9547	0	0.17453	-20.617	-21.793	0	0.057659	0	0	75
-524.14	875.83	0	3.9605	0	0.17453	-20.491	-21.911	0	0.057659	0	0	75.1
-526.18	873.63	0	3.9662	0	0.17453	-20.365	-22.029	0	0.057659	0	0	75.2
-528.21	871.42	0	3.972	0	0.17453	-20.237	-22.146	0	0.057659	0	0	75.3
-530.23	869.2	0	3.9778	0	0.17453	-20.109	-22.263	0	0.057659	0	0	75.4
-532.23	866.97	0	3.9835	0	0.17453	-19.981	-22.378	0	0.057659	0	0	75.5
-534.22	864.73	0	3.9893	0	0.17453	-19.851	-22.493	0	0.057659	0	0	75.6
-536.2	862.47	0	3.9951	0	0.17453	-19.721	-22.607	0	0.057659	0	0	75.7
-538.17	860.21	0	4.0008	0	0.17453	-19.59	-22.72	0	0.057659	0	0	75.8
-540.12	857.93	0	4.0066	0	0.17453	-19.459	-22.833	0	0.057659	0	0	75.9
-542.06	855.64	0	4.0124	0	0.17453	-19.327	-22.945	0	0.057659	0	0	76
-543.98	853.34	0	4.0181	0	0.17453	-19.195	-23.056	0	0.057659	0	0	76.1
-545.9	851.03	0	4.0239	0	0.17453	-19.061	-23.166	0	0.057659	0	0	76.2
-547.8	848.71	0	4.0297	0	0.17453	-18.927	-23.275	0	0.057659	0	0	76.3
-549.68	846.37	0	4.0354	0	0.17453	-18.793	-23.384	0	0.057659	0	0	76.4
-551.56	844.03	0	4.0412	0	0.17453	-18.658	-23.492	0	0.057659	0	0	76.5
-553.41	841.68	0	4.047	0	0.17453	-18.522	-23.599	0	0.057659	0	0	76.6
-555.26	839.31	0	4.0527	0	0.17453	-18.386	-23.706	0	0.057659	0	0	76.7
-557.09	836.93	0	4.0585	0	0.17453	-18.249	-23.811	0	0.057659	0	0	76.8
-558.91	834.55	0	4.0643	0	0.17453	-18.111	-23.916	0	0.057659	0	0	76.9
-560.71	832.15	0	4.07	0	0.17453	-17.973	-24.02	0	0.057659	0	0	77
-562.5	829.74	0	4.0758	0	0.17453	-17.834	-24.124	0	0.057659	0	0	77.1
-564.28	827.33	0	4.0815	0	0.17453	-17.695	-24.226	0	0.057659	0	0	77.2
-566.04	824.9	0	4.0873	0	0.17453	-17.555	-24.327	0	0.057659	0	0	77.3
-567.79	822.46	0	4.0931	0	0.17453	-17.414	-24.428	0	0.057659	0	0	77.4
-569.53	820.01	0	4.0988	0	0.17453	-17.273	-24.528	0	0.057659	0	0	77.5
-571.25	817.56	0	4.1046	0	0.17453	-17.131	-24.627	0	0.057659	0	0	77.6
-572.95	815.09	0	4.1104	0	0.17453	-16.989	-24.726	0	0.057659	0	0	77.7
-574.64	812.61	0	4.1161	0	0.17453	-16.846	-24.824	0	0.057659	0	0	77.8
-576.32	810.12	0	4.1219	0	0.17453	-16.703	-24.92	0	0.057659	0	0	77.9
-577.98	807.63	0	4.1277	0	0.17453	-16.559	-25.015	0	0.057659	0	0	78
-579.63	805.12	0	4.1334	0	0.17453	-16.414	-25.111	0	0.057659	0	0	78.1
-581.27	802.6	0	4.1392	0	0.17453	-16.269	-25.206	0	0.057659	0	0	78.2
-582.89	800.08	0	4.145	0	0.17453	-16.124	-25.298	0	0.057659	0	0	78.3
-584.49	797.54	0	4.1507	0	0.17453	-15.977	-25.391	0	0.057659	0	0	78.4
-586.08	795	0	4.1565	0	0.17453	-15.831	-25.483	0	0.057659	0	0	78.5
-587.66	792.45	0	4.1623	0	0.17453	-15.684	-25.574	0	0.057659	0	0	78.6
-589.22	789.89	0	4.168	0	0.17453	-15.536	-25.664	0	0.057659	0	0	78.7
-590.77	787.32	0	4.1738	0	0.17453	-15.388	-25.753	0	0.057659	0	0	78.8
-592.3	784.74	0	4.1796	0	0.17453	-15.239	-25.841	0	0.057659	0	0	78.9
-593.81	782.15	0	4.1853	0	0.17453	-15.09	-25.929	0	0.057659	0	0	79
-595.31	779.55	0	4.1911	0	0.17453	-14.94	-26.015	0	0.057659	0	0	79.1
-596.8	776.94	0	4.1969	0	0.17453	-14.79	-26.101	0	0.057659	0	0	79.2
-598.27	774.33	0	4.2026	0	0.17453	-14.639	-26.186	0	0.057659	0	0	79.3
-599.73	771.71	0	4.2084	0	0.17453	-14.488	-26.27	0	0.057659	0	0	79.4
-601.17	769.08	0	4.2142	0	0.17453	-14.336	-26.353	0	0.057659	0	0	79.5
-602.6	766.44	0	4.2199	0	0.17453	-14.184	-26.435	0	0.057659	0	0	79.6
-604.01	763.79	0	4.2257	0	0.17453	-14.031	-26.517	0	0.057659	0	0	79.7
-605.4	761.13	0	4.2315	0	0.17453	-13.878	-26.597	0	0.057659	0	0	79.8
-606.78	758.47	0	4.2372	0	0.17453	-13.724	-26.676	0	0.057659	0	0	79.9
-608.15	755.8	0	4.243	0	0.17453	-13.57	-26.755	0	0.057659	0	0	80
-609.5	753.12	0	4.2488	0	0.17453	-13.415	-26.833	0	0.057659	0	0	80.1
-610.83	750.43	0	4.2545	0	0.17453	-13.261	-26.91	0	0.057659	0	0	80.2
-612.15	747.74	0	4.2603	0	0.17453	-13.106	-26.986	0	0.057659	0	0	80.3
-613.45	745.03	0	4.2661	0	0.17453	-12.95	-27.061	0	0.057659	0	0	80.4
-614.74	742.32	0	4.2718	0	0.17453	-12.794	-27.135	0	0.057659	0	0	80.5
-616.01	739.61	0	4.2776	0	0.17453	-12.637	-27.209	0	0.057659	0	0	80.6
-617.27	736.88	0	4.2834	0	0.17453	-12.48	-27.281	0	0.057659	0	0	80.7
-618.51	734.15	0	4.2891	0	0.17453	-12.322	-27.352	0	0.057659	0	0	80.8
-619.73	731.41	0	4.2949	0	0.17453	-12.164	-27.423	0	0.057659	0	0	80.9
-620.94	728.67	0	4.3007	0	0.17453	-12.006	-27.493	0	0.057659	0	0	81
-622.13	725.91	0	4.3064	0	0.17453	-11.847	-27.561	0	0.057659	0	0	81.1
-623.31	723.15	0	4.3122	0	0.17453	-11.688	-27.629	0	0.057659	0	0	81.2
-624.47	720.39	0	4.3179	0	0.17453	-11.529	-27.696	0	0.057659	0	0	81.3
-625.61	717.61	0	4.3237	0	0.17453	-11.369	-27.762	0	0.057659	0	0	81.4
-626.74	714.84	0	4.3295	0	0.17453	-11.208	-27.827	0	0.057659	0	0	81.5
-627.86	712.05	0	4.3352	0	0.17453	-11.048	-27.892	0	0.057659	0	0	81.6
-628.95	709.26	0	4.341	0	0.17453	-10.887	-27.955	0	0.057659	0	0	81.7
-630.03	706.46	0	4.3468	0	0.17453	-10.726	-28.017	0	0.057659	0	0	81.8
-631.1	703.65	0	4.3525	0	0.17453	-10.564	-28.078	0	0.057659	0	0	81.9
-632.15	700.84	0	4.3583	0	0.17453	-10.402	-28.139	0	0.057659	0	0	82
-633.18	698.03	0	4.3641	0	0.17453	-10.239	-28.199	0	0.057659	0	0	82.1
-634.19	695.2	0	4.3698	0	0.17453	-10.077	-28.257	0	0.057659	0	0	82.2
-635.19	692.37	0	4.3756	0	0.17453	-9.9134	-28.314	0	0.057659	0	0	82.3
-636.18	689.54	0	4.3814	0	0.17453	-9.75	-28.371	0	0.057659	0	0	82.4
-637.14	686.7	0	4.3871	0	0.17453	-9.5863	-28.427	0	0.057659	0	0	82.5
-638.09	683.85	0	4.3929	0	0.17453	-9.4223	-28.482	0	0.057659	0	0	82.6
-639.03	681	0	4.3987	0	0.17453	-9.2579	-28.536	0	0.057659	0	0	82.7
-639.95	678.15	0	4.4044	0	0.17453	-9.0932	-28.589	0	0.057659	0	0	82.8
-640.85	675.29	0	4.4102	0	0.17453	-8.9282	-28.64	0	0.057659	0	0	82.9
-641.73	672.42	0	4.416	0	0.17453	-8.7628	-28.692	0	0.057659	0	0	83
-642.6	669.55	0	4.4217	0	0.17453	-8.5973	-28.742	0	0.057659	0	0	83.1
-643.45	666.67	0	4.4275	0	0.17453	-8.4314	-28.791	0	0.057659	0	0	83.2
-644.29	663.79	0	4.4333	0	0.17453	-8.2653	-28.839	0	0.057659	0	0	83.3
-645.1	660.9	0	4.439	0	0.17453	-8.0989	-28.886	0	0.057659	0	0	83.4
-645.9	658.01	0	4.4448	0	0.17453	-7.9322	-28.932	0	0.057659	0	0	83.5
-646.69	655.12	0	4.4506	0	0.17453	-7.7653	-28.977	0	0.057659	0	0	83.6
-647.46	652.22	0	4.4563	0	0.17453	-7.598	-29.021	0	0.057659	0	0	83.7
-648.21	649.31	0	4.4621	0	0.17453	-7.4305	-29.065	0	0.057659	0	0	83.8
-648.94	646.4	0	4.4679	0	0.17453	-7.2628	-29.108	0	0.057659	0	0	83.9
-649.66	643.49	0	4.4736	0	0.17453	-7.0949	-29.149	0	0.057659	0	0	84
-650.36	640.57	0	4.4794	0	0.17453	-6.9268	-29.189	0	0.057659	0	0	84.1
-651.05	637.65	0	4.4852	0	0.17453	-6.7584	-29.229	0	0.057659	0	0	84.2
-651.71	634.73	0	4.4909	0	0.17453	-6.5897	-29.267	0	0.057659	0	0	84.3
-652.37	631.8	0	4.4967	0	0.17453	-6.4208	-29.305	0	0.057659	0	0	84.4
-653	628.87	0	4.5025	0	0.17453	-6.2517	-29.341	0	0.057659	0	0	84.5
-653.62	625.93	0	4.5082	0	0.17453	-6.0824	-29.376	0	0.057659	0	0	84.6
-654.22	622.99	0	4.514	0	0.17453	-5.9129	-29.411	0	0.057659	0	0	84.7
-654.8	620.05	0	4.5198	0	0.17453	-5.7433	-29.445	0	0.057659	0	0	84.8
-655.36	617.1	0	4.5255	0	0.17453	-5.5735	-29.478	0	0.057659	0	0	84.9
-655.91	614.15	0	4.5313	0	0.17453	-5.4034	-29.509	0	0.057659	0	0	85
-656.44	611.2	0	4.5371	0	0.17453	-5.2331	-29.54	0	0.057659	0	0	85.1
-656.96	608.25	0	4.5428	0	0.17453	-5.0627	-29.57	0	0.057659	0	0	85.2
-657.46	605.29	0	4.5486	0	0.17453	-4.8921	-29.598	0	0.057659	0	0	85.3
-657.94	602.33	0	4.5544	0	0.17453	-4.7214	-29.626	0	0.057659	0	0	85.4
-658.4	599.36	0	4.5601	0	0.17453	-4.5505	-29.653	0	0.057659	0	0	85.5
-658.85	596.4	0	4.5659	0	0.17453	-4.3795	-29.678	0	0.057659	0	0	85.6
-659.28	593.43	0	4.5716	0	0.17453	-4.2083	-29.703	0	0.057659	0	0	85.7
-659.69	590.46	0	4.5774	0	0.17453	-4.037	-29.727	0	0.057659	0	0	85.8
-660.08	587.48	0	4.5832	0	0.17453	-3.8655	-29.75	0	0.057659	0	0	85.9
-660.46	584.51	0	4.5889	0	0.17453	-3.6939	-29.772	0	0.057659	0	0	86
-660.82	581.53	0	4.5947	0	0.17453	-3.5221	-29.792	0	0.057659	0	0	86.1
-661.17	578.55	0	4.6005	0	0.17453	-3.3503	-29.812	0	0.057659	0	0	86.2
-661.49	575.56	0	4.6062	0	0.17453	-3.1783	-29.831	0	0.057659	0	0	86.3
-661.8	572.58	0	4.612	0	0.17453	-3.0063	-29.849	0	0.057659	0	0	86.4
-662.09	569.59	0	4.6178	0	0.17453	-2.8342	-29.866	0	0.057659	0	0	86.5
-662.37	566.61	0	4.6235	0	0.17453	-2.6619	-29.881	0	0.057659	0	0	86.6
-662.63	563.62	0	4.6293	0	0.17453	-2.4896	-29.896	0	0.057659	0	0	86.7
-662.87	560.63	0	4.6351	0	0.17453	-2.3172	-29.91	0	0.057659	0	0	86.8
-663.09	557.64	0	4.6408	0	0.17453	-2.1447	-29.923	0	0.057659	0	0	86.9
-663.3	554.64	0	4.6466	0	0.17453	-1.9721	-29.935	0	0.057659	0	0	87
-663.49	551.65	0	4.6524	0	0.17453	-1.7994	-29.946	0	0.057659	0	0	87.1
-663.66	548.65	0	4.6581	0	0.17453	-1.6267	-29.956	0	0.057659	0	0	87.2
-663.81	545.66	0	4.6639	0	0.17453	-1.4539	-29.965	0	0.057659	0	0	87.3
-663.95	542.66	0	4.6697	0	0.17453	-1.2812	-29.972	0	0.057659	0	0	87.4
-664.07	539.66	0	4.6754	0	0.17453	-1.1084	-29.979	0	0.057659	0	0	87.5
-664.17	536.67	0	4.6812	0	0.17453	-0.9355	-29.985	0	0.057659	0	0	87.6
-664.25	533.67	0	4.687	0	0.17453	-0.76261	-29.99	0	0.057659	0	0	87.7
-664.32	530.67	0	4.6927	0	0.17453	-0.5897	-29.994	0	0.057659	0	0	87.8
-664.37	527.67	0	4.6985	0	0.17453	-0.41669	-29.997	0	0.057659	0	0	87.9
-664.4	524.67	0	4.7043	0	0.17453	-0.2437	-29.999	0	0.057659	0	0	88
-664.42	521.67	0	4.71	0	0.17453	-0.070771	-30	0	0.057659	0	0	88.1
-664.42	518.67	0	4.7158	0	0.17453	0.1022	-30	0	0.057659	0	0	88.2
-664.4	515.67	0	4.7216	0	0.17453	0.27518	-29.999	0	0.057659	0	0	88.3
-664.36	512.67	0	4.7273	0	0.17453	0.44814	-29.996	0	0.057659	0	0	88.4
-664.31	509.67	0	4.7331	0	0.17453	0.62109	-29.993	0	0.057659	0	0	88.5
-664.24	506.67	0	4.7389	0	0.17453	0.79401	-29.989	0	0.057659	0	0	88.6
-664.15	503.67	0	4.7446	0	0.17453	0.96692	-29.984	0	0.057659	0	0	88.7
-664.05	500.67	0	4.7504	0	0.17453	1.1398	-29.978	0	0.057659	0	0	88.8
-663.92	497.68	0	4.7562	0	0.17453	1.3126	-29.971	0	0.057659	0	0	88.9
-663.78	494.68	0	4.7619	0	0.17453	1.4854	-29.963	0	0.057659	0	0	89
-663.63	491.68	0	4.7677	0	0.17453	1.6582	-29.954	0	0.057659	0	0	89.1
-663.45	488.69	0	4.7735	0	0.17453	1.8308	-29.944	0	0.057659	0	0	89.2
-663.26	485.69	0	4.7792	0	0.17453	2.0034	-29.933	0	0.057659	0	0	89.3
-663.05	482.7	0	4.785	0	0.17453	2.176	-29.921	0	0.057659	0	0	89.4
-662.83	479.71	0	4.7908	0	0.17453	2.3485	-29.908	0	0.057659	0	0	89.5
-662.58	476.72	0	4.7965	0	0.17453	2.5209	-29.894	0	0.057659	0	0	89.6
-662.32	473.73	0	4.8023	0	0.17453	2.6932	-29.879	0	0.057659	0	0	89.7
-662.04	470.74	0	4.8081	0	0.17453	2.8654	-29.863	0	0.057659	0	0	89.8
-661.75	467.76	0	4.8138	0	0.17453	3.0376	-29.846	0	0.057659	0	0	89.9
-661.44	464.77	0	4.8196	0	0.17453	3.2096	-29.828	0	0.057659	0	0	90
-661.11	461.79	0	4.8253	0	0.17453	3.3814	-29.809	0	0.057659	0	0	90.1
-660.76	458.81	0	4.8311	0	0.17453	3.5533	-29.789	0	0.057659	0	0	90.2
-660.4	455.84	0	4.8369	0	0.17453	3.7252	-29.768	0	0.057659	0	0	90.3
-660.01	452.86	0	4.8426	0	0.17453	3.8967	-29.746	0	0.057659	0	0	90.4
-659.62	449.89	0	4.8484	0	0.17453	4.0681	-29.723	0	0.057659	0	0	90.5
-659.2	446.92	0	4.8542	0	0.17453	4.2394	-29.699	0	0.057659	0	0	90.6
-658.77	443.95	0	4.8599	0	0.17453	4.4106	-29.674	0	0.057659	0	0	90.7
-658.32	440.98	0	4.8657	0	0.17453	4.5816	-29.648	0	0.057659	0	0	90.8
-657.85	438.02	0	4.8715	0	0.17453	4.7524	-29.621	0	0.057659	0	0	90.9
-657.37	435.06	0	4.8772	0	0.17453	4.9232	-29.593	0	0.057659	0	0	91
-656.87	432.1	0	4.883	0	0.17453	5.0937	-29.565	0	0.057659	0	0	91.1
-656.35	429.14	0	4.8888	0	0.17453	5.264	-29.534	0	0.057659	0	0	91.2
-655.81	426.19	0	4.8945	0	0.17453	5.4342	-29.504	0	0.057659	0	0	91.3
-655.26	423.24	0	4.9003	0	0.17453	5.6044	-29.472	0	0.057659	0	0	91.4
-654.69	420.3	0	4.9061	0	0.17453	5.7742	-29.439	0	0.057659	0	0	91.5
-654.11	417.35	0	4.9118	0	0.17453	5.9438	-29.405	0	0.057659	0	0	91.6
-653.5	414.42	0	4.9176	0	0.17453	6.1132	-29.37	0	0.057659	0	0	91.7
-652.88	411.48	0	4.9234	0	0.17453	6.2825	-29.334	0	0.057659	0	0	91.8
-652.25	408.55	0	4.9291	0	0.17453	6.4515	-29.298	0	0.057659	0	0	91.9
-651.59	405.62	0	4.9349	0	0.17453	6.6203	-29.26	0	0.057659	0	0	92
-650.92	402.7	0	4.9407	0	0.17453	6.7889	-29.222	0	0.057659	0	0	92.1
-650.24	399.78	0	4.9464	0	0.17453	6.9573	-29.182	0	0.057659	0	0	92.2
-649.53	396.86	0	4.9522	0	0.17453	7.1254	-29.141	0	0.057659	0	0	92.3
-648.81	393.95	0	4.958	0	0.17453	7.2934	-29.1	0	0.057659	0	0	92.4
-648.07	391.04	0	4.9637	0	0.17453	7.4611	-29.057	0	0.057659	0	0	92.5
-647.32	388.14	0	4.9695	0	0.17453	7.6285	-29.014	0	0.057659	0	0	92.6
-646.55	385.24	0	4.9753	0	0.17453	7.7956	-28.969	0	0.057659	0	0	92.7
-645.76	382.34	0	4.981	0	0.17453	7.9625	-28.924	0	0.057659	0	0	92.8
-644.96	379.45	0	4.9868	0	0.17453	8.1292	-28.877	0	0.057659	0	0	92.9
-644.13	376.57	0	4.9926	0	0.17453	8.2955	-28.83	0	0.057659	0	0	93
-643.3	373.69	0	4.9983	0	0.17453	8.4619	-28.782	0	0.057659	0	0	93.1
-642.44	370.81	0	5.0041	0	0.17453	8.6274	-28.732	0	0.057659	0	0	93.2
-641.57	367.94	0	5.0099	0	0.17453	8.7927	-28.682	0	0.057659	0	0	93.3
-640.68	365.08	0	5.0156	0	0.17453	8.9582	-28.631	0	0.057659	0	0	93.4
-639.78	362.21	0	5.0214	0	0.17453	9.1231	-28.579	0	0.057659	0	0	93.5
-638.86	359.36	0	5.0272	0	0.17453	9.2877	-28.526	0	0.057659	0	0	93.6
-637.92	356.51	0	5.0329	0	0.17453	9.452	-28.472	0	0.057659	0	0	93.7
-636.97	353.66	0	5.0387	0	0.17453	9.616	-28.417	0	0.057659	0	0	93.8
-636	350.83	0	5.0445	0	0.17453	9.7797	-28.361	0	0.057659	0	0	93.9
-635.01	347.99	0	5.0502	0	0.17453	9.9431	-28.304	0	0.057659	0	0	94
-634.01	345.17	0	5.056	0	0.17453	10.106	-28.247	0	0.057659	0	0	94.1
-632.99	342.34	0	5.0617	0	0.17453	10.269	-28.188	0	0.057659	0	0	94.2
-631.96	339.53	0	5.0675	0	0.17453	10.431	-28.128	0	0.057659	0	0	94.3
-630.91	336.72	0	5.0733	0	0.17453	10.593	-28.067	0	0.057659	0	0	94.4
-629.84	333.91	0	5.079	0	0.17453	10.755	-28.006	0	0.057659	0	0	94.5
-628.75	331.12	0	5.0848	0	0.17453	10.916	-27.943	0	0.057659	0	0	94.6
-627.65	328.33	0	5.0906	0	0.17453	11.077	-27.88	0	0.057659	0	0	94.7
-626.54	325.54	0	5.0963	0	0.17453	11.238	-27.816	0	0.057659	0	0	94.8
-625.41	322.76	0	5.1021	0	0.17453	11.398	-27.75	0	0.057659	0	0	94.9
-624.26	319.99	0	5.1079	0	0.17453	11.558	-27.684	0	0.057659	0	0	95
-623.1	317.23	0	5.1136	0	0.17453	11.717	-27.617	0	0.057659	0	0	95.1
-621.92	314.47	0	5.1194	0	0.17453	11.876	-27.549	0	0.057659	0	0	95.2
-620.72	311.72	0	5.1252	0	0.17453	12.035	-27.48	0	0.057659	0	0	95.3
-619.51	308.97	0	5.1309	0	0.17453	12.193	-27.41	0	0.057659	0	0	95.4
-618.28	306.23	0	5.1367	0	0.17453	12.351	-27.339	0	0.057659	0	0	95.5
-617.04	303.5	0	5.1425	0	0.17453	12.508	-27.268	0	0.057659	0	0	95.6
-615.78	300.78	0	5.1482	0	0.17453	12.665	-27.195	0	0.057659	0	0	95.7
-614.51	298.06	0	5.154	0	0.17453	12.822	-27.122	0	0.057659	0	0	95.8
-613.22	295.36	0	5.1598	0	0.17453	12.979	-27.047	0	0.057659	0	0	95.9
-611.91	292.65	0	5.1655	0	0.17453	13.134	-26.972	0	0.057659	0	0	96
-610.59	289.96	0	5.1713	0	0.17453	13.289	-26.896	0	0.057659	0	0	96.1
-609.25	287.28	0	5.1771	0	0.17453	13.444	-26.819	0	0.057659	0	0	96.2
-607.9	284.6	0	5.1828	0	0.17453	13.598	-26.741	0	0.057659	0	0	96.3
-606.53	281.93	0	5.1886	0	0.17453	13.752	-26.662	0	0.057659	0	0	96.4
-605.15	279.27	0	5.1944	0	0.17453	13.906	-26.582	0	0.057659	0	0	96.5
-603.75	276.61	0	5.2001	0	0.17453	14.059	-26.502	0	0.057659	0	0	96.6
-602.34	273.96	0	5.2059	0	0.17453	14.211	-26.42	0	0.057659	0	0	96.7
-600.91	271.33	0	5.2117	0	0.17453	14.364	-26.338	0	0.057659	0	0	96.8
-599.47	268.7	0	5.2174	0	0.17453	14.515	-26.254	0	0.057659	0	0	96.9
-598.01	266.08	0	5.2232	0	0.17453	14.666	-26.17	0	0.057659	0	0	97
-596.53	263.46	0	5.229	0	0.17453	14.817	-26.085	0	0.057659	0	0	97.1
-595.04	260.86	0	5.2347	0	0.17453	14.967	-25.999	0	0.057659	0	0	97.2
-593.54	258.26	0	5.2405	0	0.17453	15.117	-25.913	0	0.057659	0	0	97.3
-592.02	255.68	0	5.2463	0	0.17453	15.266	-25.825	0	0.057659	0	0	97.4
-590.49	253.1	0	5.252	0	0.17453	15.415	-25.737	0	0.057659	0	0	97.5
-588.94	250.53	0	5.2578	0	0.17453	15.563	-25.647	0	0.057659	0	0	97.6
-587.37	247.97	0	5.2636	0	0.17453	15.71	-25.557	0	0.057659	0	0	97.7
-585.79	245.42	0	5.2693	0	0.17453	15.857	-25.466	0	0.057659	0	0	97.8
-584.2	242.88	0	5.2751	0	0.17453	16.004	-25.374	0	0.057659	0	0	97.9
-582.59	240.34	0	5.2809	0	0.17453	16.15	-25.282	0	0.057659	0	0	98
-580.97	237.82	0	5.2866	0	0.17453	16.296	-25.188	0	0.057659	0	0	98.1
-579.33	235.31	0	5.2924	0	0.17453	16.441	-25.094	0	0.057659	0	0	98.2
-577.68	232.8	0	5.2982	0	0.17453	16.585	-24.999	0	0.057659	0	0	98.3
-576.02	230.31	0	5.3039	0	0.17453	16.729	-24.903	0	0.057659	0	0	98.4
-574.34	227.82	0	5.3097	0	0.17453	16.872	-24.806	0	0.057659	0	0	98.5
-572.64	225.34	0	5.3154	0	0.17453	17.015	-24.708	0	0.057659	0	0	98.6
-570.93	222.88	0	5.3212	0	0.17453	17.157	-24.609	0	0.057659	0	0	98.7
-569.21	220.42	0	5.327	0	0.17453	17.299	-24.51	0	0.057659	0	0	98.8
-567.47	217.98	0	5.3327	0	0.17453	17.44	-24.41	0	0.057659	0	0	98.9
-565.72	215.54	0	5.3385	0	0.17453	17.58	-24.309	0	0.057659	0	0	99
-563.96	213.11	0	5.3443	0	0.17453	17.72	-24.207	0	0.057659	0	0	99.1
-562.18	210.7	0	5.35	0	0.17453	17.859	-24.105	0	0.057659	0	0	99.2
-560.39	208.29	0	5.3558	0	0.17453	17.998	-24.001	0	0.057659	0	0	99.3
-558.58	205.9	0	5.3616	0	0.17453	18.136	-23.897	0	0.057659	0	0	99.4
-556.76	203.51	0	5.3673	0	0.17453	18.274	-23.792	0	0.057659	0	0	99.5
-554.93	201.14	0	5.3731	0	0.17453	18.41	-23.686	0	0.057659	0	0	99.6
-553.08	198.78	0	5.3789	0	0.17453	18.547	-23.58	0	0.057659	0	0	99.7
-551.22	196.42	0	5.3846	0	0.17453	18.682	-23.472	0	0.057659	0	0	99.8
-549.34	194.08	0	5.3904	0	0.17453	18.817	-23.364	0	0.057659	0	0	99.9
-547.45	191.75	0	5.3962	0	0.17453	18.952	-23.256	0	0.057659	0	0	100
-545.55	189.43	0	5.4019	0	0.17453	19.086	-23.146	0	0.057659	0	0	100.1
-543.64	187.12	0	5.4077	0	0.17453	19.219	-23.035	0	0.057659	0	0	100.2
-541.71	184.82	0	5.4135	0	0.17453	19.351	-22.924	0	0.057659	0	0	100.3
-539.77	182.54	0	5.4192	0	0.17453	19.483	-22.812	0	0.057659	0	0	100.4
-537.81	180.26	0	5.425	0	0.17453	19.614	-22.7	0	0.057659	0	0	100.5
-535.84	178	0	5.4308	0	0.17453	19.745	-22.586	0	0.057659	0	0	100.6
-533.86	175.74	0	5.4365	0	0.17453	19.875	-22.472	0	0.057659	0	0	100.7
-531.87	173.5	0	5.4423	0	0.17453	20.004	-22.357	0	0.057659	0	0	100.8
-529.86	171.27	0	5.4481	0	0.17453	20.133	-22.241	0	0.057659	0	0	100.9
-527.84	169.05	0	5.4538	0	0.17453	20.261	-22.125	0	0.057659	0	0	101
-525.81	166.85	0	5.4596	0	0.17453	20.388	-22.008	0	0.057659	0	0	101.1
-523.76	164.65	0	5.4654	0	0.17453	20.514	-21.89	0	0.057659	0	0	101.2
-521.71	162.47	0	5.4711	0	0.17453	20.64	-21.771	0	0.057659	0	0	101.3
-519.64	160.3	0	5.4769	0	0.17453	20.765	-21.652	0	0.057659	0	0	101.4
-517.55	158.14	0	5.4827	0	0.17453	20.89	-21.532	0	0.057659	0	0	101.5
-515.46	155.99	0	5.4884	0	0.17453	21.014	-21.411	0	0.057659	0	0	101.6
-513.35	153.86	0	5.4942	0	0.17453	21.137	-21.289	0	0.057659	0	0	101.7
-511.23	151.73	0	5.5	0	0.17453	21.259	-21.167	0	0.057659	0	0	101.8
-509.1	149.62	0	5.5057	0	0.17453	21.381	-21.044	0	0.057659	0	0	101.9
-506.95	147.53	0	5.5115	0	0.17453	21.502	-20.92	0	0.057659	0	0	102
-504.8	145.44	0	5.5173	0	0.17453	21.622	-20.796	0	0.057659	0	0	102.1
-502.63	143.37	0	5.523	0	0.17453	21.742	-20.671	0	0.057659	0	0	102.2
-500.45	141.31	0	5.5288	0	0.17453	21.86	-20.545	0	0.057659	0	0	102.3
-498.26	139.26	0	5.5346	0	0.17453	21.978	-20.419	0	0.057659	0	0	102.4
-496.05	137.22	0	5.5403	0	0.17453	22.096	-20.292	0	0.057659	0	0	102.5
-493.84	135.2	0	5.5461	0	0.17453	22.212	-20.164	0	0.057659	0	0	102.6
-491.61	133.19	0	5.5519	0	0.17453	22.328	-20.036	0	0.057659	0	0	102.7
-489.37	131.19	0	5.5576	0	0.17453	22.444	-19.907	0	0.057659	0	0	102.8
-487.12	129.21	0	5.5634	0	0.17453	22.558	-19.777	0	0.057659	0	0	102.9
-484.86	127.24	0	5.5691	0	0.17453	22.672	-19.647	0	0.057659	0	0	103
-482.59	125.28	0	5.5749	0	0.17453	22.784	-19.516	0	0.057659	0	0	103.1
-480.3	123.33	0	5.5807	0	0.17453	22.897	-19.384	0	0.057659	0	0	103.2
-478.01	121.4	0	5.5864	0	0.17453	23.008	-19.252	0	0.057659	0	0	103.3
-475.7	119.48	0	5.5922	0	0.17453	23.119	-19.119	0	0.057659	0	0	103.4
-473.38	117.58	0	5.598	0	0.17453	23.228	-18.985	0	0.057659	0	0	103.5
-471.06	115.69	0	5.6037	0	0.17453	23.338	-18.851	0	0.057659	0	0	103.6
-468.72	113.81	0	5.6095	0	0.17453	23.446	-18.716	0	0.057659	0	0	103.7
-466.37	111.94	0	5.6153	0	0.17453	23.553	-18.58	0	0.057659	0	0	103.8
-464.01	110.09	0	5.621	0	0.17453	23.66	-18.444	0	0.057659	0	0	103.9
-461.64	108.25	0	5.6268	0	0.17453	23.766	-18.307	0	0.057659	0	0	104
-459.25	106.43	0	5.6326	0	0.17453	23.871	-18.17	0	0.057659	0	0	104.1
-456.86	104.62	0	5.6383	0	0.17453	23.976	-18.032	0	0.057659	0	0	104.2
-454.46	102.82	0	5.6441	0	0.17453	24.079	-17.894	0	0.057659	0	0	104.3
-452.05	101.04	0	5.6499	0	0.17453	24.182	-17.755	0	0.057659	0	0	104.4
-449.62	99.273	0	5.6556	0	0.17453	24.284	-17.615	0	0.057659	0	0	104.5
-447.19	97.519	0	5.6614	0	0.17453	24.385	-17.474	0	0.057659	0	0	104.6
-444.75	95.778	0	5.6672	0	0.17453	24.485	-17.334	0	0.057659	0	0	104.7
-442.29	94.052	0	5.6729	0	0.17453	24.585	-17.192	0	0.057659	0	0	104.8
-439.83	92.34	0	5.6787	0	0.17453	24.684	-17.05	0	0.057659	0	0	104.9
-437.35	90.642	0	5.6845	0	0.17453	24.782	-16.907	0	0.057659	0	0	105
-434.87	88.958	0	5.6902	0	0.17453	24.879	-16.764	0	0.057659	0	0	105.1
-432.38	87.289	0	5.696	0	0.17453	24.975	-16.621	0	0.057659	0	0	105.2
-429.88	85.634	0	5.7018	0	0.17453	25.07	-16.476	0	0.057659	0	0	105.3
-427.36	83.994	0	5.7075	0	0.17453	25.165	-16.331	0	0.057659	0	0	105.4
-424.84	82.368	0	5.7133	0	0.17453	25.259	-16.186	0	0.057659	0	0	105.5
-422.31	80.757	0	5.7191	0	0.17453	25.36	-16.04	0	0.057659	0	0	105.6
-419.77	79.16	0	5.7248	0	0.17453	25.444	-15.894	0	0.057659	0	0	105.7
-417.22	77.578	0	5.7306	0	0.17453	25.527	-15.747	0	0.057659	0	0	105.8
-414.67	76.011	0	5.7364	0	0.17453	25.625	-15.599	0	0.057659	0	0	105.9
-412.1	74.458	0	5.7421	0	0.17453	25.715	-15.451	0	0.057659	0	0	106
-409.52	72.92	0	5.7479	0	0.17453	25.803	-15.303	0	0.057659	0	0	106.1
-406.94	71.398	0	5.7537	0	0.17453	25.891	-15.154	0	0.057659	0	0	106.2
-404.35	69.89	0	5.7594	0	0.17453	25.978	-15.004	0	0.057659	0	0	106.3
-401.74	68.397	0	5.7652	0	0.17453	26.064	-14.854	0	0.057659	0	0	106.4
-399.13	66.919	0	5.771	0	0.17453	26.149	-14.704	0	0.057659	0	0	106.5
-396.51	65.456	0	5.7767	0	0.17453	26.234	-14.553	0	0.057659	0	0	106.6
-393.89	64.008	0	5.7825	0	0.17453	26.317	-14.401	0	0.057659	0	0	106.7
-391.25	62.576	0	5.7883	0	0.17453	26.4	-14.249	0	0.057659	0	0	106.8
-388.61	61.158	0	5.794	0	0.17453	26.482	-14.097	0	0.057659	0	0	106.9
-385.95	59.756	0	5.7998	0	0.17453	26.562	-13.944	0	0.057659	0	0	107
-383.29	58.37	0	5.8055	0	0.17453	26.642	-13.79	0	0.057659	0	0	107.1
-380.63	56.998	0	5.8113	0	0.17453	26.721	-13.637	0	0.057659	0	0	107.2
-377.95	55.642	0	5.8171	0	0.17453	26.8	-13.482	0	0.057659	0	0	107.3
-375.27	54.302	0	5.8228	0	0.17453	26.877	-13.327	0	0.057659	0	0	107.4
-372.57	52.977	0	5.8286	0	0.17453	26.953	-13.172	0	0.057659	0	0	107.5
-369.87	51.667	0	5.8344	0	0.17453	27.029	-13.017	0	0.057659	0	0	107.6
-367.17	50.374	0	5.8401	0	0.17453	27.103	-12.861	0	0.057659	0	0	107.7
-364.45	49.095	0	5.8459	0	0.17453	27.177	-12.704	0	0.057659	0	0	107.8
-361.73	47.833	0	5.8517	0	0.17453	27.25	-12.547	0	0.057659	0	0	107.9
-359	46.586	0	5.8574	0	0.17453	27.322	-12.39	0	0.057659	0	0	108
-356.27	45.355	0	5.8632	0	0.17453	27.393	-12.232	0	0.057659	0	0	108.1
-353.53	44.139	0	5.869	0	0.17453	27.463	-12.074	0	0.057659	0	0	108.2
-350.78	42.94	0	5.8747	0	0.17453	27.532	-11.915	0	0.057659	0	0	108.3
-348.02	41.756	0	5.8805	0	0.17453	27.6	-11.756	0	0.057659	0	0	108.4
-345.26	40.589	0	5.8863	0	0.17453	27.668	-11.597	0	0.057659	0	0	108.5
-342.49	39.437	0	5.892	0	0.17453	27.734	-11.437	0	0.057659	0	0	108.6
-339.71	38.301	0	5.8978	0	0.17453	27.799	-11.277	0	0.057659	0	0	108.7
-336.93	37.181	0	5.9036	0	0.17453	27.864	-11.117	0	0.057659	0	0	108.8
-334.14	36.078	0	5.9093	0	0.17453	27.928	-10.956	0	0.057659	0	0	108.9
-331.34	34.99	0	5.9151	0	0.17453	27.99	-10.795	0	0.057659	0	0	109
-328.54	33.919	0	5.9209	0	0.17453	28.052	-10.633	0	0.057659	0	0	109.1
-325.73	32.864	0	5.9266	0	0.17453	28.113	-10.471	0	0.057659	0	0	109.2
-322.92	31.825	0	5.9324	0	0.17453	28.173	-10.309	0	0.057659	0	0	109.3
-320.09	30.802	0	5.9382	0	0.17453	28.232	-10.146	0	0.057659	0	0	109.4
-317.27	29.795	0	5.9439	0	0.17453	28.29	-9.9835	0	0.057659	0	0	109.5
-314.44	28.805	0	5.9497	0	0.17453	28.347	-9.8202	0	0.057659	0	0	109.6
-311.6	27.831	0	5.9555	0	0.17453	28.403	-9.6566	0	0.057659	0	0	109.7
-308.76	26.874	0	5.9612	0	0.17453	28.458	-9.4926	0	0.057659	0	0	109.8
-305.91	25.933	0	5.967	0	0.17453	28.513	-9.3284	0	0.057659	0	0	109.9
-303.05	25.008	0	5.9728	0	0.17453	28.566	-9.1638	0	0.057659	0	0	110
-300.19	24.1	0	5.9785	0	0.17453	28.618	-8.999	0	0.057659	0	0	110.1
-297.33	23.208	0	5.9843	0	0.17453	28.67	-8.8338	0	0.057659	0	0	110.2
-294.46	22.333	0	5.9901	0	0.17453	28.72	-8.6684	0	0.057659	0	0	110.3
-291.59	21.475	0	5.9958	0	0.17453	28.77	-8.5026	0	0.057659	0	0	110.4
-288.71	20.633	0	6.0016	0	0.17453	28.818	-8.3366	0	0.057659	0	0	110.5
-285.82	19.807	0	6.0074	0	0.17453	28.866	-8.1703	0	0.057659	0	0	110.6
-282.93	18.999	0	6.0131	0	0.17453	28.912	-8.0037	0	0.057659	0	0	110.7
-280.04	18.207	0	6.0189	0	0.17453	28.958	-7.8369	0	0.057659	0	0	110.8
-277.14	17.431	0	6.0247	0	0.17453	29.003	-7.6698	0	0.057659	0	0	110.9
-274.24	16.673	0	6.0304	0	0.17453	29.047	-7.5025	0	0.057659	0	0	111
-271.33	15.931	0	6.0362	0	0.17453	29.089	-7.3348	0	0.057659	0	0	111.1
-268.42	15.206	0	6.042	0	0.17453	29.131	-7.167	0	0.057659	0	0	111.2
-265.51	14.497	0	6.0477	0	0.17453	29.172	-6.9989	0	0.057659	0	0	111.3
-262.59	13.806	0	6.0535	0	0.17453	29.212	-6.8306	0	0.057659	0	0	111.4
-259.66	13.131	0	6.0592	0	0.17453	29.251	-6.6621	0	0.057659	0	0	111.5
-256.74	12.473	0	6.065	0	0.17453	29.289	-6.4933	0	0.057659	0	0	111.6
-253.81	11.833	0	6.0708	0	0.17453	29.326	-6.3243	0	0.057659	0	0	111.7
-250.87	11.209	0	6.0765	0	0.17453	29.362	-6.1551	0	0.057659	0	0	111.8
-247.93	10.602	0	6.0823	0	0.17453	29.397	-5.9857	0	0.057659	0	0	111.9
-244.99	10.011	0	6.0881	0	0.17453	29.431	-5.8161	0	0.057659	0	0	112
-242.05	9.4384	0	6.0938	0	0.17453	29.464	-5.6463	0	0.057659	0	0	112.1
-239.1	8.8822	0	6.0996	0	0.17453	29.495	-5.4763	0	0.057659	0	0	112.2
-236.15	8.3431	0	6.1054	0	0.17453	29.527	-5.3062	0	0.057659	0	0	112.3
-233.19	7.821	0	6.1111	0	0.17453	29.557	-5.1359	0	0.057659	0	0	112.4
-230.24	7.3159	0	6.1169	0	0.17453	29.586	-4.9653	0	0.057659	0	0	112.5
-227.28	6.8279	0	6.1227	0	0.17453	29.614	-4.7947	0	0.057659	0	0	112.6
-224.31	6.357	0	6.1284	0	0.17453	29.641	-4.6238	0	0.057659	0	0	112.7
-221.35	5.9031	0	6.1342	0	0.17453	29.668	-4.4529	0	0.057659	0	0	112.8
-218.38	5.4664	0	6.14	0	0.17453	29.693	-4.2817	0	0.057659	0	0	112.9
-215.41	5.0468	0	6.1457	0	0.17453	29.717	-4.1105	0	0.057659	0	0	113
-212.44	4.6443	0	6.1515	0	0.17453	29.74	-3.939	0	0.057659	0	0	113.1
-209.46	4.259	0	6.1573	0	0.17453	29.762	-3.7675	0	0.057659	0	0	113.2
-206.48	3.8908	0	6.163	0	0.17453	29.784	-3.5958	0	0.057659	0	0	113.3
-203.51	3.5398	0	6.1688	0	0.17453	29.804	-3.424	0	0.057659	0	0	113.4
-200.52	3.206	0	6.1746	0	0.17453	29.823	-3.2521	0	0.057659	0	0	113.5
-197.54	2.8894	0	6.1803	0	0.17453	29.841	-3.0801	0	0.057659	0	0	113.6
-194.56	2.59	0	6.1861	0	0.17453	29.858	-2.908	0	0.057659	0	0	113.7
-191.57	2.3078	0	6.1919	0	0.17453	29.875	-2.7358	0	0.057659	0	0	113.8
-188.58	2.0428	0	6.1976	0	0.17453	29.89	-2.5635	0	0.057659	0	0	113.9
-185.59	1.7951	0	6.2034	0	0.17453	29.904	-2.3911	0	0.057659	0	0	114
-182.6	1.5646	0	6.2092	0	0.17453	29.918	-2.2187	0	0.057659	0	-2.6496e-06	114.1
-179.61	1.3514	0	6.2149	0	0.17453	29.93	-2.0461	0	0.057652	0	-0.00072336	114.2
-176.61	1.1554	0	6.2207	0	0.17439	29.941	-1.8736	0	0.057579	0	-0.0042229	114.3
-173.62	0.97663	0	6.2264	0	0.17369	29.952	-1.7015	0	0.057322	0	-0.011665	114.4
-170.62	0.81507	0	6.2322	0	0.17206	29.961	-1.5306	0	0.056755	0	-0.022496	114.5
-167.63	0.67052	0	6.2378	0	0.16919	29.969	-1.3618	0	0.055777	0	-0.03598	114.6
-164.63	0.5427	0	6.2433	0	0.16486	29.976	-1.1967	0	0.054312	0	-0.051387	114.7
-161.63	0.43117	0	6.2487	0	0.15891	29.982	-1.0368	0	0.052311	0	-0.06799	114.8
-158.63	0.33534	0	6.2538	0	0.15126	29.987	-0.88362	0	0.049749	0	-0.085056	114.9
-155.63	0.25444	0	6.2586	0	0.1419	29.991	-0.73898	0	0.046625	0	-0.10184	115
-152.64	0.18754	0	6.2631	0	0.13089	29.994	-0.6045	0	0.042967	0	-0.11758	115.1
-149.64	0.13354	0	6.2672	0	0.11838	29.996	-0.48172	0	0.038825	0	-0.13149	115.2
-146.64	0.091201	0	6.2709	0	0.1046	29.998	-0.37199	0	0.034276	0	-0.14277	115.3
-143.64	0.059147	0	6.2741	0	0.08983	29.999	-0.27638	0	0.029423	0	-0.1506	115.4
-140.64	0.035924	0	6.2767	0	0.074475	29.999	-0.19563	0	0.024394	0	-0.15414	115.5
-137.64	0.02002	0	6.2789	0	0.059001	30	-0.13005	0	0.019341	0	-0.15259	115.6
-134.64	0.0099146	0	6.2806	0	0.043958	30	-0.079437	0	0.014443	0	-0.14511	115.7
-131.64	0.0041329	0	6.2818	0	0.02998	30	-0.043035	0	0.0099035	0	-0.13092	115.8
-128.64	0.0013076	0	6.2826	0	0.017775	30	-0.019428	0	0.0059527	0	-0.10925	115.9
-125.64	0.00024722	0	6.283	0	0.0081302	30	-0.0064766	0	0.002845	0	-0.079344	116
-122.64	1.2325e-05	0	6.2832	0	0.0019061	30	-0.0012361	0	0.00086035	0	-0.040651	116.1
-119.64	2.4811e-13	0	6.2832	0	0	30	-6.1627e-05	0	9.2669e-05	0	-0.0095304	116.2
-116.64	-5.675e-13	0	6.2832	0	0	30	3.8564e-11	0	0	0	0	116.3
-113.64	7.961e-12	0	6.2832	0	0	30	3.0249e-12	0	0	0	0	116.4
-110.64	3.747e-14	0	6.2832	0	0	30	-3.6447e-11	0	0	0	0	116.5
-107.64	6.7164e-13	0	6.2832	0	0	30	4.1522e-13	0	0	0	0	116.6
-104.64	1.2051e-13	0	6.2832	0	0	30	-3.0389e-12	0	0	0	0	116.7
-101.64	6.385e-14	0	6.2832	0	0	30	3.0844e-13	0	0	0	0	116.8
-98.637	1.822e-13	0	6.2832	0	0	30	-2.711e-12	0	0	0	0	116.9
-95.637	-4.7836e-13	0	6.2832	0	0	30	4.9514e-12	0	0	0	0	117
-92.637	1.1725e-12	0	6.2832	0	0	30	-5.5801e-13	0	0	0	0	117.1
-89.637	-5.8996e-13	0	6.2832	0	0	30	3.5617e-13	0	0	0	0	117.2
-86.637	1.2437e-12	0	6.2832	0	0	30	7.6717e-12	0	0	0	0	117.3
-83.637	9.4438e-13	0	6.2832	0	0	30	3.7198e-09	0	0	0	0	117.4
-80.637	7.4521e-10	0	6.2832	0	0	30	-3.8824e-12	0	0	0	0	117.5
-77.637	1.6791e-13	0	6.2832	0	0	30	-3.7316e-09	0	0	0	0	117.6
-74.637	-1.104e-12	0	6.2832	0	0	30	-8.9359e-12	0	0	0	0	117.7
-71.637	-1.6193e-12	0	6.2832	0	0	30	7.6891e-12	0	0	0	0	117.8
-68.637	4.3387e-13	0	6.2832	0	0	30	1.1802e-11	0	0	0	0	117.9
-65.637	7.4119e-13	0	6.2832	0	0	30	-3.0453e-12	0	0	0	0	118
-62.637	-1.7519e-13	0	6.2832	0	0	30	-8.8222e-12	0	0	0	0	118.1
-59.637	-1.0233e-12	0	6.2832	0	0	30	5.292e-12	0	0	0	0	118.2
-56.637	8.8321e-13	0	6.2832	0	0	30	5.8141e-12	0	0	0	0	118.3
-53.637	1.3956e-13	0	6.2832	0	0	30	-5.9399e-12	0	0	0	0	118.4
-50.637	-3.0477e-13	0	6.2832	0	0	30	2.2507e-12	0	0	0	0	118.5
-47.636	5.8969e-13	0	6.2832	0	0	30	-6.088e-12	0	0	0	0	118.6
-44.637	-1.5224e-12	0	6.2832	0	0	30	-2.4816e-12	0	0	0	0	118.7
-41.637	9.3369e-14	0	6.2832	0	0	30	9.944e-12	0	0	0	0	118.8
-38.637	4.6643e-13	0	6.2832	0	0	30	-3.5448e-12	0	0	0	0	118.9
-35.637	-6.1558e-13	0	6.2832	0	0	30	-5.8791e-12	0	0	0	0	119
-32.637	-7.0939e-13	0	6.2832	0	0	30	5.1347e-13	0	0	0	0	119.1
-29.637	-5.1289e-13	0	6.2832	0	0	30	2.4502e-12	0	0	0	0	119.2
-26.637	-2.1935e-13	0	6.2832	0	0	30	4.316e-12	0	0	0	0	119.3
-23.637	3.5031e-13	0	6.2832	0	0	30	-3.4555e-11	0	0	0	0	119.4
-20.637	-7.1303e-12	0	6.2832	0	0	30	-7.6715e-12	0	0	0	0	119.5
-17.637	-1.184e-12	0	6.2832	0	0	30	3.4558e-11	0	0	0	0	119.6
-14.637	-2.1871e-13	0	6.2832	0	0	30	1.265e-11	0	0	0	0	119.7
-11.637	1.3459e-12	0	6.2832	0	0	30	-2.9092e-12	0	0	0	0	119.8
-8.6365	-8.0055e-13	0	6.2832	0	0	30	-4.6444e-12	0	0	0	0	119.9
-5.6365	4.1706e-13	0	6.2832	0	0	30	1.3753e-11	0	0	0	0	120
-2.6365	1.9501e-12	0	6.2832	0	0	30	1.3753e-11	0	0	0	0	120.1
